; generated by Slic3r 1.3.0 on 2021-04-26 at 20:38:23

; external perimeters extrusion width = 0.50mm (2.74mm^3/s)
; perimeters extrusion width = 0.50mm (2.74mm^3/s)
; infill extrusion width = 0.50mm (3.66mm^3/s)
; solid infill extrusion width = 0.50mm (2.74mm^3/s)
; top infill extrusion width = 0.50mm (2.74mm^3/s)

M107
M104 S215 ; set temperature
T0

; Filament gcode

M109 S215 ; set temperature and wait for it to be reached
G21 ; set units to millimeters
G90 ; use absolute coordinates
M83 ; use relative distances for extrusion
G1 E-3.50000 F2400.00000
G1 Z0.250 F9000.000
G1 X59.176 Y58.785 F9000.000
G1 E3.50000 F2400.00000
G1 F1200
G1 X61.463 Y57.549 E0.20161
G1 X64.310 Y57.057 E0.22416
G1 X74.666 Y57.057 E0.80334
G1 X77.234 Y57.455 E0.20161
G1 X79.562 Y58.611 E0.20161
G1 X81.431 Y60.416 E0.20161
G1 X82.667 Y62.702 E0.20161
G1 X83.159 Y65.550 E0.22416
G1 X83.159 Y74.450 E0.69041
G1 X82.761 Y77.018 E0.20161
G1 X81.605 Y79.346 E0.20161
G1 X79.800 Y81.215 E0.20161
G1 X77.514 Y82.451 E0.20161
G1 X74.666 Y82.943 E0.22416
G1 X64.310 Y82.943 E0.80334
G1 X61.742 Y82.545 E0.20161
G1 X59.414 Y81.389 E0.20161
G1 X57.545 Y79.584 E0.20161
G1 X56.309 Y77.298 E0.20161
G1 X55.818 Y74.450 E0.22416
G1 X55.818 Y65.550 E0.69041
G1 X56.215 Y62.982 E0.20161
G1 X57.371 Y60.654 E0.20161
G1 X59.124 Y58.839 E0.19579
G1 X59.900 Y59.182 F9000.000
G1 F1200
G1 X62.140 Y58.114 E0.19249
G1 X64.310 Y57.804 E0.17006
G1 X74.666 Y57.804 E0.80334
G1 X77.115 Y58.201 E0.19249
G1 X79.313 Y59.353 E0.19249
G1 X81.034 Y61.140 E0.19249
G1 X82.102 Y63.380 E0.19249
G1 X82.412 Y65.550 E0.17006
G1 X82.412 Y74.450 E0.69041
G1 X82.015 Y76.899 E0.19249
G1 X80.863 Y79.097 E0.19249
G1 X79.076 Y80.818 E0.19249
G1 X76.836 Y81.886 E0.19249
G1 X74.666 Y82.196 E0.17006
G1 X64.310 Y82.196 E0.80334
G1 X61.861 Y81.799 E0.19249
G1 X59.663 Y80.647 E0.19249
G1 X57.942 Y78.860 E0.19249
G1 X56.874 Y76.620 E0.19249
G1 X56.564 Y74.450 E0.17006
G1 X56.564 Y65.550 E0.69041
G1 X56.961 Y63.101 E0.19249
G1 X58.113 Y60.903 E0.19249
G1 X59.846 Y59.234 E0.18667
G1 E-3.50000 F2400.00000
G1 X62.025 Y61.307 F9000.000
G1 E3.50000 F2400.00000
G1 F1200
G1 X62.398 Y60.934 E0.04567
G1 X76.578 Y60.934 E1.22819
G1 X79.282 Y63.638 E0.33123
G1 X79.282 Y76.362 E1.10210
G1 X76.578 Y79.066 E0.33123
G1 X62.398 Y79.066 E1.22819
G1 X59.694 Y76.362 E0.33123
G1 X59.694 Y63.638 E1.10210
G1 X61.972 Y61.360 E0.27906
G1 X62.615 Y61.896 F9000.000
G1 F1200
G1 X62.743 Y61.767 E0.01577
G1 X76.233 Y61.767 E1.16839
G1 X78.449 Y63.983 E0.27143
G1 X78.449 Y76.017 E1.04231
G1 X76.233 Y78.233 E0.27143
G1 X62.743 Y78.233 E1.16839
G1 X60.527 Y76.017 E0.27143
G1 X60.527 Y63.983 E1.04231
G1 X62.562 Y61.949 E0.24916
G1 X63.089 Y62.601 F9000.000
G1 F1200
G1 X75.888 Y62.601 E1.10860
G1 X77.615 Y64.328 E0.21164
G1 X77.615 Y75.672 E0.98251
G1 X75.888 Y77.399 E0.21164
G1 X63.089 Y77.399 E1.10860
G1 X61.361 Y75.672 E0.21164
G1 X61.361 Y64.328 E0.98251
G1 X63.035 Y62.654 E0.20514
G1 X63.434 Y63.434 F9000.000
G1 F1200
G1 X75.542 Y63.434 E1.04880
G1 X76.782 Y64.673 E0.15184
G1 X76.782 Y75.327 E0.92272
G1 X75.542 Y76.566 E0.15184
G1 X63.434 Y76.566 E1.04880
G1 X62.194 Y75.327 E0.15184
G1 X62.194 Y64.673 E0.92272
G1 X63.381 Y63.487 E0.14535
G1 X63.779 Y64.267 F9000.000
G1 F1200
G1 X75.197 Y64.267 E0.98901
G1 X75.949 Y65.019 E0.09205
G1 X75.949 Y74.981 E0.86292
G1 X75.197 Y75.733 E0.09205
G1 X63.779 Y75.733 E0.98901
G1 X63.027 Y74.981 E0.09205
G1 X63.027 Y65.019 E0.86292
G1 X63.726 Y64.320 E0.08555
G1 X64.124 Y65.101 F9000.000
G1 F1200
G1 X74.852 Y65.101 E0.92921
G1 X75.115 Y65.364 E0.03225
G1 X75.115 Y74.636 E0.80313
G1 X74.852 Y74.899 E0.03225
G1 X64.124 Y74.899 E0.92921
G1 X63.861 Y74.636 E0.03225
G1 X63.861 Y65.364 E0.80313
G1 X64.071 Y65.154 E0.02576
G1 E-3.50000 F2400.00000
G1 X74.266 Y74.050 F9000.000
G1 E3.50000 F2400.00000
G1 F900
G1 X64.710 Y74.050 E0.74128
G1 X64.710 Y65.950 E0.62835
G1 X74.266 Y65.950 E0.74128
G1 X74.266 Y73.975 E0.62253
G1 X73.780 Y73.934 F9000.000
G1 X73.520 Y73.304 F9000.000
G1 F900
G1 X65.457 Y73.304 E0.62548
G1 X65.457 Y66.696 E0.51255
G1 X73.520 Y66.696 E0.62548
G1 X73.520 Y73.229 E0.50674
G1 X72.773 Y72.557 F9000.000
G1 F900
G1 X66.203 Y72.557 E0.50969
G1 X66.203 Y67.443 E0.39676
G1 X72.773 Y67.443 E0.50969
G1 X72.773 Y72.482 E0.39094
G1 X72.027 Y71.811 F9000.000
G1 F900
G1 X66.949 Y71.811 E0.39389
G1 X66.949 Y68.189 E0.28097
G1 X72.027 Y68.189 E0.39389
G1 X72.027 Y71.736 E0.27515
G1 X71.201 Y71.144 F9000.000
G1 F900
G1 X71.360 Y70.985 E0.01882
G1 X71.360 Y69.843 E0.09598
G1 X70.058 Y71.144 E0.15456
G1 X68.916 Y71.144 E0.09598
G1 X71.203 Y68.856 E0.27172
G1 X70.060 Y68.856 E0.09598
G1 X67.773 Y71.144 E0.27172
G1 X67.616 Y71.144 E0.01314
G1 X67.616 Y70.157 E0.08284
G1 X68.918 Y68.856 E0.15456
G1 X67.775 Y68.856 E0.09598
G1 X67.617 Y69.015 E0.01881
G1 E-3.50000 F2400.00000
G1 Z0.450 F9000.000
G1 X73.079 Y72.829 F9000.000
G1 E3.50000 F2400.00000
G1 F600
G1 X65.290 Y72.829 E0.29603
G1 X65.290 Y67.171 E0.21502
G1 X73.079 Y67.171 E0.29603
G1 X73.079 Y72.754 E0.21217
G1 X73.536 Y73.286 F9000.000
G1 F600
G1 X64.833 Y73.286 E0.33077
G1 X64.833 Y66.714 E0.24977
G1 X73.536 Y66.714 E0.33077
G1 X73.536 Y73.211 E0.24692
G1 X73.993 Y73.743 F9000.000
G1 F600
G1 X64.376 Y73.743 E0.36552
G1 X64.376 Y66.257 E0.28451
G1 X73.993 Y66.257 E0.36552
G1 X73.993 Y73.668 E0.28166
G1 X74.450 Y74.200 F9000.000
G1 F1800
G1 X64.060 Y74.200 E0.39488

G1 F2400
G1 X63.919 Y74.200 E0.01157
G1 X63.919 Y65.800 E0.68571
G1 X64.060 Y65.800 E0.01157

G1 F1800
G1 X74.450 Y65.800 E0.39488
G1 X74.450 Y74.125 E0.31640
G1 X73.963 Y74.088 F9000.000
G1 X72.670 Y67.677 F9000.000
G1 F600
G1 X72.573 Y67.580 E0.00552
G1 X71.890 Y67.580 E0.02746
G1 X72.670 Y68.360 E0.04435
G1 X72.670 Y69.044 E0.02746
G1 X71.206 Y67.580 E0.08319
G1 X70.523 Y67.580 E0.02746
G1 X72.670 Y69.727 E0.12202
G1 X72.670 Y70.411 E0.02746
G1 X69.839 Y67.580 E0.16086
G1 X69.156 Y67.580 E0.02746
G1 X72.670 Y71.094 E0.19969
G1 X72.670 Y71.777 E0.02746
G1 X68.473 Y67.580 E0.23853
G1 X67.789 Y67.580 E0.02746
G1 X72.630 Y72.420 E0.27506
G1 X71.946 Y72.420 E0.02746
G1 X67.106 Y67.580 E0.27506
G1 X66.422 Y67.580 E0.02746
G1 X71.263 Y72.420 E0.27506
G1 X70.579 Y72.420 E0.02746
G1 X65.739 Y67.580 E0.27506
G1 X65.698 Y67.580 E0.00163
G1 X65.698 Y68.223 E0.02583
G1 X69.896 Y72.420 E0.23853
G1 X69.213 Y72.420 E0.02746
G1 X65.698 Y68.906 E0.19969
G1 X65.698 Y69.589 E0.02746
G1 X68.529 Y72.420 E0.16086
G1 X67.846 Y72.420 E0.02746
G1 X65.698 Y70.273 E0.12202
G1 X65.698 Y70.956 E0.02746
G1 X67.162 Y72.420 E0.08319
G1 X66.479 Y72.420 E0.02746
G1 X65.698 Y71.640 E0.04435
G1 X65.698 Y72.323 E0.02746
G1 X65.795 Y72.420 E0.00551
M106 S255
G1 E-3.50000 F2400.00000
G1 Z0.650 F9000.000
G1 X73.079 Y72.829 F9000.000
G1 E3.50000 F2400.00000
G1 F600
G1 X64.900 Y72.829 E0.31084
G1 X64.900 Y67.171 E0.21502
G1 X73.079 Y67.171 E0.31084
G1 X73.079 Y72.754 E0.21217
G1 X73.536 Y73.286 F9000.000
G1 F600
G1 X64.443 Y73.286 E0.34558
G1 X64.443 Y66.714 E0.24977
G1 X73.536 Y66.714 E0.34558
G1 X73.536 Y73.211 E0.24692
G1 X73.993 Y73.743 F9000.000
G1 F600
G1 X63.986 Y73.743 E0.38032
G1 X63.986 Y66.257 E0.28451
G1 X73.993 Y66.257 E0.38032
G1 X73.993 Y73.668 E0.28166
G1 X74.450 Y74.200 F9000.000
G1 F1800
G1 X63.529 Y74.200 E0.41507
G1 X63.529 Y65.800 E0.31925
G1 X74.450 Y65.800 E0.41507
G1 X74.450 Y74.125 E0.31640
G1 X73.962 Y74.092 F9000.000
G1 X72.573 Y72.420 F9000.000
G1 F600
G1 X72.670 Y72.323 E0.00539
G1 X72.670 Y71.656 E0.02616
G1 X71.906 Y72.420 E0.04239
G1 X71.239 Y72.420 E0.02616
G1 X72.670 Y70.989 E0.07939
G1 X72.670 Y70.322 E0.02616
G1 X70.572 Y72.420 E0.11639
G1 X69.905 Y72.420 E0.02616
G1 X72.670 Y69.655 E0.15339
G1 X72.670 Y68.988 E0.02616
G1 X69.238 Y72.420 E0.19040
G1 X68.571 Y72.420 E0.02616
G1 X72.670 Y68.321 E0.22740
G1 X72.670 Y67.653 E0.02616
G1 X67.903 Y72.420 E0.26440
G1 X67.236 Y72.420 E0.02616
G1 X72.077 Y67.580 E0.26849
G1 X71.410 Y67.580 E0.02616
G1 X66.569 Y72.420 E0.26849
G1 X65.902 Y72.420 E0.02616
G1 X70.743 Y67.580 E0.26849
G1 X70.076 Y67.580 E0.02616
G1 X65.309 Y72.347 E0.26440
G1 X65.309 Y71.679 E0.02616
G1 X69.408 Y67.580 E0.22740
G1 X68.741 Y67.580 E0.02616
G1 X65.309 Y71.012 E0.19040
G1 X65.309 Y70.345 E0.02616
G1 X68.074 Y67.580 E0.15339
G1 X67.407 Y67.580 E0.02616
G1 X65.309 Y69.678 E0.11639
G1 X65.309 Y69.011 E0.02616
G1 X66.740 Y67.580 E0.07939
G1 X66.073 Y67.580 E0.02616
G1 X65.309 Y68.344 E0.04239
G1 X65.309 Y67.677 E0.02616
G1 X65.406 Y67.580 E0.00539
G1 E-3.50000 F2400.00000
G1 Z0.850 F9000.000
G1 X73.079 Y72.829 F9000.000
G1 E3.50000 F2400.00000
G1 F606.148
G1 X64.591 Y72.829 E0.32260
G1 X64.591 Y67.171 E0.21502
G1 X73.079 Y67.171 E0.32260
G1 X73.079 Y72.754 E0.21217
G1 X73.536 Y73.286 F9000.000
G1 F606.148
G1 X64.134 Y73.286 E0.35734
G1 X64.134 Y66.714 E0.24977
G1 X73.536 Y66.714 E0.35734
G1 X73.536 Y73.211 E0.24692
G1 X73.993 Y73.743 F9000.000
G1 F606.148
G1 X63.677 Y73.743 E0.39209
G1 X63.677 Y66.257 E0.28451
G1 X73.993 Y66.257 E0.39209
G1 X73.993 Y73.668 E0.28166
G1 X74.450 Y74.200 F9000.000
G1 F1800
G1 X63.219 Y74.200 E0.42683
G1 X63.219 Y65.800 E0.31925
G1 X74.450 Y65.800 E0.42683
G1 X74.450 Y74.125 E0.31640
G1 X73.961 Y74.094 F9000.000
G1 X72.670 Y67.677 F9000.000
G1 F606.148
G1 X72.573 Y67.580 E0.00523
G1 X71.925 Y67.580 E0.02471
G1 X72.670 Y68.325 E0.04018
G1 X72.670 Y68.973 E0.02471
G1 X71.277 Y67.580 E0.07512
G1 X70.628 Y67.580 E0.02471
G1 X72.670 Y69.622 E0.11007
G1 X72.670 Y70.270 E0.02471
G1 X69.980 Y67.580 E0.14501
G1 X69.332 Y67.580 E0.02471
G1 X72.670 Y70.918 E0.17995
G1 X72.670 Y71.567 E0.02471
G1 X68.683 Y67.580 E0.21490
G1 X68.035 Y67.580 E0.02471
G1 X72.670 Y72.215 E0.24984
G1 X72.670 Y72.420 E0.00783
G1 X72.227 Y72.420 E0.01688
G1 X67.387 Y67.580 E0.26091
G1 X66.739 Y67.580 E0.02471
G1 X71.579 Y72.420 E0.26091
G1 X70.931 Y72.420 E0.02471
G1 X66.090 Y67.580 E0.26091
G1 X65.442 Y67.580 E0.02471
G1 X70.283 Y72.420 E0.26091
G1 X69.634 Y72.420 E0.02471
G1 X64.999 Y67.785 E0.24984
G1 X64.999 Y68.433 E0.02471
G1 X68.986 Y72.420 E0.21490
G1 X68.338 Y72.420 E0.02471
G1 X64.999 Y69.082 E0.17995
G1 X64.999 Y69.730 E0.02471
G1 X67.689 Y72.420 E0.14501
G1 X67.041 Y72.420 E0.02471
G1 X64.999 Y70.378 E0.11007
G1 X64.999 Y71.027 E0.02471
G1 X66.393 Y72.420 E0.07512
G1 X65.745 Y72.420 E0.02471
G1 X64.999 Y71.675 E0.04018
G1 X64.999 Y72.323 E0.02471
G1 X65.096 Y72.420 E0.00523
G1 E-3.50000 F2400.00000
G1 Z1.050 F9000.000
G1 X73.079 Y72.829 F9000.000
G1 E3.50000 F2400.00000
G1 F615.879
G1 X64.335 Y72.829 E0.33232
G1 X64.335 Y67.171 E0.21502
G1 X73.079 Y67.171 E0.33232
G1 X73.079 Y72.754 E0.21217
G1 X73.536 Y73.286 F9000.000
G1 F615.879
G1 X63.878 Y73.286 E0.36706
G1 X63.878 Y66.714 E0.24977
G1 X73.536 Y66.714 E0.36706
G1 X73.536 Y73.211 E0.24692
G1 X73.993 Y73.743 F9000.000
G1 F615.879
G1 X63.421 Y73.743 E0.40181
G1 X63.421 Y66.257 E0.28451
G1 X73.993 Y66.257 E0.40181
G1 X73.993 Y73.668 E0.28166
G1 X74.450 Y74.200 F9000.000
G1 F1800
G1 X62.964 Y74.200 E0.43655
G1 X62.964 Y65.800 E0.31925
G1 X74.450 Y65.800 E0.43655
G1 X74.450 Y74.125 E0.31640
G1 X73.961 Y74.096 F9000.000
G1 X72.573 Y72.420 F9000.000
G1 F615.879
G1 X72.670 Y72.323 E0.00534
G1 X72.670 Y71.661 E0.02575
G1 X71.911 Y72.420 E0.04175
G1 X71.250 Y72.420 E0.02575
G1 X72.670 Y71.000 E0.07816
G1 X72.670 Y70.338 E0.02575
G1 X70.588 Y72.420 E0.11457
G1 X69.926 Y72.420 E0.02575
G1 X72.670 Y69.676 E0.15098
G1 X72.670 Y69.014 E0.02575
G1 X69.264 Y72.420 E0.18739
G1 X68.603 Y72.420 E0.02575
G1 X72.670 Y68.353 E0.22380
G1 X72.670 Y67.691 E0.02575
G1 X67.941 Y72.420 E0.26021
G1 X67.279 Y72.420 E0.02575
G1 X72.120 Y67.580 E0.26633
G1 X71.458 Y67.580 E0.02575
G1 X66.618 Y72.420 E0.26633
G1 X65.956 Y72.420 E0.02575
G1 X70.796 Y67.580 E0.26633
G1 X70.134 Y67.580 E0.02575
G1 X65.294 Y72.420 E0.26633
G1 X64.744 Y72.420 E0.02142
G1 X64.744 Y72.309 E0.00432
G1 X69.473 Y67.580 E0.26021
G1 X68.811 Y67.580 E0.02575
G1 X64.744 Y71.647 E0.22380
G1 X64.744 Y70.986 E0.02575
G1 X68.149 Y67.580 E0.18739
G1 X67.488 Y67.580 E0.02575
G1 X64.744 Y70.324 E0.15098
G1 X64.744 Y69.662 E0.02575
G1 X66.826 Y67.580 E0.11457
G1 X66.164 Y67.580 E0.02575
G1 X64.744 Y69.000 E0.07816
G1 X64.744 Y68.339 E0.02575
G1 X65.502 Y67.580 E0.04175
G1 X64.841 Y67.580 E0.02575
G1 X64.744 Y67.677 E0.00534
G1 E-3.50000 F2400.00000
G1 Z1.250 F9000.000
G1 X73.079 Y72.829 F9000.000
G1 E3.50000 F2400.00000
G1 F600
G1 X64.117 Y72.829 E0.34061
G1 X64.117 Y67.171 E0.21502
G1 X73.079 Y67.171 E0.34061
G1 X73.079 Y72.754 E0.21217
G1 X73.536 Y73.286 F9000.000
G1 F600
G1 X63.660 Y73.286 E0.37535
G1 X63.660 Y66.714 E0.24977
G1 X73.536 Y66.714 E0.37535
G1 X73.536 Y73.211 E0.24692
G1 X73.993 Y73.743 F9000.000
G1 F600
G1 X63.203 Y73.743 E0.41009
G1 X63.203 Y66.257 E0.28451
G1 X73.993 Y66.257 E0.41009
G1 X73.993 Y73.668 E0.28166
G1 X74.450 Y74.200 F9000.000
G1 F1800
G1 X62.746 Y74.200 E0.44484
G1 X62.746 Y65.800 E0.31925
G1 X74.450 Y65.800 E0.44484
G1 X74.450 Y74.125 E0.31640
G1 X73.961 Y74.097 F9000.000
G1 X72.670 Y71.794 F9000.000
G1 F600
G1 X72.044 Y72.420 E0.03366
G1 X68.812 Y72.420 F9000.000
G1 F600
G1 X72.670 Y68.562 E0.20738
G1 X72.670 Y68.206 F9000.000
G1 F600
G1 X72.044 Y67.580 E0.03366
G1 X68.812 Y67.580 E0.12284
G1 X72.670 Y71.438 E0.20738
G1 X72.670 Y72.420 E0.03732
G1 X70.420 Y72.420 E0.08551
G1 X65.580 Y67.580 E0.26016
G1 X64.526 Y67.580 E0.04007
G1 X64.526 Y69.758 E0.08277
G1 X67.188 Y72.420 E0.14311
G1 X64.622 Y72.420 E0.09751
G1 X64.622 Y69.855 E0.09751
G1 X64.526 Y70.242 F9000.000
G1 F600
G1 X67.188 Y67.580 E0.14311
G1 X70.420 Y67.580 F9000.000
G1 F600
G1 X65.580 Y72.420 E0.26016
G1 E-3.50000 F2400.00000
G1 Z1.450 F9000.000
G1 X73.079 Y72.829 F9000.000
G1 E3.50000 F2400.00000
G1 F600
G1 X63.928 Y72.829 E0.34780
G1 X63.928 Y67.171 E0.21502
G1 X73.079 Y67.171 E0.34780
G1 X73.079 Y72.754 E0.21217
G1 X73.536 Y73.286 F9000.000
G1 F600
G1 X63.470 Y73.286 E0.38255
G1 X63.470 Y66.714 E0.24977
G1 X73.536 Y66.714 E0.38255
G1 X73.536 Y73.211 E0.24692
G1 X73.993 Y73.743 F9000.000
G1 F600
G1 X63.013 Y73.743 E0.41729
G1 X63.013 Y66.257 E0.28451
G1 X73.993 Y66.257 E0.41729
G1 X73.993 Y73.668 E0.28166
G1 X74.450 Y74.200 F9000.000
G1 F1800
G1 X62.556 Y74.200 E0.45203
G1 X62.556 Y65.800 E0.31925
G1 X74.450 Y65.800 E0.45203
G1 X74.450 Y74.125 E0.31640
G1 X73.960 Y74.098 F9000.000
G1 X72.670 Y71.794 F9000.000
G1 F600
G1 X72.044 Y72.420 E0.03366
G1 X68.812 Y72.420 F9000.000
G1 F600
G1 X72.670 Y68.562 E0.20738
G1 X72.670 Y68.206 F9000.000
G1 F600
G1 X72.044 Y67.580 E0.03366
G1 X68.812 Y67.580 E0.12284
G1 X72.670 Y71.438 E0.20738
G1 X72.670 Y72.420 E0.03732
G1 X70.420 Y72.420 E0.08551
G1 X65.580 Y67.580 E0.26016
G1 X64.336 Y67.580 E0.04727
G1 X64.336 Y69.568 E0.07557
G1 X67.188 Y72.420 E0.15329
G1 X64.433 Y72.420 E0.10471
G1 X64.433 Y69.665 E0.10471
G1 X64.336 Y70.432 F9000.000
G1 F600
G1 X67.188 Y67.580 E0.15329
G1 X70.420 Y67.580 F9000.000
G1 F600
G1 X65.580 Y72.420 E0.26016
G1 E-3.50000 F2400.00000
G1 Z1.650 F9000.000
G1 X73.079 Y72.829 F9000.000
G1 E3.50000 F2400.00000
G1 F600
G1 X63.762 Y72.829 E0.35411
G1 X63.762 Y67.171 E0.21502
G1 X73.079 Y67.171 E0.35411
G1 X73.079 Y72.754 E0.21217
G1 X73.536 Y73.286 F9000.000
G1 F600
G1 X63.305 Y73.286 E0.38885
G1 X63.305 Y66.714 E0.24977
G1 X73.536 Y66.714 E0.38885
G1 X73.536 Y73.211 E0.24692
G1 X73.993 Y73.743 F9000.000
G1 F600
G1 X62.848 Y73.743 E0.42359
G1 X62.848 Y66.257 E0.28451
G1 X73.993 Y66.257 E0.42359
G1 X73.993 Y73.668 E0.28166
G1 X74.450 Y74.200 F9000.000
G1 F1800
G1 X62.391 Y74.200 E0.45834
G1 X62.391 Y65.800 E0.31925
G1 X74.450 Y65.800 E0.45834
G1 X74.450 Y74.125 E0.31640
G1 X73.960 Y74.099 F9000.000
G1 X72.670 Y71.794 F9000.000
G1 F600
G1 X72.044 Y72.420 E0.03366
G1 X68.812 Y72.420 F9000.000
G1 F600
G1 X72.670 Y68.562 E0.20738
G1 X72.670 Y68.206 F9000.000
G1 F600
G1 X72.044 Y67.580 E0.03366
G1 X68.812 Y67.580 E0.12284
G1 X72.670 Y71.438 E0.20738
G1 X72.670 Y72.420 E0.03732
G1 X70.420 Y72.420 E0.08551
G1 X65.580 Y67.580 E0.26016
G1 X64.170 Y67.580 E0.05357
G1 X64.170 Y69.402 E0.06927
G1 X67.188 Y72.420 E0.16220
G1 X64.267 Y72.420 E0.11101
G1 X64.267 Y69.499 E0.11101
G1 X64.170 Y70.598 F9000.000
G1 F600
G1 X67.188 Y67.580 E0.16220
G1 X70.420 Y67.580 F9000.000
G1 F600
G1 X65.580 Y72.420 E0.26016
G1 E-3.50000 F2400.00000
G1 Z1.850 F9000.000
G1 X73.079 Y72.829 F9000.000
G1 E3.50000 F2400.00000
G1 F600
G1 X63.616 Y72.829 E0.35964
G1 X63.616 Y67.171 E0.21502
G1 X73.079 Y67.171 E0.35964
G1 X73.079 Y72.754 E0.21217
G1 X73.536 Y73.286 F9000.000
G1 F600
G1 X63.159 Y73.286 E0.39439
G1 X63.159 Y66.714 E0.24977
G1 X73.536 Y66.714 E0.39439
G1 X73.536 Y73.211 E0.24692
G1 X73.993 Y73.743 F9000.000
G1 F600
G1 X62.702 Y73.743 E0.42913
G1 X62.702 Y66.257 E0.28451
G1 X73.993 Y66.257 E0.42913
G1 X73.993 Y73.668 E0.28166
G1 X74.450 Y74.200 F9000.000
G1 F1800
G1 X62.245 Y74.200 E0.46387
G1 X62.245 Y65.800 E0.31925
G1 X74.450 Y65.800 E0.46387
G1 X74.450 Y74.125 E0.31640
G1 X73.960 Y74.100 F9000.000
G1 X72.522 Y72.379 F9000.000
M106 S255

G1 F2400
G1 X72.629 Y72.272 E0.01421
G1 X72.629 Y71.442 E0.07793
G1 X71.692 Y72.379 E0.12442
G1 X70.863 Y72.379 E0.07793
G1 X72.629 Y70.613 E0.23463
G1 X72.629 Y69.784 E0.07793
G1 X70.034 Y72.379 E0.34484
G1 X69.204 Y72.379 E0.07793
G1 X72.629 Y68.954 E0.45505
G1 X72.629 Y68.125 E0.07793
G1 X68.375 Y72.379 E0.56526
G1 X67.546 Y72.379 E0.07793
G1 X72.303 Y67.621 E0.63217
G1 X71.474 Y67.621 E0.07793
G1 X66.716 Y72.379 E0.63217
G1 X66.390 Y72.379 E0.03061
G1 X66.390 Y71.875 E0.04732
G1 X70.644 Y67.621 E0.56526
G1 X69.815 Y67.621 E0.07793
G1 X66.390 Y71.046 E0.45505
G1 X66.390 Y70.216 E0.07793
G1 X68.985 Y67.621 E0.34484
G1 X68.156 Y67.621 E0.07793
G1 X66.390 Y69.387 E0.23463
G1 X66.390 Y68.558 E0.07793
G1 X67.327 Y67.621 E0.12442
G1 X66.497 Y67.621 E0.07793
G1 X66.391 Y67.728 E0.01419
M106 S255

G1 X65.989 Y67.989 F9000.000
G1 F600
G1 X65.580 Y67.580 E0.02198
G1 X64.025 Y67.580 E0.05911
G1 X64.025 Y69.257 E0.06373
G1 X65.989 Y71.221 E0.10557
G1 X65.989 Y72.420 E0.04558
G1 X64.122 Y72.420 E0.07096
G1 X64.122 Y69.354 E0.11655
G1 X64.025 Y70.743 F9000.000
G1 F600
G1 X65.989 Y68.779 E0.10557
G1 X65.989 Y72.011 F9000.000
G1 F600
G1 X65.580 Y72.420 E0.02198
G1 E-3.50000 F2400.00000
G1 Z2.050 F9000.000
G1 X73.079 Y72.829 F9000.000
G1 E3.50000 F2400.00000
G1 F608.673
G1 X63.488 Y72.829 E0.36450
G1 X63.488 Y67.171 E0.21502
G1 X73.079 Y67.171 E0.36450
G1 X73.079 Y72.754 E0.21217
G1 X73.536 Y73.286 F9000.000
G1 F608.673
G1 X63.031 Y73.286 E0.39924
G1 X63.031 Y66.714 E0.24977
G1 X73.536 Y66.714 E0.39924
G1 X73.536 Y73.211 E0.24692
G1 X73.993 Y73.743 F9000.000
G1 F608.673
G1 X62.574 Y73.743 E0.43399
G1 X62.574 Y66.257 E0.28451
G1 X73.993 Y66.257 E0.43399
G1 X73.993 Y73.668 E0.28166
G1 X74.450 Y74.200 F9000.000
G1 F1800
G1 X62.117 Y74.200 E0.46873
G1 X62.117 Y65.800 E0.31925
G1 X74.450 Y65.800 E0.46873
G1 X74.450 Y74.125 E0.31640
G1 X73.960 Y74.101 F9000.000
G1 X72.670 Y67.677 F9000.000
G1 F608.673
G1 X72.573 Y67.580 E0.00553
G1 X71.888 Y67.580 E0.02763
G1 X72.670 Y68.362 E0.04460
G1 X72.670 Y69.048 E0.02763
G1 X71.202 Y67.580 E0.08367
G1 X70.517 Y67.580 E0.02763
G1 X72.670 Y69.733 E0.12274
G1 X72.670 Y70.419 E0.02763
G1 X69.831 Y67.580 E0.16181
G1 X69.146 Y67.580 E0.02763
G1 X72.670 Y71.104 E0.20088
G1 X72.670 Y71.790 E0.02763
G1 X68.460 Y67.580 E0.23995
G1 X67.775 Y67.580 E0.02763
G1 X72.615 Y72.420 E0.27588
G1 X71.930 Y72.420 E0.02763
G1 X67.089 Y67.580 E0.27588
G1 X66.404 Y67.580 E0.02763
G1 X71.244 Y72.420 E0.27588
G1 X70.559 Y72.420 E0.02763
G1 X66.349 Y68.210 E0.23995
G1 X66.349 Y68.896 E0.02763
G1 X69.873 Y72.420 E0.20088
G1 X69.188 Y72.420 E0.02763
G1 X66.349 Y69.581 E0.16181
G1 X66.349 Y70.267 E0.02763
G1 X68.502 Y72.420 E0.12274
G1 X67.817 Y72.420 E0.02763
G1 X66.349 Y70.952 E0.08367
G1 X66.349 Y71.638 E0.02763
G1 X67.132 Y72.420 E0.04460
G1 X66.446 Y72.420 E0.02763
G1 X66.349 Y72.323 E0.00554
G1 X65.989 Y72.011 F9000.000
G1 F811.564
G1 X65.580 Y72.420 E0.02198
G1 X63.897 Y70.871 F9000.000
G1 F811.564
G1 X65.989 Y68.779 E0.11244
G1 X65.989 Y67.989 F9000.000
G1 F811.564
G1 X65.580 Y67.580 E0.02198
G1 X63.897 Y67.580 E0.06396
G1 X63.897 Y69.129 E0.05887
G1 X65.989 Y71.221 E0.11244
G1 X65.989 Y72.420 E0.04558
G1 X63.994 Y72.420 E0.07582
G1 X63.994 Y69.226 E0.12141
G1 E-3.50000 F2400.00000
G1 Z2.250 F9000.000
G1 X73.079 Y72.829 F9000.000
G1 E3.50000 F2400.00000
G1 F605.386
G1 X63.376 Y72.829 E0.36875
G1 X63.376 Y67.171 E0.21502
G1 X73.079 Y67.171 E0.36875
G1 X73.079 Y72.754 E0.21217
G1 X73.536 Y73.286 F9000.000
G1 F605.386
G1 X62.919 Y73.286 E0.40350
G1 X62.919 Y66.714 E0.24977
G1 X73.536 Y66.714 E0.40350
G1 X73.536 Y73.211 E0.24692
G1 X73.993 Y73.743 F9000.000
G1 F605.386
G1 X62.462 Y73.743 E0.43824
G1 X62.462 Y66.257 E0.28451
G1 X73.993 Y66.257 E0.43824
G1 X73.993 Y73.668 E0.28166
G1 X74.450 Y74.200 F9000.000
G1 F1800
G1 X62.005 Y74.200 E0.47299
G1 X62.005 Y65.800 E0.31925
G1 X74.450 Y65.800 E0.47299
G1 X74.450 Y74.125 E0.31640
G1 X73.960 Y74.102 F9000.000
G1 X72.573 Y72.420 F9000.000
G1 F605.386
G1 X72.670 Y72.323 E0.00553
G1 X72.670 Y71.638 E0.02763
G1 X71.888 Y72.420 E0.04460
G1 X71.202 Y72.420 E0.02763
G1 X72.670 Y70.952 E0.08367
G1 X72.670 Y70.267 E0.02763
G1 X70.517 Y72.420 E0.12274
G1 X69.831 Y72.420 E0.02763
G1 X72.670 Y69.581 E0.16181
G1 X72.670 Y68.896 E0.02763
G1 X69.146 Y72.420 E0.20088
G1 X68.460 Y72.420 E0.02763
G1 X72.670 Y68.210 E0.23995
G1 X72.670 Y67.580 E0.02541
G1 X72.615 Y67.580 E0.00222
G1 X67.775 Y72.420 E0.27588
G1 X67.089 Y72.420 E0.02763
G1 X71.930 Y67.580 E0.27588
G1 X71.244 Y67.580 E0.02763
G1 X66.404 Y72.420 E0.27588
G1 X66.349 Y72.420 E0.00222
G1 X66.349 Y71.790 E0.02541
G1 X70.559 Y67.580 E0.23995
G1 X69.873 Y67.580 E0.02763
G1 X66.349 Y71.104 E0.20088
G1 X66.349 Y70.419 E0.02763
G1 X69.188 Y67.580 E0.16181
G1 X68.502 Y67.580 E0.02763
G1 X66.349 Y69.733 E0.12274
G1 X66.349 Y69.048 E0.02763
G1 X67.817 Y67.580 E0.08367
G1 X67.132 Y67.580 E0.02763
G1 X66.349 Y68.362 E0.04460
G1 X66.349 Y67.677 E0.02763
G1 X66.446 Y67.580 E0.00554
G1 X65.989 Y67.989 F9000.000
G1 F807.181
G1 X65.580 Y67.580 E0.02198
G1 X63.785 Y67.580 E0.06822
G1 X63.785 Y69.017 E0.05462
G1 X65.989 Y71.221 E0.11846
G1 X65.989 Y72.420 E0.04558
G1 X63.956 Y72.420 E0.07726
G1 X63.785 Y72.249 E0.00920
G1 X63.785 Y70.983 F9000.000
G1 F807.181
G1 X65.989 Y68.779 E0.11846
G1 X63.956 Y67.580 F9000.000
G1 F807.181
G1 X63.785 Y67.751 E0.00920
G1 X65.989 Y72.011 F9000.000
G1 F807.181
G1 X65.580 Y72.420 E0.02198
G1 E-3.50000 F2400.00000
G1 Z2.450 F9000.000
G1 X73.079 Y72.829 F9000.000
G1 E3.50000 F2400.00000
G1 F608.821
G1 X63.279 Y72.829 E0.37246
G1 X63.279 Y67.171 E0.21502
G1 X73.079 Y67.171 E0.37246
G1 X73.079 Y72.754 E0.21217
G1 X73.536 Y73.286 F9000.000
G1 F608.821
G1 X62.822 Y73.286 E0.40721
G1 X62.822 Y66.714 E0.24977
G1 X73.536 Y66.714 E0.40721
G1 X73.536 Y73.211 E0.24692
G1 X73.993 Y73.743 F9000.000
G1 F608.821
G1 X62.365 Y73.743 E0.44195
G1 X62.365 Y66.257 E0.28451
G1 X73.993 Y66.257 E0.44195
G1 X73.993 Y73.668 E0.28166
G1 X74.450 Y74.200 F9000.000
G1 F1800
G1 X61.907 Y74.200 E0.47670
G1 X61.907 Y65.800 E0.31925
G1 X74.450 Y65.800 E0.47670
G1 X74.450 Y74.125 E0.31640
G1 X73.960 Y74.102 F9000.000
G1 X72.670 Y67.677 F9000.000
G1 F608.821
G1 X72.573 Y67.580 E0.00553
G1 X71.888 Y67.580 E0.02763
G1 X72.670 Y68.362 E0.04460
G1 X72.670 Y69.048 E0.02763
G1 X71.202 Y67.580 E0.08367
G1 X70.517 Y67.580 E0.02763
G1 X72.670 Y69.733 E0.12274
G1 X72.670 Y70.419 E0.02763
G1 X69.831 Y67.580 E0.16181
G1 X69.146 Y67.580 E0.02763
G1 X72.670 Y71.104 E0.20088
G1 X72.670 Y71.790 E0.02763
G1 X68.460 Y67.580 E0.23995
G1 X67.775 Y67.580 E0.02763
G1 X72.615 Y72.420 E0.27588
G1 X71.930 Y72.420 E0.02763
G1 X67.089 Y67.580 E0.27588
G1 X66.404 Y67.580 E0.02763
G1 X71.244 Y72.420 E0.27588
G1 X70.559 Y72.420 E0.02763
G1 X66.349 Y68.210 E0.23995
G1 X66.349 Y68.896 E0.02763
G1 X69.873 Y72.420 E0.20088
G1 X69.188 Y72.420 E0.02763
G1 X66.349 Y69.581 E0.16181
G1 X66.349 Y70.267 E0.02763
G1 X68.502 Y72.420 E0.12274
G1 X67.817 Y72.420 E0.02763
G1 X66.349 Y70.952 E0.08367
G1 X66.349 Y71.638 E0.02763
G1 X67.132 Y72.420 E0.04460
G1 X66.446 Y72.420 E0.02763
G1 X66.349 Y72.323 E0.00554
G1 X65.989 Y72.011 F9000.000
G1 F811.762
G1 X65.580 Y72.420 E0.02198
G1 X63.687 Y72.151 F9000.000
G1 F811.762
G1 X63.956 Y72.420 E0.01445
G1 X65.989 Y72.420 E0.07726
G1 X65.989 Y71.221 E0.04558
G1 X63.687 Y68.919 E0.12370
G1 X63.687 Y67.580 E0.05091
G1 X65.580 Y67.580 E0.07193
G1 X65.989 Y67.989 E0.02198
G1 X65.989 Y68.779 F9000.000
G1 F811.762
G1 X63.687 Y71.081 E0.12370
G1 X63.687 Y67.849 F9000.000
G1 F811.762
G1 X63.956 Y67.580 E0.01445
G1 E-3.50000 F2400.00000
G1 Z2.650 F9000.000
G1 X73.079 Y72.829 F9000.000
G1 E3.50000 F2400.00000
G1 F611.805
G1 X63.194 Y72.829 E0.37568
G1 X63.194 Y67.171 E0.21502
G1 X73.079 Y67.171 E0.37568
G1 X73.079 Y72.754 E0.21217
G1 X73.536 Y73.286 F9000.000
G1 F611.805
G1 X62.737 Y73.286 E0.41043
G1 X62.737 Y66.714 E0.24977
G1 X73.536 Y66.714 E0.41043
G1 X73.536 Y73.211 E0.24692
G1 X73.993 Y73.743 F9000.000
G1 F611.805
G1 X62.280 Y73.743 E0.44517
G1 X62.280 Y66.257 E0.28451
G1 X73.993 Y66.257 E0.44517
G1 X73.993 Y73.668 E0.28166
G1 X74.450 Y74.200 F9000.000
G1 F1800
G1 X61.823 Y74.200 E0.47992
G1 X61.823 Y65.800 E0.31925
G1 X74.450 Y65.800 E0.47992
G1 X74.450 Y74.125 E0.31640
G1 X73.960 Y74.103 F9000.000
G1 X72.573 Y72.420 F9000.000
G1 F611.805
G1 X72.670 Y72.323 E0.00553
G1 X72.670 Y71.638 E0.02763
G1 X71.888 Y72.420 E0.04460
G1 X71.202 Y72.420 E0.02763
G1 X72.670 Y70.952 E0.08367
G1 X72.670 Y70.267 E0.02763
G1 X70.517 Y72.420 E0.12274
G1 X69.831 Y72.420 E0.02763
G1 X72.670 Y69.581 E0.16181
G1 X72.670 Y68.896 E0.02763
G1 X69.146 Y72.420 E0.20088
G1 X68.460 Y72.420 E0.02763
G1 X72.670 Y68.210 E0.23995
G1 X72.670 Y67.580 E0.02541
G1 X72.615 Y67.580 E0.00222
G1 X67.775 Y72.420 E0.27588
G1 X67.089 Y72.420 E0.02763
G1 X71.930 Y67.580 E0.27588
G1 X71.244 Y67.580 E0.02763
G1 X66.404 Y72.420 E0.27588
G1 X66.349 Y72.420 E0.00222
G1 X66.349 Y71.790 E0.02541
G1 X70.559 Y67.580 E0.23995
G1 X69.873 Y67.580 E0.02763
G1 X66.349 Y71.104 E0.20088
G1 X66.349 Y70.419 E0.02763
G1 X69.188 Y67.580 E0.16181
G1 X68.502 Y67.580 E0.02763
G1 X66.349 Y69.733 E0.12274
G1 X66.349 Y69.048 E0.02763
G1 X67.817 Y67.580 E0.08367
G1 X67.131 Y67.580 E0.02763
G1 X66.349 Y68.362 E0.04460
G1 X66.349 Y67.677 E0.02763
G1 X66.446 Y67.580 E0.00554
G1 X65.989 Y67.989 F9000.000
G1 F815.741
G1 X65.580 Y67.580 E0.02198
G1 X63.603 Y67.580 E0.07515
G1 X63.603 Y68.835 E0.04769
G1 X65.989 Y71.221 E0.12826
G1 X65.989 Y72.420 E0.04558
G1 X63.956 Y72.420 E0.07725
G1 X63.603 Y72.067 E0.01900
G1 X63.603 Y71.165 F9000.000
G1 F815.741
G1 X65.989 Y68.779 E0.12826
G1 X63.956 Y67.580 F9000.000
G1 F815.741
G1 X63.603 Y67.933 E0.01900
G1 X65.989 Y72.011 F9000.000
G1 F815.741
G1 X65.580 Y72.420 E0.02198
G1 E-3.50000 F2400.00000
G1 Z2.850 F9000.000
G1 X73.536 Y73.286 F9000.000
G1 E3.50000 F2400.00000
G1 F600
G1 X72.863 Y73.286 E0.02557
G1 X72.863 Y66.714 E0.24977
G1 X73.536 Y66.714 E0.02557
G1 X73.536 Y73.211 E0.24692
G1 X73.993 Y73.743 F9000.000
G1 F600
G1 X72.406 Y73.743 E0.06031
G1 X72.406 Y66.257 E0.28451
G1 X73.993 Y66.257 E0.06031
G1 X73.993 Y73.668 E0.28166
G1 X74.450 Y74.200 F9000.000
G1 F1800
G1 X71.949 Y74.200 E0.09505
G1 X71.949 Y65.800 E0.31925
G1 X74.450 Y65.800 E0.09505
G1 X74.450 Y74.125 E0.31640
G1 X73.995 Y73.993 F9000.000
G1 X73.200 Y73.057 F9000.000
G1 F600
G1 X73.200 Y66.943 E0.08779
G1 E-3.50000 F2400.00000
G1 X67.548 Y72.829 F9000.000
G1 E3.50000 F2400.00000
G1 F600
G1 X63.122 Y72.829 E0.16820
G1 X63.122 Y67.171 E0.21502
G1 X67.548 Y67.171 E0.16820
G1 X67.548 Y72.754 E0.21217
G1 X68.005 Y73.286 F9000.000
G1 F600
G1 X62.665 Y73.286 E0.20294
G1 X62.665 Y66.714 E0.24977
G1 X68.005 Y66.714 E0.20294
G1 X68.005 Y73.211 E0.24692
G1 X68.462 Y73.743 F9000.000
G1 F600
G1 X62.208 Y73.743 E0.23769
G1 X62.208 Y66.257 E0.28451
G1 X68.462 Y66.257 E0.23769
G1 X68.462 Y73.668 E0.28166
G1 X68.919 Y74.200 F9000.000
G1 F1800
G1 X61.751 Y74.200 E0.27243
G1 X61.751 Y65.800 E0.31925
G1 X68.919 Y65.800 E0.27243
G1 X68.919 Y74.125 E0.31640
G1 X68.439 Y74.058 F9000.000
G1 X67.139 Y70.861 F9000.000
G1 F600
G1 X65.580 Y72.420 E0.08381
G1 X63.531 Y71.995 F9000.000
G1 F600
G1 X63.956 Y72.420 E0.02287
G1 X67.139 Y72.420 E0.12097
G1 X67.139 Y72.371 E0.00187
G1 X63.531 Y68.763 E0.19395
G1 X63.531 Y67.580 E0.04496
G1 X65.580 Y67.580 E0.07788
G1 X67.139 Y69.139 E0.08381
G1 X67.139 Y67.629 F9000.000
G1 F600
G1 X63.531 Y71.237 E0.19395
G1 X63.531 Y68.005 F9000.000
G1 F600
G1 X63.956 Y67.580 E0.02287
G1 E-3.50000 F2400.00000
G1 Z3.050 F9000.000
G1 X72.964 Y73.286 F9000.000
G1 E3.50000 F2400.00000
G1 F600
G1 X72.964 Y66.714 E0.24977
G1 X73.536 Y66.714 E0.02173
G1 X73.536 Y73.286 E0.24977
G1 X73.039 Y73.286 E0.01888
G1 X72.507 Y73.743 F9000.000
G1 F600
G1 X72.507 Y66.257 E0.28451
G1 X73.993 Y66.257 E0.05647
G1 X73.993 Y73.743 E0.28451
G1 X72.582 Y73.743 E0.05362
G1 X72.050 Y74.200 F9000.000
G1 F1800
G1 X72.050 Y65.800 E0.31925
G1 X74.450 Y65.800 E0.09122
G1 X74.450 Y74.200 E0.31925
G1 X72.125 Y74.200 E0.08837
G1 X72.096 Y73.702 F9000.000
G1 X73.250 Y73.057 F9000.000
G1 F600
G1 X73.250 Y66.943 E0.03645
G1 E-3.50000 F2400.00000
G1 X67.447 Y72.829 F9000.000
G1 E3.50000 F2400.00000
G1 F600
G1 X63.063 Y72.829 E0.16662
G1 X63.063 Y67.171 E0.21502
G1 X67.447 Y67.171 E0.16662
G1 X67.447 Y72.754 E0.21217
G1 X67.904 Y73.286 F9000.000
G1 F600
G1 X62.606 Y73.286 E0.20137
G1 X62.606 Y66.714 E0.24977
G1 X67.904 Y66.714 E0.20137
G1 X67.904 Y73.211 E0.24692
G1 X68.361 Y73.743 F9000.000
G1 F600
G1 X62.149 Y73.743 E0.23611
G1 X62.149 Y66.257 E0.28451
G1 X68.361 Y66.257 E0.23611
G1 X68.361 Y73.668 E0.28166
G1 X68.818 Y74.200 F9000.000
G1 F1800
G1 X61.692 Y74.200 E0.27085
G1 X61.692 Y65.800 E0.31925
G1 X68.818 Y65.800 E0.27085
G1 X68.818 Y74.125 E0.31640
G1 X68.339 Y74.057 F9000.000
G1 X67.038 Y70.962 F9000.000
G1 F600
G1 X65.580 Y72.420 E0.07840
G1 X63.472 Y71.936 F9000.000
G1 F600
G1 X63.956 Y72.420 E0.02605
G1 X67.038 Y72.420 E0.11715
G1 X67.038 Y72.270 E0.00569
G1 X63.472 Y68.704 E0.19172
G1 X63.472 Y67.580 E0.04271
G1 X65.580 Y67.580 E0.08013
G1 X67.038 Y69.038 E0.07840
G1 X67.038 Y67.730 F9000.000
G1 F600
G1 X63.472 Y71.296 E0.19172
G1 X63.472 Y68.064 F9000.000
G1 F600
G1 X63.956 Y67.580 E0.02605
G1 E-3.50000 F2400.00000
G1 Z3.250 F9000.000
G1 X72.964 Y73.286 F9000.000
G1 E3.50000 F2400.00000
G1 F600
G1 X72.964 Y66.714 E0.24977
G1 X73.536 Y66.714 E0.02173
G1 X73.536 Y73.286 E0.24977
G1 X73.039 Y73.286 E0.01888
G1 X72.507 Y73.743 F9000.000
G1 F600
G1 X72.507 Y66.257 E0.28451
G1 X73.993 Y66.257 E0.05647
G1 X73.993 Y73.743 E0.28451
G1 X72.582 Y73.743 E0.05362
G1 X72.050 Y74.200 F9000.000
G1 F1800
G1 X72.050 Y65.800 E0.31925
G1 X74.450 Y65.800 E0.09122
G1 X74.450 Y74.200 E0.31925
G1 X72.125 Y74.200 E0.08836
G1 X72.096 Y73.702 F9000.000
G1 X73.250 Y73.057 F9000.000
G1 F600
G1 X73.250 Y66.943 E0.03645
G1 E-3.50000 F2400.00000
G1 X67.486 Y72.829 F9000.000
G1 E3.50000 F2400.00000
G1 F600
G1 X63.015 Y72.829 E0.16993
G1 X63.015 Y67.171 E0.21502
G1 X67.486 Y67.171 E0.16993
G1 X67.486 Y72.754 E0.21217
G1 X67.943 Y73.286 F9000.000
G1 F600
G1 X62.558 Y73.286 E0.20467
G1 X62.558 Y66.714 E0.24977
G1 X67.943 Y66.714 E0.20467
G1 X67.943 Y73.211 E0.24692
G1 X68.400 Y73.743 F9000.000
G1 F600
G1 X62.100 Y73.743 E0.23941
G1 X62.100 Y66.257 E0.28451
G1 X68.400 Y66.257 E0.23941
G1 X68.400 Y73.668 E0.28166
G1 X68.857 Y74.200 F9000.000
G1 F1800
G1 X61.643 Y74.200 E0.27416
G1 X61.643 Y65.800 E0.31925
G1 X68.857 Y65.800 E0.27416
G1 X68.857 Y74.125 E0.31640
G1 X68.377 Y74.058 F9000.000
G1 X67.077 Y70.923 F9000.000
G1 F600
G1 X65.580 Y72.420 E0.08047
G1 X63.423 Y71.887 F9000.000
G1 F600
G1 X63.956 Y72.420 E0.02864
G1 X67.077 Y72.420 E0.11861
G1 X67.077 Y72.309 E0.00422
G1 X63.423 Y68.655 E0.19639
G1 X63.423 Y67.580 E0.04087
G1 X65.580 Y67.580 E0.08197
G1 X67.077 Y69.077 E0.08047
G1 X67.077 Y67.691 F9000.000
G1 F600
G1 X63.423 Y71.345 E0.19639
G1 X63.423 Y68.113 F9000.000
G1 F600
G1 X63.956 Y67.580 E0.02864
G1 E-3.50000 F2400.00000
G1 Z3.450 F9000.000
G1 X72.964 Y73.286 F9000.000
G1 E3.50000 F2400.00000
G1 F600
G1 X72.964 Y66.714 E0.24977
G1 X73.536 Y66.714 E0.02173
G1 X73.536 Y73.286 E0.24977
G1 X73.039 Y73.286 E0.01888
G1 X72.507 Y73.743 F9000.000
G1 F600
G1 X72.507 Y66.257 E0.28451
G1 X73.993 Y66.257 E0.05647
G1 X73.993 Y73.743 E0.28451
G1 X72.582 Y73.743 E0.05362
G1 X72.050 Y74.200 F9000.000
G1 F1800
G1 X72.050 Y65.800 E0.31925
G1 X74.450 Y65.800 E0.09122
G1 X74.450 Y74.200 E0.31925
G1 X72.125 Y74.200 E0.08836
G1 X72.096 Y73.702 F9000.000
G1 X73.250 Y73.057 F9000.000
G1 F600
G1 X73.250 Y66.943 E0.03645
G1 E-3.50000 F2400.00000
G1 X67.524 Y72.829 F9000.000
G1 E3.50000 F2400.00000
G1 F600
G1 X62.977 Y72.829 E0.17283
G1 X62.977 Y67.171 E0.21502
G1 X67.524 Y67.171 E0.17283
G1 X67.524 Y72.754 E0.21217
G1 X67.981 Y73.286 F9000.000
G1 F600
G1 X62.520 Y73.286 E0.20758
G1 X62.520 Y66.714 E0.24977
G1 X67.981 Y66.714 E0.20758
G1 X67.981 Y73.211 E0.24692
G1 X68.438 Y73.743 F9000.000
G1 F600
G1 X62.062 Y73.743 E0.24232
G1 X62.062 Y66.257 E0.28451
G1 X68.438 Y66.257 E0.24232
G1 X68.438 Y73.668 E0.28166
G1 X68.895 Y74.200 F9000.000
G1 F1800
G1 X61.605 Y74.200 E0.27706
G1 X61.605 Y65.800 E0.31925
G1 X68.895 Y65.800 E0.27706
G1 X68.895 Y74.125 E0.31640
G1 X68.416 Y74.059 F9000.000
G1 X67.116 Y70.884 F9000.000
G1 F600
G1 X65.580 Y72.420 E0.08254
G1 X63.385 Y71.849 F9000.000
G1 F600
G1 X63.956 Y72.420 E0.03068
G1 X67.116 Y72.420 E0.12008
G1 X67.116 Y72.348 E0.00276
G1 X63.385 Y68.617 E0.20050
G1 X63.385 Y67.580 E0.03943
G1 X65.580 Y67.580 E0.08341
G1 X67.116 Y69.116 E0.08254
G1 X67.116 Y67.652 F9000.000
G1 F600
G1 X63.385 Y71.383 E0.20050
G1 X63.385 Y68.151 F9000.000
G1 F600
G1 X63.956 Y67.580 E0.03068
G1 E-3.50000 F2400.00000
G1 Z3.650 F9000.000
G1 X72.964 Y73.286 F9000.000
G1 E3.50000 F2400.00000
G1 F600
G1 X72.964 Y66.714 E0.24977
G1 X73.536 Y66.714 E0.02173
G1 X73.536 Y73.286 E0.24977
G1 X73.039 Y73.286 E0.01888
G1 X72.507 Y73.743 F9000.000
G1 F600
G1 X72.507 Y66.257 E0.28451
G1 X73.993 Y66.257 E0.05647
G1 X73.993 Y73.743 E0.28451
G1 X72.582 Y73.743 E0.05362
G1 X72.050 Y74.200 F9000.000
G1 F1800
G1 X72.050 Y65.800 E0.31925
G1 X74.450 Y65.800 E0.09122
G1 X74.450 Y74.200 E0.31925
G1 X72.125 Y74.200 E0.08836
G1 X72.096 Y73.702 F9000.000
G1 X73.250 Y73.057 F9000.000
G1 F600
G1 X73.250 Y66.943 E0.03645
G1 E-3.50000 F2400.00000
G1 X67.553 Y72.829 F9000.000
G1 E3.50000 F2400.00000
G1 F600
G1 X62.948 Y72.829 E0.17499
G1 X62.948 Y67.171 E0.21502
G1 X67.553 Y67.171 E0.17499
G1 X67.553 Y72.754 E0.21217
G1 X68.010 Y73.286 F9000.000
G1 F600
G1 X62.491 Y73.286 E0.20973
G1 X62.491 Y66.714 E0.24977
G1 X68.010 Y66.714 E0.20973
G1 X68.010 Y73.211 E0.24692
G1 X68.467 Y73.743 F9000.000
G1 F600
G1 X62.034 Y73.743 E0.24448
G1 X62.034 Y66.257 E0.28451
G1 X68.467 Y66.257 E0.24448
G1 X68.467 Y73.668 E0.28166
G1 X68.924 Y74.200 F9000.000
G1 F1800
G1 X61.577 Y74.200 E0.27922
G1 X61.577 Y65.800 E0.31925
G1 X68.924 Y65.800 E0.27922
G1 X68.924 Y74.125 E0.31640
G1 X68.444 Y74.060 F9000.000
G1 X67.144 Y70.856 F9000.000
G1 F600
G1 X65.580 Y72.420 E0.08407
G1 X63.357 Y71.821 F9000.000
G1 F600
G1 X63.956 Y72.420 E0.03221
G1 X67.144 Y72.420 E0.12116
G1 X67.144 Y72.376 E0.00168
G1 X63.357 Y68.589 E0.20355
G1 X63.357 Y67.580 E0.03835
G1 X65.580 Y67.580 E0.08449
G1 X67.144 Y69.144 E0.08407
G1 X67.144 Y67.624 F9000.000
G1 F600
G1 X63.357 Y71.411 E0.20355
G1 X63.357 Y68.179 F9000.000
G1 F600
G1 X63.956 Y67.580 E0.03221
G1 E-3.50000 F2400.00000
G1 Z3.850 F9000.000
G1 X72.964 Y73.286 F9000.000
G1 E3.50000 F2400.00000
G1 F600
G1 X72.964 Y66.714 E0.24977
G1 X73.536 Y66.714 E0.02173
G1 X73.536 Y73.286 E0.24977
G1 X73.039 Y73.286 E0.01888
G1 X72.507 Y73.743 F9000.000
G1 F600
G1 X72.507 Y66.257 E0.28451
G1 X73.993 Y66.257 E0.05647
G1 X73.993 Y73.743 E0.28451
G1 X72.582 Y73.743 E0.05362
G1 X72.050 Y74.200 F9000.000
G1 F1800
G1 X72.050 Y65.800 E0.31925
G1 X74.450 Y65.800 E0.09122
G1 X74.450 Y74.200 E0.31925
G1 X72.125 Y74.200 E0.08836
G1 X72.096 Y73.702 F9000.000
G1 X73.250 Y73.057 F9000.000
G1 F600
G1 X73.250 Y66.943 E0.03645
G1 E-3.50000 F2400.00000
G1 X67.571 Y72.829 F9000.000
G1 E3.50000 F2400.00000
G1 F600
G1 X62.929 Y72.829 E0.17641
G1 X62.929 Y67.171 E0.21502
G1 X67.571 Y67.171 E0.17641
G1 X67.571 Y72.754 E0.21217
G1 X68.028 Y73.286 F9000.000
G1 F600
G1 X62.472 Y73.286 E0.21115
G1 X62.472 Y66.714 E0.24977
G1 X68.028 Y66.714 E0.21115
G1 X68.028 Y73.211 E0.24692
G1 X68.485 Y73.743 F9000.000
G1 F600
G1 X62.015 Y73.743 E0.24590
G1 X62.015 Y66.257 E0.28451
G1 X68.485 Y66.257 E0.24590
G1 X68.485 Y73.668 E0.28166
G1 X68.942 Y74.200 F9000.000
G1 F1800
G1 X61.558 Y74.200 E0.28064
G1 X61.558 Y65.800 E0.31925
G1 X68.942 Y65.800 E0.28064
G1 X68.942 Y74.125 E0.31640
G1 X68.462 Y74.060 F9000.000
G1 X67.162 Y70.838 F9000.000
G1 F600
G1 X65.580 Y72.420 E0.08504
G1 X63.338 Y71.802 F9000.000
G1 F600
G1 X63.956 Y72.420 E0.03325
G1 X67.162 Y72.420 E0.12184
G1 X67.162 Y72.394 E0.00100
G1 X63.338 Y68.570 E0.20556
G1 X63.338 Y67.580 E0.03762
G1 X65.580 Y67.580 E0.08522
G1 X67.162 Y69.162 E0.08504
G1 X67.162 Y67.606 F9000.000
G1 F600
G1 X63.338 Y71.430 E0.20556
G1 X63.338 Y68.198 F9000.000
G1 F600
G1 X63.956 Y67.580 E0.03325
G1 E-3.50000 F2400.00000
G1 Z4.050 F9000.000
G1 X72.964 Y73.286 F9000.000
G1 E3.50000 F2400.00000
G1 F600
G1 X72.964 Y66.714 E0.24977
G1 X73.536 Y66.714 E0.02173
G1 X73.536 Y73.286 E0.24977
G1 X73.039 Y73.286 E0.01888
G1 X72.507 Y73.743 F9000.000
G1 F600
G1 X72.507 Y66.257 E0.28451
G1 X73.993 Y66.257 E0.05647
G1 X73.993 Y73.743 E0.28451
G1 X72.582 Y73.743 E0.05362
G1 X72.050 Y74.200 F9000.000
G1 F1800
G1 X72.050 Y65.800 E0.31925
G1 X74.450 Y65.800 E0.09122
G1 X74.450 Y74.200 E0.31925
G1 X72.125 Y74.200 E0.08836
G1 X72.096 Y73.702 F9000.000
G1 X73.250 Y73.057 F9000.000
G1 F600
G1 X73.250 Y66.943 E0.03645
G1 E-3.50000 F2400.00000
G1 X67.577 Y72.829 F9000.000
G1 E3.50000 F2400.00000
G1 F600
G1 X62.923 Y72.829 E0.17689
G1 X62.923 Y67.171 E0.21502
G1 X67.577 Y67.171 E0.17689
G1 X67.577 Y72.754 E0.21217
G1 X68.034 Y73.286 F9000.000
G1 F600
G1 X62.466 Y73.286 E0.21164
G1 X62.466 Y66.714 E0.24977
G1 X68.034 Y66.714 E0.21164
G1 X68.034 Y73.211 E0.24692
G1 X68.491 Y73.743 F9000.000
G1 F600
G1 X62.009 Y73.743 E0.24638
G1 X62.009 Y66.257 E0.28451
G1 X68.491 Y66.257 E0.24638
G1 X68.491 Y73.668 E0.28166
G1 X68.948 Y74.200 F9000.000
G1 F1800
G1 X61.551 Y74.200 E0.28112
G1 X61.551 Y65.800 E0.31925
G1 X68.948 Y65.800 E0.28112
G1 X68.948 Y74.125 E0.31640
G1 X68.468 Y74.060 F9000.000
G1 X67.168 Y70.832 F9000.000
G1 F600
G1 X65.580 Y72.420 E0.08539
G1 X63.331 Y71.795 F9000.000
G1 F600
G1 X63.956 Y72.420 E0.03358
G1 X67.168 Y72.420 E0.12209
G1 X67.168 Y72.400 E0.00075
G1 X63.331 Y68.563 E0.20624
G1 X63.331 Y67.580 E0.03738
G1 X65.580 Y67.580 E0.08546
G1 X67.168 Y69.168 E0.08539
G1 X67.168 Y67.600 F9000.000
G1 F600
G1 X63.331 Y71.437 E0.20624
G1 X63.331 Y68.205 F9000.000
G1 F600
G1 X63.956 Y67.580 E0.03358
G1 E-3.50000 F2400.00000
G1 Z4.250 F9000.000
G1 X72.964 Y73.286 F9000.000
G1 E3.50000 F2400.00000
G1 F600
G1 X72.964 Y66.714 E0.24977
G1 X73.536 Y66.714 E0.02173
G1 X73.536 Y73.286 E0.24977
G1 X73.039 Y73.286 E0.01888
G1 X72.507 Y73.743 F9000.000
G1 F600
G1 X72.507 Y66.257 E0.28451
G1 X73.993 Y66.257 E0.05647
G1 X73.993 Y73.743 E0.28451
G1 X72.582 Y73.743 E0.05362
G1 X72.050 Y74.200 F9000.000
G1 F1800
G1 X72.050 Y65.800 E0.31925
G1 X74.450 Y65.800 E0.09122
G1 X74.450 Y74.200 E0.31925
G1 X72.125 Y74.200 E0.08836
G1 X72.096 Y73.702 F9000.000
G1 X73.250 Y73.057 F9000.000
G1 F600
G1 X73.250 Y66.943 E0.03645
G1 E-3.50000 F2400.00000
G1 X67.574 Y72.829 F9000.000
G1 E3.50000 F2400.00000
G1 F600
G1 X62.926 Y72.829 E0.17667
G1 X62.926 Y67.171 E0.21502
G1 X67.574 Y67.171 E0.17667
G1 X67.574 Y72.754 E0.21217
G1 X68.031 Y73.286 F9000.000
G1 F600
G1 X62.469 Y73.286 E0.21141
G1 X62.469 Y66.714 E0.24977
G1 X68.031 Y66.714 E0.21141
G1 X68.031 Y73.211 E0.24692
G1 X68.488 Y73.743 F9000.000
G1 F600
G1 X62.012 Y73.743 E0.24615
G1 X62.012 Y66.257 E0.28451
G1 X68.488 Y66.257 E0.24615
G1 X68.488 Y73.668 E0.28166
G1 X68.946 Y74.200 F9000.000
G1 F1800
G1 X61.555 Y74.200 E0.28090
G1 X61.555 Y65.800 E0.31925
G1 X68.946 Y65.800 E0.28090
G1 X68.946 Y74.125 E0.31640
G1 X68.465 Y74.060 F9000.000
G1 X67.166 Y70.834 F9000.000
G1 F600
G1 X65.580 Y72.420 E0.08524
G1 X63.335 Y71.799 F9000.000
G1 F600
G1 X63.956 Y72.420 E0.03341
G1 X67.166 Y72.420 E0.12199
G1 X67.166 Y72.398 E0.00085
G1 X63.335 Y68.567 E0.20592
G1 X63.335 Y67.580 E0.03750
G1 X65.580 Y67.580 E0.08533
G1 X67.166 Y69.166 E0.08524
G1 X67.166 Y67.602 F9000.000
G1 F600
G1 X63.335 Y71.433 E0.20592
G1 X63.335 Y68.201 F9000.000
G1 F600
G1 X63.956 Y67.580 E0.03341
G1 E-3.50000 F2400.00000
G1 Z4.450 F9000.000
G1 X72.964 Y73.286 F9000.000
G1 E3.50000 F2400.00000
G1 F600
G1 X72.964 Y66.714 E0.24977
G1 X73.536 Y66.714 E0.02173
G1 X73.536 Y73.286 E0.24977
G1 X73.039 Y73.286 E0.01888
G1 X72.507 Y73.743 F9000.000
G1 F600
G1 X72.507 Y66.257 E0.28451
G1 X73.993 Y66.257 E0.05647
G1 X73.993 Y73.743 E0.28451
G1 X72.582 Y73.743 E0.05362
G1 X72.050 Y74.200 F9000.000
G1 F1800
G1 X72.050 Y65.800 E0.31925
G1 X74.450 Y65.800 E0.09122
G1 X74.450 Y74.200 E0.31925
G1 X72.125 Y74.200 E0.08836
G1 X72.096 Y73.702 F9000.000
G1 X73.250 Y73.057 F9000.000
G1 F600
G1 X73.250 Y66.943 E0.03645
G1 E-3.50000 F2400.00000
G1 X67.562 Y72.829 F9000.000
G1 E3.50000 F2400.00000
G1 F600
G1 X62.939 Y72.829 E0.17572
G1 X62.939 Y67.171 E0.21502
G1 X67.562 Y67.171 E0.17572
G1 X67.562 Y72.754 E0.21217
G1 X68.019 Y73.286 F9000.000
G1 F600
G1 X62.481 Y73.286 E0.21046
G1 X62.481 Y66.714 E0.24977
G1 X68.019 Y66.714 E0.21046
G1 X68.019 Y73.211 E0.24692
G1 X68.476 Y73.743 F9000.000
G1 F600
G1 X62.024 Y73.743 E0.24521
G1 X62.024 Y66.257 E0.28451
G1 X68.476 Y66.257 E0.24521
G1 X68.476 Y73.668 E0.28166
G1 X68.933 Y74.200 F9000.000
G1 F1800
G1 X61.567 Y74.200 E0.27995
G1 X61.567 Y65.800 E0.31925
G1 X68.933 Y65.800 E0.27995
G1 X68.933 Y74.125 E0.31640
G1 X68.453 Y74.060 F9000.000
G1 X67.153 Y70.847 F9000.000
G1 F600
G1 X65.580 Y72.420 E0.08458
G1 X63.347 Y71.811 F9000.000
G1 F600
G1 X63.956 Y72.420 E0.03273
G1 X67.153 Y72.420 E0.12152
G1 X67.153 Y72.385 E0.00132
G1 X63.347 Y68.579 E0.20458
G1 X63.347 Y67.580 E0.03798
G1 X65.580 Y67.580 E0.08486
G1 X67.153 Y69.153 E0.08458
G1 X67.153 Y67.615 F9000.000
G1 F600
G1 X63.347 Y71.421 E0.20458
G1 X63.347 Y68.189 F9000.000
G1 F600
G1 X63.956 Y67.580 E0.03273
G1 E-3.50000 F2400.00000
G1 Z4.650 F9000.000
G1 X72.964 Y73.286 F9000.000
G1 E3.50000 F2400.00000
G1 F600
G1 X72.964 Y66.714 E0.24977
G1 X73.536 Y66.714 E0.02173
G1 X73.536 Y73.286 E0.24977
G1 X73.039 Y73.286 E0.01888
G1 X72.507 Y73.743 F9000.000
G1 F600
G1 X72.507 Y66.257 E0.28451
G1 X73.993 Y66.257 E0.05647
G1 X73.993 Y73.743 E0.28451
G1 X72.582 Y73.743 E0.05362
G1 X72.050 Y74.200 F9000.000
G1 F1800
G1 X72.050 Y65.800 E0.31925
G1 X74.450 Y65.800 E0.09122
G1 X74.450 Y74.200 E0.31925
G1 X72.125 Y74.200 E0.08836
G1 X72.096 Y73.702 F9000.000
G1 X73.250 Y73.057 F9000.000
G1 F600
G1 X73.250 Y66.943 E0.03645
G1 E-3.50000 F2400.00000
G1 X67.540 Y72.829 F9000.000
G1 E3.50000 F2400.00000
G1 F600
G1 X62.961 Y72.829 E0.17404
G1 X62.961 Y67.171 E0.21502
G1 X67.540 Y67.171 E0.17404
G1 X67.540 Y72.754 E0.21217
G1 X67.997 Y73.286 F9000.000
G1 F600
G1 X62.503 Y73.286 E0.20878
G1 X62.503 Y66.714 E0.24977
G1 X67.997 Y66.714 E0.20878
G1 X67.997 Y73.211 E0.24692
G1 X68.454 Y73.743 F9000.000
G1 F600
G1 X62.046 Y73.743 E0.24353
G1 X62.046 Y66.257 E0.28451
G1 X68.454 Y66.257 E0.24353
G1 X68.454 Y73.668 E0.28166
G1 X68.911 Y74.200 F9000.000
G1 F1800
G1 X61.589 Y74.200 E0.27827
G1 X61.589 Y65.800 E0.31925
G1 X68.911 Y65.800 E0.27827
G1 X68.911 Y74.125 E0.31640
G1 X68.431 Y74.060 F9000.000
G1 X67.131 Y70.869 F9000.000
G1 F600
G1 X65.580 Y72.420 E0.08338
G1 X63.369 Y71.833 F9000.000
G1 F600
G1 X63.956 Y72.420 E0.03155
G1 X67.131 Y72.420 E0.12067
G1 X67.131 Y72.363 E0.00217
G1 X63.369 Y68.601 E0.20221
G1 X63.369 Y67.580 E0.03882
G1 X65.580 Y67.580 E0.08402
G1 X67.131 Y69.131 E0.08338
G1 X67.131 Y67.637 F9000.000
G1 F600
G1 X63.369 Y71.399 E0.20221
G1 X63.369 Y68.167 F9000.000
G1 F600
G1 X63.956 Y67.580 E0.03155
G1 E-3.50000 F2400.00000
G1 Z4.850 F9000.000
G1 X72.964 Y73.286 F9000.000
G1 E3.50000 F2400.00000
G1 F600
G1 X72.964 Y66.714 E0.24977
G1 X73.536 Y66.714 E0.02173
G1 X73.536 Y73.286 E0.24977
G1 X73.039 Y73.286 E0.01888
G1 X72.507 Y73.743 F9000.000
G1 F600
G1 X72.507 Y66.257 E0.28451
G1 X73.993 Y66.257 E0.05647
G1 X73.993 Y73.743 E0.28451
G1 X72.582 Y73.743 E0.05362
G1 X72.050 Y74.200 F9000.000
G1 F1800
G1 X72.050 Y65.800 E0.31925
G1 X74.450 Y65.800 E0.09122
G1 X74.450 Y74.200 E0.31925
G1 X72.125 Y74.200 E0.08836
G1 X72.096 Y73.702 F9000.000
G1 X73.250 Y73.057 F9000.000
G1 F600
G1 X73.250 Y66.943 E0.03645
G1 E-3.50000 F2400.00000
G1 X67.507 Y72.829 F9000.000
G1 E3.50000 F2400.00000
G1 F600
G1 X62.992 Y72.829 E0.17161
G1 X62.992 Y67.171 E0.21502
G1 X67.507 Y67.171 E0.17161
G1 X67.507 Y72.754 E0.21217
G1 X67.965 Y73.286 F9000.000
G1 F600
G1 X62.535 Y73.286 E0.20635
G1 X62.535 Y66.714 E0.24977
G1 X67.965 Y66.714 E0.20635
G1 X67.965 Y73.211 E0.24692
G1 X68.422 Y73.743 F9000.000
G1 F600
G1 X62.078 Y73.743 E0.24110
G1 X62.078 Y66.257 E0.28451
G1 X68.422 Y66.257 E0.24110
G1 X68.422 Y73.668 E0.28166
G1 X68.879 Y74.200 F9000.000
G1 F1800
G1 X61.621 Y74.200 E0.27584
G1 X61.621 Y65.800 E0.31925
G1 X68.879 Y65.800 E0.27584
G1 X68.879 Y74.125 E0.31640
G1 X68.399 Y74.059 F9000.000
G1 X67.099 Y70.901 F9000.000
G1 F600
G1 X65.580 Y72.420 E0.08165
G1 X63.401 Y71.865 F9000.000
G1 F600
G1 X63.956 Y72.420 E0.02985
G1 X67.099 Y72.420 E0.11944
G1 X67.099 Y72.331 E0.00339
G1 X63.401 Y68.633 E0.19877
G1 X63.401 Y67.580 E0.04002
G1 X65.580 Y67.580 E0.08282
G1 X67.099 Y69.099 E0.08165
G1 X67.099 Y67.669 F9000.000
G1 F600
G1 X63.401 Y71.367 E0.19877
G1 X63.401 Y68.135 F9000.000
G1 F600
G1 X63.956 Y67.580 E0.02985
G1 E-3.50000 F2400.00000
G1 Z5.050 F9000.000
G1 X72.964 Y73.286 F9000.000
G1 E3.50000 F2400.00000
G1 F600
G1 X72.964 Y66.714 E0.24977
G1 X73.536 Y66.714 E0.02173
G1 X73.536 Y73.286 E0.24977
G1 X73.039 Y73.286 E0.01888
G1 X72.507 Y73.743 F9000.000
G1 F600
G1 X72.507 Y66.257 E0.28451
G1 X73.993 Y66.257 E0.05647
G1 X73.993 Y73.743 E0.28451
G1 X72.582 Y73.743 E0.05362
G1 X72.050 Y74.200 F9000.000
G1 F1800
G1 X72.050 Y65.800 E0.31925
G1 X74.450 Y65.800 E0.09122
G1 X74.450 Y74.200 E0.31925
G1 X72.125 Y74.200 E0.08836
G1 X72.096 Y73.702 F9000.000
G1 X73.250 Y73.057 F9000.000
G1 F600
G1 X73.250 Y66.943 E0.03645
G1 E-3.50000 F2400.00000
G1 X67.463 Y72.829 F9000.000
G1 E3.50000 F2400.00000
G1 F600
G1 X63.037 Y72.829 E0.16823
G1 X63.037 Y67.171 E0.21502
G1 X67.463 Y67.171 E0.16823
G1 X67.463 Y72.754 E0.21217
G1 X67.920 Y73.286 F9000.000
G1 F600
G1 X62.580 Y73.286 E0.20297
G1 X62.580 Y66.714 E0.24977
G1 X67.920 Y66.714 E0.20297
G1 X67.920 Y73.211 E0.24692
G1 X68.377 Y73.743 F9000.000
G1 F600
G1 X62.123 Y73.743 E0.23772
G1 X62.123 Y66.257 E0.28451
G1 X68.377 Y66.257 E0.23772
G1 X68.377 Y73.668 E0.28166
G1 X68.834 Y74.200 F9000.000
G1 F1800
G1 X61.666 Y74.200 E0.27246
G1 X61.666 Y65.800 E0.31925
G1 X68.834 Y65.800 E0.27246
G1 X68.834 Y74.125 E0.31640
G1 X68.355 Y74.058 F9000.000
G1 X67.055 Y70.945 F9000.000
G1 F600
G1 X65.580 Y72.420 E0.07927
G1 X63.445 Y71.909 F9000.000
G1 F600
G1 X63.956 Y72.420 E0.02745
G1 X67.055 Y72.420 E0.11776
G1 X67.055 Y72.287 E0.00508
G1 X63.445 Y68.677 E0.19399
G1 X63.445 Y67.580 E0.04172
G1 X65.580 Y67.580 E0.08112
G1 X67.055 Y69.055 E0.07927
G1 X67.055 Y67.713 F9000.000
G1 F600
G1 X63.445 Y71.323 E0.19399
G1 X63.445 Y68.091 F9000.000
G1 F600
G1 X63.956 Y67.580 E0.02745
G1 E-3.50000 F2400.00000
G1 Z5.250 F9000.000
G1 X72.964 Y73.286 F9000.000
G1 E3.50000 F2400.00000
G1 F600
G1 X72.964 Y66.714 E0.24977
G1 X73.536 Y66.714 E0.02173
G1 X73.536 Y73.286 E0.24977
G1 X73.039 Y73.286 E0.01888
G1 X72.507 Y73.743 F9000.000
G1 F600
G1 X72.507 Y66.257 E0.28451
G1 X73.993 Y66.257 E0.05647
G1 X73.993 Y73.743 E0.28451
G1 X72.582 Y73.743 E0.05362
G1 X72.050 Y74.200 F9000.000
G1 F1800
G1 X72.050 Y65.800 E0.31925
G1 X74.450 Y65.800 E0.09122
G1 X74.450 Y74.200 E0.31925
G1 X72.125 Y74.200 E0.08836
G1 X72.096 Y73.702 F9000.000
G1 X73.250 Y73.057 F9000.000
G1 F600
G1 X73.250 Y66.943 E0.03645
G1 E-3.50000 F2400.00000
G1 X67.408 Y72.829 F9000.000
G1 E3.50000 F2400.00000
G1 F600
G1 X63.092 Y72.829 E0.16404
G1 X63.092 Y67.171 E0.21502
G1 X67.408 Y67.171 E0.16404
G1 X67.408 Y72.754 E0.21217
G1 X67.865 Y73.286 F9000.000
G1 F600
G1 X62.635 Y73.286 E0.19878
G1 X62.635 Y66.714 E0.24977
G1 X67.865 Y66.714 E0.19878
G1 X67.865 Y73.211 E0.24692
G1 X68.323 Y73.743 F9000.000
G1 F600
G1 X62.178 Y73.743 E0.23353
G1 X62.178 Y66.257 E0.28451
G1 X68.323 Y66.257 E0.23353
G1 X68.323 Y73.668 E0.28166
G1 X68.780 Y74.200 F9000.000
G1 F1800
G1 X61.721 Y74.200 E0.26827
G1 X61.721 Y65.800 E0.31925
G1 X68.780 Y65.800 E0.26827
G1 X68.780 Y74.125 E0.31640
G1 X68.301 Y74.057 F9000.000
G1 X67.000 Y71.000 F9000.000
G1 F600
G1 X65.580 Y72.420 E0.07632
G1 X63.501 Y71.965 F9000.000
G1 F600
G1 X63.956 Y72.420 E0.02447
G1 X67.000 Y72.420 E0.11568
G1 X67.000 Y72.232 E0.00716
G1 X63.501 Y68.733 E0.18807
G1 X63.501 Y67.580 E0.04382
G1 X65.580 Y67.580 E0.07902
G1 X67.000 Y69.000 E0.07632
G1 X67.000 Y67.768 F9000.000
G1 F600
G1 X63.501 Y71.267 E0.18807
G1 X63.501 Y68.035 F9000.000
G1 F600
G1 X63.956 Y67.580 E0.02447
G1 E-3.50000 F2400.00000
G1 Z5.450 F9000.000
G1 X72.964 Y73.286 F9000.000
G1 E3.50000 F2400.00000
G1 F600
G1 X72.964 Y66.714 E0.24977
G1 X73.536 Y66.714 E0.02173
G1 X73.536 Y73.286 E0.24977
G1 X73.039 Y73.286 E0.01888
G1 X72.507 Y73.743 F9000.000
G1 F600
G1 X72.507 Y66.257 E0.28451
G1 X73.993 Y66.257 E0.05647
G1 X73.993 Y73.743 E0.28451
G1 X72.582 Y73.743 E0.05362
G1 X72.050 Y74.200 F9000.000
G1 F1800
G1 X72.050 Y65.800 E0.31925
G1 X74.450 Y65.800 E0.09122
G1 X74.450 Y74.200 E0.31925
G1 X72.125 Y74.200 E0.08836
G1 X72.096 Y73.702 F9000.000
G1 X73.250 Y73.057 F9000.000
G1 F600
G1 X73.250 Y66.943 E0.03645
G1 E-3.50000 F2400.00000
G1 X67.342 Y72.829 F9000.000
G1 E3.50000 F2400.00000
G1 F600
G1 X63.158 Y72.829 E0.15901
G1 X63.158 Y67.171 E0.21502
G1 X67.342 Y67.171 E0.15901
G1 X67.342 Y72.754 E0.21217
G1 X67.799 Y73.286 F9000.000
G1 F600
G1 X62.701 Y73.286 E0.19375
G1 X62.701 Y66.714 E0.24977
G1 X67.799 Y66.714 E0.19375
G1 X67.799 Y73.211 E0.24692
G1 X68.256 Y73.743 F9000.000
G1 F600
G1 X62.244 Y73.743 E0.22849
G1 X62.244 Y66.257 E0.28451
G1 X68.256 Y66.257 E0.22849
G1 X68.256 Y73.668 E0.28166
G1 X68.713 Y74.200 F9000.000
G1 F1800
G1 X61.787 Y74.200 E0.26324
G1 X61.787 Y65.800 E0.31925
G1 X68.713 Y65.800 E0.26324
G1 X68.713 Y74.125 E0.31640
G1 X68.235 Y74.055 F9000.000
G1 X66.934 Y71.066 F9000.000
G1 F600
G1 X65.580 Y72.420 E0.07276
G1 X63.567 Y72.031 F9000.000
G1 F600
G1 X63.956 Y72.420 E0.02091
G1 X66.934 Y72.420 E0.11316
G1 X66.934 Y72.166 E0.00968
G1 X63.567 Y68.799 E0.18095
G1 X63.567 Y67.580 E0.04634
G1 X65.580 Y67.580 E0.07650
G1 X66.934 Y68.934 E0.07276
G1 X66.934 Y67.834 F9000.000
G1 F600
G1 X63.567 Y71.201 E0.18095
G1 X63.567 Y67.969 F9000.000
G1 F600
G1 X63.956 Y67.580 E0.02091
G1 E-3.50000 F2400.00000
G1 Z5.650 F9000.000
G1 X72.964 Y73.286 F9000.000
G1 E3.50000 F2400.00000
G1 F600
G1 X72.964 Y66.714 E0.24977
G1 X73.536 Y66.714 E0.02173
G1 X73.536 Y73.286 E0.24977
G1 X73.039 Y73.286 E0.01888
G1 X72.507 Y73.743 F9000.000
G1 F600
G1 X72.507 Y66.257 E0.28451
G1 X73.993 Y66.257 E0.05647
G1 X73.993 Y73.743 E0.28451
G1 X72.582 Y73.743 E0.05362
G1 X72.050 Y74.200 F9000.000
G1 F1800
G1 X72.050 Y65.800 E0.31925
G1 X74.450 Y65.800 E0.09122
G1 X74.450 Y74.200 E0.31925
G1 X72.125 Y74.200 E0.08836
G1 X72.096 Y73.702 F9000.000
G1 X73.250 Y73.057 F9000.000
G1 F600
G1 X73.250 Y66.943 E0.03645
G1 E-3.50000 F2400.00000
G1 X67.264 Y72.829 F9000.000
G1 E3.50000 F2400.00000
G1 F600
G1 X63.236 Y72.829 E0.15309
G1 X63.236 Y67.171 E0.21502
G1 X67.264 Y67.171 E0.15309
G1 X67.264 Y72.754 E0.21217
G1 X67.721 Y73.286 F9000.000
G1 F600
G1 X62.779 Y73.286 E0.18783
G1 X62.779 Y66.714 E0.24977
G1 X67.721 Y66.714 E0.18783
G1 X67.721 Y73.211 E0.24692
G1 X68.178 Y73.743 F9000.000
G1 F600
G1 X62.322 Y73.743 E0.22258
G1 X62.322 Y66.257 E0.28451
G1 X68.178 Y66.257 E0.22258
G1 X68.178 Y73.668 E0.28166
G1 X68.635 Y74.200 F9000.000
G1 F1800
G1 X61.865 Y74.200 E0.25732
G1 X61.865 Y65.800 E0.31925
G1 X68.635 Y65.800 E0.25732
G1 X68.635 Y74.125 E0.31640
G1 X68.157 Y74.053 F9000.000
G1 X66.856 Y71.144 F9000.000
G1 F600
G1 X65.580 Y72.420 E0.06857
G1 X63.645 Y72.109 F9000.000
G1 F600
G1 X63.956 Y72.420 E0.01673
G1 X66.856 Y72.420 E0.11020
G1 X66.856 Y72.088 E0.01264
G1 X63.645 Y68.877 E0.17258
G1 X63.645 Y67.580 E0.04929
G1 X65.580 Y67.580 E0.07354
G1 X66.856 Y68.856 E0.06857
G1 X66.856 Y67.912 F9000.000
G1 F600
G1 X63.645 Y71.123 E0.17258
G1 X63.645 Y67.891 F9000.000
G1 F600
G1 X63.956 Y67.580 E0.01673
G1 E-3.50000 F2400.00000
G1 Z5.850 F9000.000
G1 X72.964 Y73.286 F9000.000
G1 E3.50000 F2400.00000
G1 F600
G1 X72.964 Y66.714 E0.24977
G1 X73.536 Y66.714 E0.02173
G1 X73.536 Y73.286 E0.24977
G1 X73.039 Y73.286 E0.01888
G1 X72.507 Y73.743 F9000.000
G1 F600
G1 X72.507 Y66.257 E0.28451
G1 X73.993 Y66.257 E0.05647
G1 X73.993 Y73.743 E0.28451
G1 X72.582 Y73.743 E0.05362
G1 X72.050 Y74.200 F9000.000
G1 F1800
G1 X72.050 Y65.800 E0.31925
G1 X74.450 Y65.800 E0.09122
G1 X74.450 Y74.200 E0.31925
G1 X72.125 Y74.200 E0.08836
G1 X72.096 Y73.702 F9000.000
G1 X73.250 Y73.057 F9000.000
G1 F600
G1 X73.250 Y66.943 E0.03645
G1 E-3.50000 F2400.00000
G1 X67.174 Y72.829 F9000.000
G1 E3.50000 F2400.00000
G1 F600
G1 X63.326 Y72.829 E0.14626
G1 X63.326 Y67.171 E0.21502
G1 X67.174 Y67.171 E0.14626
G1 X67.174 Y72.754 E0.21217
G1 X67.632 Y73.286 F9000.000
G1 F600
G1 X62.869 Y73.286 E0.18100
G1 X62.869 Y66.714 E0.24977
G1 X67.632 Y66.714 E0.18100
G1 X67.632 Y73.211 E0.24692
G1 X68.089 Y73.743 F9000.000
G1 F600
G1 X62.412 Y73.743 E0.21575
G1 X62.412 Y66.257 E0.28451
G1 X68.089 Y66.257 E0.21575
G1 X68.089 Y73.668 E0.28166
G1 X68.546 Y74.200 F9000.000
G1 F1800
G1 X61.955 Y74.200 E0.25049
G1 X61.955 Y65.800 E0.31925
G1 X68.546 Y65.800 E0.25049
G1 X68.546 Y74.125 E0.31640
G1 X68.068 Y74.051 F9000.000
G1 X66.766 Y71.234 F9000.000
G1 F600
G1 X65.580 Y72.420 E0.06375
G1 X63.735 Y72.199 F9000.000
G1 F600
G1 X63.956 Y72.420 E0.01189
G1 X66.766 Y72.420 E0.10679
G1 X66.766 Y71.998 E0.01605
G1 X63.735 Y68.967 E0.16292
G1 X63.735 Y67.580 E0.05272
G1 X65.580 Y67.580 E0.07012
G1 X66.766 Y68.766 E0.06375
G1 X66.766 Y68.002 F9000.000
G1 F600
G1 X63.735 Y71.033 E0.16292
G1 X63.735 Y67.801 F9000.000
G1 F600
G1 X63.956 Y67.580 E0.01189
G1 E-3.50000 F2400.00000
G1 Z6.050 F9000.000
G1 X72.964 Y73.286 F9000.000
G1 E3.50000 F2400.00000
G1 F600
G1 X72.964 Y66.714 E0.24977
G1 X73.536 Y66.714 E0.02173
G1 X73.536 Y73.286 E0.24977
G1 X73.039 Y73.286 E0.01888
G1 X72.507 Y73.743 F9000.000
G1 F600
G1 X72.507 Y66.257 E0.28451
G1 X73.993 Y66.257 E0.05647
G1 X73.993 Y73.743 E0.28451
G1 X72.582 Y73.743 E0.05362
G1 X72.050 Y74.200 F9000.000
G1 F1800
G1 X72.050 Y65.800 E0.31925
G1 X74.450 Y65.800 E0.09122
G1 X74.450 Y74.200 E0.31925
G1 X72.125 Y74.200 E0.08836
G1 X72.096 Y73.702 F9000.000
G1 X73.250 Y73.057 F9000.000
G1 F600
G1 X73.250 Y66.943 E0.03645
G1 E-3.50000 F2400.00000
G1 X67.071 Y72.829 F9000.000
G1 E3.50000 F2400.00000
G1 F600
G1 X63.429 Y72.829 E0.13840
G1 X63.429 Y67.171 E0.21502
G1 X67.071 Y67.171 E0.13840
G1 X67.071 Y72.754 E0.21217
G1 X67.528 Y73.286 F9000.000
G1 F600
G1 X62.972 Y73.286 E0.17314
G1 X62.972 Y66.714 E0.24977
G1 X67.528 Y66.714 E0.17314
G1 X67.528 Y73.211 E0.24692
G1 X67.985 Y73.743 F9000.000
G1 F600
G1 X62.515 Y73.743 E0.20789
G1 X62.515 Y66.257 E0.28451
G1 X67.985 Y66.257 E0.20789
G1 X67.985 Y73.668 E0.28166
G1 X68.442 Y74.200 F9000.000
G1 F1800
G1 X62.058 Y74.200 E0.24263
G1 X62.058 Y65.800 E0.31925
G1 X68.442 Y65.800 E0.24263
G1 X68.442 Y74.125 E0.31640
G1 X67.965 Y74.049 F9000.000
G1 X66.662 Y71.338 F9000.000
G1 F600
G1 X65.580 Y72.420 E0.05818
G1 X63.838 Y72.302 F9000.000
G1 F600
G1 X63.956 Y72.420 E0.00635
G1 X66.662 Y72.420 E0.10285
G1 X66.662 Y71.894 E0.01999
G1 X63.838 Y69.070 E0.15180
G1 X63.838 Y67.580 E0.05663
G1 X65.580 Y67.580 E0.06620
G1 X66.662 Y68.662 E0.05818
G1 X66.662 Y68.106 F9000.000
G1 F600
G1 X63.838 Y70.930 E0.15180
G1 X63.838 Y67.698 F9000.000
G1 F600
G1 X63.956 Y67.580 E0.00635
G1 E-3.50000 F2400.00000
G1 Z6.250 F9000.000
G1 X72.964 Y73.286 F9000.000
G1 E3.50000 F2400.00000
G1 F600
G1 X72.964 Y66.714 E0.24977
G1 X73.536 Y66.714 E0.02173
G1 X73.536 Y73.286 E0.24977
G1 X73.039 Y73.286 E0.01888
G1 X72.507 Y73.743 F9000.000
G1 F600
G1 X72.507 Y66.257 E0.28451
G1 X73.993 Y66.257 E0.05647
G1 X73.993 Y73.743 E0.28451
G1 X72.582 Y73.743 E0.05362
G1 X72.050 Y74.200 F9000.000
G1 F1800
G1 X72.050 Y65.800 E0.31925
G1 X74.450 Y65.800 E0.09122
G1 X74.450 Y74.200 E0.31925
G1 X72.125 Y74.200 E0.08836
G1 X72.096 Y73.702 F9000.000
G1 X73.250 Y73.057 F9000.000
G1 F600
G1 X73.250 Y66.943 E0.03645
G1 E-3.50000 F2400.00000
G1 X66.952 Y72.829 F9000.000
G1 E3.50000 F2400.00000
G1 F600
G1 X63.549 Y72.829 E0.12934
G1 X63.549 Y67.171 E0.21502
G1 X66.952 Y67.171 E0.12934
G1 X66.952 Y72.754 E0.21217
G1 X67.409 Y73.286 F9000.000
G1 F600
G1 X63.092 Y73.286 E0.16408
G1 X63.092 Y66.714 E0.24977
G1 X67.409 Y66.714 E0.16408
G1 X67.409 Y73.211 E0.24692
G1 X67.866 Y73.743 F9000.000
G1 F600
G1 X62.635 Y73.743 E0.19883
G1 X62.635 Y66.257 E0.28451
G1 X67.866 Y66.257 E0.19883
G1 X67.866 Y73.668 E0.28166
G1 X68.323 Y74.200 F9000.000
G1 F1800
G1 X62.177 Y74.200 E0.23357
G1 X62.177 Y65.800 E0.31925
G1 X68.323 Y65.800 E0.23357
G1 X68.323 Y74.125 E0.31640
G1 X67.847 Y74.046 F9000.000
G1 X66.543 Y71.457 F9000.000
G1 F600
G1 X65.580 Y72.420 E0.05178
G1 X63.957 Y70.811 F9000.000
G1 F600
G1 X66.543 Y68.225 E0.13899
G1 X66.543 Y68.543 F9000.000
G1 F600
G1 X65.580 Y67.580 E0.05178
G1 X63.957 Y67.580 E0.06167
G1 X63.957 Y69.189 E0.06117
G1 X66.543 Y71.775 E0.13899
G1 X66.543 Y72.420 E0.02451
G1 X64.054 Y72.420 E0.09459
G1 X64.054 Y69.286 E0.11911
G1 E-3.50000 F2400.00000
G1 Z6.450 F9000.000
G1 X72.964 Y73.286 F9000.000
G1 E3.50000 F2400.00000
G1 F600
G1 X72.964 Y66.714 E0.24977
G1 X73.536 Y66.714 E0.02173
G1 X73.536 Y73.286 E0.24977
G1 X73.039 Y73.286 E0.01888
G1 X72.507 Y73.743 F9000.000
G1 F600
G1 X72.507 Y66.257 E0.28451
G1 X73.993 Y66.257 E0.05647
G1 X73.993 Y73.743 E0.28451
G1 X72.582 Y73.743 E0.05362
G1 X72.050 Y74.200 F9000.000
G1 F1800
G1 X72.050 Y65.800 E0.31925
G1 X74.450 Y65.800 E0.09122
G1 X74.450 Y74.200 E0.31925
G1 X72.125 Y74.200 E0.08836
G1 X72.096 Y73.702 F9000.000
G1 X73.250 Y73.057 F9000.000
G1 F600
G1 X73.250 Y66.943 E0.03645
G1 E-3.50000 F2400.00000
G1 X66.815 Y72.829 F9000.000
G1 E3.50000 F2400.00000
G1 F600
G1 X63.684 Y72.829 E0.11899
G1 X63.684 Y67.171 E0.21502
G1 X66.815 Y67.171 E0.11899
G1 X66.815 Y72.754 E0.21217
G1 X67.272 Y73.286 F9000.000
G1 F600
G1 X63.227 Y73.286 E0.15374
G1 X63.227 Y66.714 E0.24977
G1 X67.272 Y66.714 E0.15374
G1 X67.272 Y73.211 E0.24692
G1 X67.729 Y73.743 F9000.000
G1 F600
G1 X62.770 Y73.743 E0.18848
G1 X62.770 Y66.257 E0.28451
G1 X67.729 Y66.257 E0.18848
G1 X67.729 Y73.668 E0.28166
G1 X68.186 Y74.200 F9000.000
G1 F1800
G1 X62.313 Y74.200 E0.22323
G1 X62.313 Y65.800 E0.31925
G1 X68.186 Y65.800 E0.22323
G1 X68.186 Y74.125 E0.31640
G1 X67.712 Y74.043 F9000.000
G1 X66.406 Y71.594 F9000.000
G1 F600
G1 X65.580 Y72.420 E0.04442
G1 X64.093 Y70.675 F9000.000
G1 F600
G1 X66.406 Y68.362 E0.12436
G1 X66.406 Y68.406 F9000.000
G1 F600
G1 X65.580 Y67.580 E0.04442
G1 X64.093 Y67.580 E0.05652
G1 X64.093 Y69.325 E0.06631
G1 X66.406 Y71.638 E0.12436
G1 X66.406 Y72.420 E0.02971
G1 X64.190 Y72.420 E0.08425
G1 X64.190 Y69.422 E0.11396
G1 E-3.50000 F2400.00000
G1 Z6.650 F9000.000
G1 X72.964 Y73.286 F9000.000
G1 E3.50000 F2400.00000
G1 F600
G1 X72.964 Y66.714 E0.24977
G1 X73.536 Y66.714 E0.02173
G1 X73.536 Y73.286 E0.24977
G1 X73.039 Y73.286 E0.01888
G1 X72.507 Y73.743 F9000.000
G1 F600
G1 X72.507 Y66.257 E0.28451
G1 X73.993 Y66.257 E0.05647
G1 X73.993 Y73.743 E0.28451
G1 X72.582 Y73.743 E0.05362
G1 X72.050 Y74.200 F9000.000
G1 F1800
G1 X72.050 Y65.800 E0.31925
G1 X74.450 Y65.800 E0.09122
G1 X74.450 Y74.200 E0.31925
G1 X72.125 Y74.200 E0.08836
G1 X72.096 Y73.702 F9000.000
G1 X73.250 Y73.057 F9000.000
G1 F600
G1 X73.250 Y66.943 E0.03645
G1 E-3.50000 F2400.00000
G1 X66.660 Y72.829 F9000.000
G1 E3.50000 F2400.00000
G1 F600
G1 X63.840 Y72.829 E0.10717
G1 X63.840 Y67.171 E0.21502
G1 X66.660 Y67.171 E0.10717
G1 X66.660 Y72.754 E0.21217
G1 X67.117 Y73.286 F9000.000
G1 F600
G1 X63.383 Y73.286 E0.14191
G1 X63.383 Y66.714 E0.24977
G1 X67.117 Y66.714 E0.14191
G1 X67.117 Y73.211 E0.24692
G1 X67.574 Y73.743 F9000.000
G1 F600
G1 X62.926 Y73.743 E0.17666
G1 X62.926 Y66.257 E0.28451
G1 X67.574 Y66.257 E0.17666
G1 X67.574 Y73.668 E0.28166
G1 X68.031 Y74.200 F9000.000
G1 F1800
G1 X62.469 Y74.200 E0.21140
G1 X62.469 Y65.800 E0.31925
G1 X68.031 Y65.800 E0.21140
G1 X68.031 Y74.125 E0.31640
G1 X67.558 Y74.039 F9000.000
G1 X66.251 Y71.749 F9000.000
G1 F600
G1 X65.580 Y72.420 E0.03609
G1 X64.249 Y70.519 F9000.000
G1 F600
G1 X66.251 Y68.517 E0.10764
G1 X66.251 Y68.251 F9000.000
G1 F600
G1 X65.580 Y67.580 E0.03609
G1 X64.249 Y67.580 E0.05060
G1 X64.249 Y69.481 E0.07224
G1 X66.251 Y71.483 E0.10764
G1 X66.251 Y72.420 E0.03561
G1 X64.346 Y72.420 E0.07243
G1 X64.346 Y69.578 E0.10804
G1 E-3.50000 F2400.00000
G1 Z6.850 F9000.000
G1 X72.964 Y73.286 F9000.000
G1 E3.50000 F2400.00000
G1 F600
G1 X72.964 Y66.714 E0.24977
G1 X73.536 Y66.714 E0.02173
G1 X73.536 Y73.286 E0.24977
G1 X73.039 Y73.286 E0.01888
G1 X72.507 Y73.743 F9000.000
G1 F600
G1 X72.507 Y66.257 E0.28451
G1 X73.993 Y66.257 E0.05647
G1 X73.993 Y73.743 E0.28451
G1 X72.582 Y73.743 E0.05362
G1 X72.050 Y74.200 F9000.000
G1 F1800
G1 X72.050 Y65.800 E0.31925
G1 X74.450 Y65.800 E0.09122
G1 X74.450 Y74.200 E0.31925
G1 X72.125 Y74.200 E0.08836
G1 X72.096 Y73.702 F9000.000
G1 X73.250 Y73.057 F9000.000
G1 F600
G1 X73.250 Y66.943 E0.03645
G1 E-3.50000 F2400.00000
G1 X66.483 Y72.829 F9000.000
G1 E3.50000 F2400.00000
G1 F600
G1 X64.017 Y72.829 E0.09373
G1 X64.017 Y67.171 E0.21502
G1 X66.483 Y67.171 E0.09373
G1 X66.483 Y72.754 E0.21217
G1 X66.940 Y73.286 F9000.000
G1 F600
G1 X63.560 Y73.286 E0.12847
G1 X63.560 Y66.714 E0.24977
G1 X66.940 Y66.714 E0.12847
G1 X66.940 Y73.211 E0.24692
G1 X67.397 Y73.743 F9000.000
G1 F600
G1 X63.103 Y73.743 E0.16322
G1 X63.103 Y66.257 E0.28451
G1 X67.397 Y66.257 E0.16322
G1 X67.397 Y73.668 E0.28166
G1 X67.854 Y74.200 F9000.000
G1 F1800
G1 X62.646 Y74.200 E0.19796
G1 X62.646 Y65.800 E0.31925
G1 X67.854 Y65.800 E0.19796
G1 X67.854 Y74.125 E0.31640
G1 X67.383 Y74.034 F9000.000
G1 X66.074 Y71.926 F9000.000
G1 F600
G1 X65.580 Y72.420 E0.02659
G1 X64.426 Y70.342 F9000.000
G1 F600
G1 X66.074 Y68.693 E0.08863
G1 X66.074 Y68.074 F9000.000
G1 F600
G1 X65.580 Y67.580 E0.02659
G1 X64.426 Y67.580 E0.04387
G1 X64.426 Y69.658 E0.07897
G1 X66.074 Y71.307 E0.08863
G1 X66.074 Y72.420 E0.04233
G1 X64.522 Y72.420 E0.05899
G1 X64.522 Y69.755 E0.10131
G1 E-3.50000 F2400.00000
G1 Z7.050 F9000.000
G1 X72.964 Y73.286 F9000.000
G1 E3.50000 F2400.00000
G1 F600
G1 X72.964 Y66.714 E0.24977
G1 X73.536 Y66.714 E0.02173
G1 X73.536 Y73.286 E0.24977
G1 X73.039 Y73.286 E0.01888
G1 X72.507 Y73.743 F9000.000
G1 F600
G1 X72.507 Y66.257 E0.28451
G1 X73.993 Y66.257 E0.05647
G1 X73.993 Y73.743 E0.28451
G1 X72.582 Y73.743 E0.05362
G1 X72.050 Y74.200 F9000.000
G1 F1800
G1 X72.050 Y65.800 E0.31925
G1 X74.450 Y65.800 E0.09122
G1 X74.450 Y74.200 E0.31925
G1 X72.125 Y74.200 E0.08836
G1 X72.096 Y73.702 F9000.000
G1 X73.250 Y73.057 F9000.000
G1 F600
G1 X73.250 Y66.943 E0.03645
G1 E-3.50000 F2400.00000
G1 X66.279 Y72.829 F9000.000
G1 E3.50000 F2400.00000
G1 F600
G1 X64.222 Y72.829 E0.07819
G1 X64.222 Y67.171 E0.21502
G1 X66.279 Y67.171 E0.07819
G1 X66.279 Y72.754 E0.21217
G1 X66.736 Y73.286 F9000.000
G1 F600
G1 X63.765 Y73.286 E0.11293
G1 X63.765 Y66.714 E0.24977
G1 X66.736 Y66.714 E0.11293
G1 X66.736 Y73.211 E0.24692
G1 X67.193 Y73.743 F9000.000
G1 F600
G1 X63.307 Y73.743 E0.14767
G1 X63.307 Y66.257 E0.28451
G1 X67.193 Y66.257 E0.14767
G1 X67.193 Y73.668 E0.28166
G1 X67.650 Y74.200 F9000.000
G1 F1800
G1 X62.850 Y74.200 E0.18242
G1 X62.850 Y65.800 E0.31925
G1 X67.650 Y65.800 E0.18242
G1 X67.650 Y74.125 E0.31640
G1 X67.180 Y74.028 F9000.000
G1 X65.773 Y72.420 F9000.000
G1 F600
G1 X65.870 Y72.323 E0.00528
G1 X65.870 Y71.669 E0.02515
G1 X65.119 Y72.420 E0.04085
G1 X64.630 Y72.420 E0.01880
G1 X64.630 Y72.255 E0.00635
G1 X65.870 Y71.015 E0.06744
G1 X65.870 Y70.361 E0.02515
G1 X64.630 Y71.601 E0.06744
G1 X64.630 Y70.947 E0.02515
G1 X65.870 Y69.707 E0.06744
G1 X65.870 Y69.053 E0.02515
G1 X64.630 Y70.293 E0.06744
G1 X64.630 Y69.639 E0.02515
G1 X65.870 Y68.399 E0.06744
G1 X65.870 Y67.745 E0.02515
G1 X64.630 Y68.985 E0.06744
G1 X64.630 Y68.331 E0.02515
G1 X65.381 Y67.580 E0.04085
G1 X64.727 Y67.580 E0.02515
G1 X64.630 Y67.677 E0.00527
G1 E-3.50000 F2400.00000
G1 Z7.250 F9000.000
G1 X72.964 Y73.286 F9000.000
G1 E3.50000 F2400.00000
G1 F600
G1 X72.964 Y66.714 E0.24977
G1 X73.536 Y66.714 E0.02173
G1 X73.536 Y73.286 E0.24977
G1 X73.039 Y73.286 E0.01888
G1 X72.507 Y73.743 F9000.000
G1 F600
G1 X72.507 Y66.257 E0.28451
G1 X73.993 Y66.257 E0.05647
G1 X73.993 Y73.743 E0.28451
G1 X72.582 Y73.743 E0.05362
G1 X72.050 Y74.200 F9000.000
G1 F1800
G1 X72.050 Y65.800 E0.31925
G1 X74.450 Y65.800 E0.09122
G1 X74.450 Y74.200 E0.31925
G1 X72.125 Y74.200 E0.08836
G1 X72.096 Y73.702 F9000.000
G1 X73.250 Y73.057 F9000.000
G1 F600
G1 X73.250 Y66.943 E0.03645
G1 E-3.50000 F2400.00000
G1 X66.041 Y72.829 F9000.000
G1 E3.50000 F2400.00000
G1 F600
G1 X64.459 Y72.829 E0.06012
G1 X64.459 Y67.171 E0.21502
G1 X66.041 Y67.171 E0.06012
G1 X66.041 Y72.754 E0.21217
G1 X66.498 Y73.286 F9000.000
G1 F600
G1 X64.002 Y73.286 E0.09487
G1 X64.002 Y66.714 E0.24977
G1 X66.498 Y66.714 E0.09487
G1 X66.498 Y73.211 E0.24692
G1 X66.955 Y73.743 F9000.000
G1 F600
G1 X63.545 Y73.743 E0.12961
G1 X63.545 Y66.257 E0.28451
G1 X66.955 Y66.257 E0.12961
G1 X66.955 Y73.668 E0.28166
G1 X67.412 Y74.200 F9000.000
G1 F1800
G1 X63.088 Y74.200 E0.16435
G1 X63.088 Y65.800 E0.31925
G1 X67.412 Y65.800 E0.16435
G1 X67.412 Y74.125 E0.31640
G1 X66.945 Y74.021 F9000.000
G1 E-3.50000 F2400.00000
G1 X64.867 Y72.323 F9000.000
G1 E3.50000 F2400.00000
G1 F600
G1 X64.964 Y72.420 E0.00546
G1 X65.632 Y72.420 E0.02655
G1 X64.867 Y71.647 E0.04326
G1 X64.867 Y70.970 E0.02690
G1 X65.632 Y71.735 E0.04301
G1 X65.632 Y71.059 E0.02690
G1 X64.867 Y70.294 E0.04301
G1 X64.867 Y69.618 E0.02690
G1 X65.632 Y70.382 E0.04301
G1 X65.632 Y69.706 E0.02690
G1 X64.867 Y68.941 E0.04301
G1 X64.867 Y68.265 E0.02690
G1 X65.632 Y69.030 E0.04301
G1 X65.632 Y68.353 E0.02690
G1 X64.867 Y67.580 E0.04326
G1 X65.535 Y67.580 E0.02655
G1 X65.632 Y67.677 E0.00546
G1 E-3.50000 F2400.00000
G1 Z7.450 F9000.000
G1 X72.964 Y73.286 F9000.000
G1 E3.50000 F2400.00000
G1 F600
G1 X72.964 Y66.714 E0.24977
G1 X73.536 Y66.714 E0.02173
G1 X73.536 Y73.286 E0.24977
G1 X73.039 Y73.286 E0.01888
G1 X72.507 Y73.743 F9000.000
G1 F600
G1 X72.507 Y66.257 E0.28451
G1 X73.993 Y66.257 E0.05647
G1 X73.993 Y73.743 E0.28451
G1 X72.582 Y73.743 E0.05362
G1 X72.050 Y74.200 F9000.000
G1 F1800
G1 X72.050 Y65.800 E0.31925
G1 X74.450 Y65.800 E0.09122
G1 X74.450 Y74.200 E0.31925
G1 X72.125 Y74.200 E0.08836
G1 X72.096 Y73.702 F9000.000
G1 X73.250 Y73.057 F9000.000
G1 F600
G1 X73.250 Y66.943 E0.03645
G1 E-3.50000 F2400.00000
G1 X65.762 Y72.829 F9000.000
G1 E3.50000 F2400.00000
G1 F600
G1 X64.738 Y72.829 E0.03891
G1 X64.738 Y67.171 E0.21502
G1 X65.762 Y67.171 E0.03891
G1 X65.762 Y72.754 E0.21217
G1 X66.219 Y73.286 F9000.000
G1 F600
G1 X64.281 Y73.286 E0.07365
G1 X64.281 Y66.714 E0.24977
G1 X66.219 Y66.714 E0.07365
G1 X66.219 Y73.211 E0.24692
G1 X66.676 Y73.743 F9000.000
G1 F600
G1 X63.824 Y73.743 E0.10839
G1 X63.824 Y66.257 E0.28451
G1 X66.676 Y66.257 E0.10839
G1 X66.676 Y73.668 E0.28166
G1 X67.133 Y74.200 F9000.000
G1 F1800
G1 X63.367 Y74.200 E0.14314
G1 X63.367 Y65.800 E0.31925
G1 X67.133 Y65.800 E0.14314
G1 X67.133 Y74.125 E0.31640
G1 X66.669 Y74.013 F9000.000
G1 E-3.50000 F2400.00000
G1 X65.250 Y72.600 F9000.000
G1 E3.50000 F2400.00000
G1 F600
G1 X65.250 Y67.400 E0.22645
G1 E-3.50000 F2400.00000
G1 Z7.650 F9000.000
G1 X72.964 Y73.286 F9000.000
G1 E3.50000 F2400.00000
G1 F600
G1 X72.964 Y66.714 E0.24977
G1 X73.536 Y66.714 E0.02173
G1 X73.536 Y73.286 E0.24977
G1 X73.039 Y73.286 E0.01888
G1 X72.507 Y73.743 F9000.000
G1 F600
G1 X72.507 Y66.257 E0.28451
G1 X73.993 Y66.257 E0.05647
G1 X73.993 Y73.743 E0.28451
G1 X72.582 Y73.743 E0.05362
G1 X72.050 Y74.200 F9000.000
G1 F1800
G1 X72.050 Y65.800 E0.31925
G1 X74.450 Y65.800 E0.09122
G1 X74.450 Y74.200 E0.31925
G1 X72.125 Y74.200 E0.08836
G1 X72.096 Y73.702 F9000.000
G1 X73.250 Y73.057 F9000.000
G1 F600
G1 X73.250 Y66.943 E0.03645
G1 E-3.50000 F2400.00000
G1 X65.418 Y72.829 F9000.000
G1 E3.50000 F2400.00000
G1 F600
G1 X65.082 Y72.829 E0.01278
G1 X65.082 Y67.171 E0.21502
G1 X65.418 Y67.171 E0.01278
G1 X65.418 Y72.754 E0.21217
G1 X65.875 Y73.286 F9000.000
G1 F600
G1 X64.625 Y73.286 E0.04752
G1 X64.625 Y66.714 E0.24977
G1 X65.875 Y66.714 E0.04752
G1 X65.875 Y73.211 E0.24692
G1 X66.332 Y73.743 F9000.000
G1 F600
G1 X64.168 Y73.743 E0.08227
G1 X64.168 Y66.257 E0.28451
G1 X66.332 Y66.257 E0.08227
G1 X66.332 Y73.668 E0.28166
G1 X66.789 Y74.200 F9000.000
G1 F1800
G1 X63.711 Y74.200 E0.11701
G1 X63.711 Y65.800 E0.31925
G1 X66.789 Y65.800 E0.11701
G1 X66.789 Y74.125 E0.31640
G1 X66.330 Y74.002 F9000.000
G1 E-3.50000 F2400.00000
G1 Z7.850 F9000.000
G1 X72.964 Y73.286 F9000.000
G1 E3.50000 F2400.00000
G1 F600
G1 X72.964 Y66.714 E0.24977
G1 X73.536 Y66.714 E0.02173
G1 X73.536 Y73.286 E0.24977
G1 X73.039 Y73.286 E0.01888
G1 X72.507 Y73.743 F9000.000
G1 F600
G1 X72.507 Y66.257 E0.28451
G1 X73.993 Y66.257 E0.05647
G1 X73.993 Y73.743 E0.28451
G1 X72.582 Y73.743 E0.05362
G1 X72.050 Y74.200 F9000.000
G1 F1800
G1 X72.050 Y65.800 E0.31925
G1 X74.450 Y65.800 E0.09122
G1 X74.450 Y74.200 E0.31925
G1 X72.125 Y74.200 E0.08836
G1 X72.096 Y73.702 F9000.000
G1 X73.250 Y73.057 F9000.000
G1 F600
G1 X73.250 Y66.943 E0.03645
G1 E-3.50000 F2400.00000
G1 X65.422 Y73.286 F9000.000
G1 E3.50000 F2400.00000
G1 F600
G1 X65.078 Y73.286 E0.01307
G1 X65.078 Y66.714 E0.24977
G1 X65.422 Y66.714 E0.01307
G1 X65.422 Y73.211 E0.24692
G1 X65.879 Y73.743 F9000.000
G1 F600
G1 X64.621 Y73.743 E0.04781
G1 X64.621 Y66.257 E0.28451
G1 X65.879 Y66.257 E0.04781
G1 X65.879 Y73.668 E0.28166
G1 X66.336 Y74.200 F9000.000
G1 F1800
G1 X64.164 Y74.200 E0.08256
G1 X64.164 Y65.800 E0.31925
G1 X66.336 Y65.800 E0.08256
G1 X66.336 Y74.125 E0.31640
G1 X65.884 Y73.987 F9000.000
G1 E-3.50000 F2400.00000
G1 Z8.050 F9000.000
G1 X72.964 Y73.286 F9000.000
G1 E3.50000 F2400.00000
G1 F600
G1 X72.964 Y66.714 E0.24977
G1 X73.536 Y66.714 E0.02173
G1 X73.536 Y73.286 E0.24977
G1 X73.039 Y73.286 E0.01888
G1 X72.507 Y73.743 F9000.000
G1 F600
G1 X72.507 Y66.257 E0.28451
G1 X73.993 Y66.257 E0.05647
G1 X73.993 Y73.743 E0.28451
G1 X72.582 Y73.743 E0.05362
G1 X72.050 Y74.200 F9000.000
G1 F1800
G1 X72.050 Y65.800 E0.31925
G1 X74.450 Y65.800 E0.09122
G1 X74.450 Y74.200 E0.31925
G1 X72.125 Y74.200 E0.08836
G1 X72.096 Y73.702 F9000.000
G1 X73.250 Y73.057 F9000.000
G1 F600
G1 X73.250 Y66.943 E0.03645
G1 E-3.50000 F2400.00000
G1 X65.566 Y74.200 F9000.000
G1 E3.50000 F2400.00000
G1 F1800
G1 X64.931 Y74.200 E0.02413
G1 X64.931 Y65.800 E0.31925
G1 X65.566 Y65.800 E0.02413
G1 X65.566 Y74.125 E0.31640
G1 X65.127 Y73.961 F9000.000
G1 X65.249 Y73.971 F9000.000
G1 F600
G1 X65.249 Y66.029 E0.08907
G1 E-3.50000 F2400.00000
G1 Z8.250 F9000.000
G1 X72.964 Y73.286 F9000.000
G1 E3.50000 F2400.00000
G1 F600
G1 X72.964 Y66.714 E0.24977
G1 X73.536 Y66.714 E0.02173
G1 X73.536 Y73.286 E0.24977
G1 X73.039 Y73.286 E0.01888
G1 X72.507 Y73.743 F9000.000
G1 F600
G1 X72.507 Y66.257 E0.28451
G1 X73.993 Y66.257 E0.05647
G1 X73.993 Y73.743 E0.28451
G1 X72.582 Y73.743 E0.05362
G1 X72.050 Y74.200 F9000.000
G1 F1800
G1 X72.050 Y65.800 E0.31925
G1 X74.450 Y65.800 E0.09122
G1 X74.450 Y74.200 E0.31925
G1 X72.125 Y74.200 E0.08836
G1 X72.096 Y73.702 F9000.000
G1 X73.250 Y73.057 F9000.000
G1 F600
G1 X73.250 Y66.943 E0.03645
G1 E-3.50000 F2400.00000
G1 Z8.450 F9000.000
G1 X72.964 Y73.286 F9000.000
G1 E3.50000 F2400.00000
G1 F600
G1 X72.964 Y66.714 E0.24977
G1 X73.536 Y66.714 E0.02173
G1 X73.536 Y73.286 E0.24977
G1 X73.039 Y73.286 E0.01888
G1 X72.507 Y73.743 F9000.000
G1 F600
G1 X72.507 Y66.257 E0.28451
G1 X73.993 Y66.257 E0.05647
G1 X73.993 Y73.743 E0.28451
G1 X72.582 Y73.743 E0.05362
G1 X72.050 Y74.200 F9000.000
G1 F1800
G1 X72.050 Y65.800 E0.31925
G1 X74.450 Y65.800 E0.09122
G1 X74.450 Y74.200 E0.31925
G1 X72.125 Y74.200 E0.08836
G1 X72.096 Y73.702 F9000.000
G1 X73.250 Y73.057 F9000.000
G1 F600
G1 X73.250 Y66.943 E0.03645
G1 E-3.50000 F2400.00000
G1 Z8.650 F9000.000
G1 X72.964 Y73.286 F9000.000
G1 E3.50000 F2400.00000
G1 F600
G1 X72.964 Y66.714 E0.24977
G1 X73.536 Y66.714 E0.02173
G1 X73.536 Y73.286 E0.24977
G1 X73.039 Y73.286 E0.01888
G1 X72.507 Y73.743 F9000.000
G1 F600
G1 X72.507 Y66.257 E0.28451
G1 X73.993 Y66.257 E0.05647
G1 X73.993 Y73.743 E0.28451
G1 X72.582 Y73.743 E0.05362
G1 X72.050 Y74.200 F9000.000
G1 F1800
G1 X72.050 Y65.800 E0.31925
G1 X74.450 Y65.800 E0.09122
G1 X74.450 Y74.200 E0.31925
G1 X72.125 Y74.200 E0.08836
G1 X72.096 Y73.702 F9000.000
G1 X73.250 Y73.057 F9000.000
G1 F600
G1 X73.250 Y66.943 E0.03645
G1 E-3.50000 F2400.00000
G1 Z8.850 F9000.000
G1 X72.964 Y73.286 F9000.000
G1 E3.50000 F2400.00000
G1 F600
G1 X72.964 Y66.714 E0.24977
G1 X73.536 Y66.714 E0.02173
G1 X73.536 Y73.286 E0.24977
G1 X73.039 Y73.286 E0.01888
G1 X72.507 Y73.743 F9000.000
G1 F600
G1 X72.507 Y66.257 E0.28451
G1 X73.993 Y66.257 E0.05647
G1 X73.993 Y73.743 E0.28451
G1 X72.582 Y73.743 E0.05362
G1 X72.050 Y74.200 F9000.000
G1 F1800
G1 X72.050 Y65.800 E0.31925
G1 X74.450 Y65.800 E0.09122
G1 X74.450 Y74.200 E0.31925
G1 X72.125 Y74.200 E0.08836
G1 X72.096 Y73.702 F9000.000
G1 X73.250 Y73.057 F9000.000
G1 F600
G1 X73.250 Y66.943 E0.03645
G1 E-3.50000 F2400.00000
G1 Z9.050 F9000.000
G1 X72.964 Y73.286 F9000.000
G1 E3.50000 F2400.00000
G1 F600
G1 X72.964 Y66.714 E0.24977
G1 X73.536 Y66.714 E0.02173
G1 X73.536 Y73.286 E0.24977
G1 X73.039 Y73.286 E0.01888
G1 X72.507 Y73.743 F9000.000
G1 F600
G1 X72.507 Y66.257 E0.28451
G1 X73.993 Y66.257 E0.05647
G1 X73.993 Y73.743 E0.28451
G1 X72.582 Y73.743 E0.05362
G1 X72.050 Y74.200 F9000.000
G1 F1800
G1 X72.050 Y65.800 E0.31925
G1 X74.450 Y65.800 E0.09122
G1 X74.450 Y74.200 E0.31925
G1 X72.125 Y74.200 E0.08836
G1 X72.096 Y73.702 F9000.000
G1 X73.250 Y73.057 F9000.000
G1 F600
G1 X73.250 Y66.943 E0.03645
G1 E-3.50000 F2400.00000
M107
; Filament-specific end gcode 
;END gcode for filament

G91				; Set to Relative Positioning so that we can go up a fixed distance from current position which is the end of the print
G1 Z2				; move up 2mm from where we were when the print ended, updated 2020 08 12 9:36, was 10mm
G90				; Set to Absolute Positioning 
G10 P0 S-273 R-273	; Set tool 0 operating and standby temperatures  to negative 273 C means switched off, and zero all offsetsn
G4 S1			        ; wait for 1 second
G1 X112  Y140		; move to X:115, Y:140, i.e. eject !  updated 2020 03 31 13:37
G4 S1				; wait for 1 second
M140 S-273			;  set bed heater  to switched off
M104 S0 ; set temperature
; filament used = 335.2mm (0.8cm3)
; total filament cost = 0.0

; avoid_crossing_perimeters = 0
; bed_shape = 0x0,136x0,136x140,0x140
; bed_temperature = 0
; before_layer_gcode = 
; between_objects_gcode = 
; bridge_acceleration = 0
; bridge_fan_speed = 100
; brim_connections_width = 0
; brim_width = 5
; complete_objects = 0
; cooling = 1
; default_acceleration = 0
; disable_fan_first_layers = 2
; duplicate_distance = 6
; end_filament_gcode = "; Filament-specific end gcode \n;END gcode for filament\n"
; end_gcode = G91				; Set to Relative Positioning so that we can go up a fixed distance from current position which is the end of the print\nG1 Z2				; move up 2mm from where we were when the print ended, updated 2020 08 12 9:36, was 10mm\nG90				; Set to Absolute Positioning \nG10 P0 S-273 R-273	; Set tool 0 operating and standby temperatures  to negative 273 C means switched off, and zero all offsetsn\nG4 S1			        ; wait for 1 second\nG1 X112  Y140		; move to X:115, Y:140, i.e. eject !  updated 2020 03 31 13:37\nG4 S1				; wait for 1 second\nM140 S-273			;  set bed heater  to switched off
; extruder_clearance_height = 20
; extruder_clearance_radius = 20
; extruder_offset = 0x0
; extrusion_axis = E
; extrusion_multiplier = 1
; fan_always_on = 1
; fan_below_layer_time = 60
; filament_colour = #FFFFFF
; filament_cost = 0
; filament_density = 0
; filament_diameter = 1.75
; filament_max_volumetric_speed = 0
; filament_notes = ""
; first_layer_acceleration = 0
; first_layer_bed_temperature = 0
; first_layer_extrusion_width = 0.8
; first_layer_speed = 50%
; first_layer_temperature = 215
; gcode_arcs = 0
; gcode_comments = 0
; gcode_flavor = reprap
; has_heatbed = 1
; infill_acceleration = 0
; infill_first = 0
; interior_brim_width = 0
; layer_gcode = 
; max_fan_speed = 100
; max_layer_height = 0.3
; max_print_speed = 80
; max_volumetric_speed = 0
; min_fan_speed = 100
; min_layer_height = 0.15
; min_print_speed = 10
; min_skirt_length = 0
; notes = 
; nozzle_diameter = 0.5
; only_retract_when_crossing_perimeters = 1
; ooze_prevention = 0
; output_filename_format = [input_filename_base].gcode
; perimeter_acceleration = 0
; post_process = 
; pressure_advance = 0
; printer_notes = 
; resolution = 0
; retract_before_travel = 2
; retract_layer_change = 1
; retract_length = 3.5
; retract_length_toolchange = 10
; retract_lift = 0
; retract_lift_above = 0
; retract_lift_below = 0
; retract_restart_extra = 0
; retract_restart_extra_toolchange = 0
; retract_speed = 40
; skirt_distance = 7
; skirt_height = 1
; skirts = 2
; slowdown_below_layer_time = 20
; spiral_vase = 0
; standby_temperature_delta = -5
; start_filament_gcode = "; Filament gcode\n"
; start_gcode = T0\n
; temperature = 215
; threads = 4
; toolchange_gcode = 
; travel_speed = 150
; use_firmware_retraction = 0
; use_relative_e_distances = 1
; use_set_and_wait_bed = 0
; use_set_and_wait_extruder = 0
; use_volumetric_e = 0
; vibration_limit = 0
; wipe = 0
; z_offset = 0
; z_steps_per_mm = 0
; adaptive_slicing = 0
; adaptive_slicing_quality = 75%
; dont_support_bridges = 1
; extrusion_width = 0.5
; first_layer_height = 0.25
; infill_only_where_needed = 0
; interface_shells = 0
; layer_height = 0.2
; match_horizontal_surfaces = 0
; raft_layers = 0
; regions_overlap = 0
; seam_position = aligned
; sequential_print_priority = 0
; support_material = 0
; support_material_angle = 0
; support_material_buildplate_only = 1
; support_material_contact_distance = 0.2
; support_material_enforce_layers = 0
; support_material_extruder = 1
; support_material_extrusion_width = 0.5
; support_material_interface_extruder = 1
; support_material_interface_extrusion_width = 0
; support_material_interface_layers = 3
; support_material_interface_spacing = 0
; support_material_interface_speed = 100%
; support_material_max_layers = 0
; support_material_pattern = pillars
; support_material_spacing = 2.5
; support_material_speed = 40
; support_material_threshold = 60%
; xy_size_compensation = -0.05
; bottom_infill_pattern = rectilinear
; bottom_solid_layers = 5
; bridge_flow_ratio = 1
; bridge_speed = 40
; external_perimeter_extrusion_width = 0.5
; external_perimeter_speed = 30
; external_perimeters_first = 0
; extra_perimeters = 1
; fill_angle = 45
; fill_density = 40%
; fill_gaps = 1
; fill_pattern = grid
; gap_fill_speed = 20
; infill_every_layers = 1
; infill_extruder = 1
; infill_extrusion_width = 0.5
; infill_overlap = 15%
; infill_speed = 40
; overhangs = 1
; perimeter_extruder = 1
; perimeter_extrusion_width = 0.5
; perimeter_speed = 30
; perimeters = 4
; small_perimeter_speed = 30
; solid_infill_below_area = 0
; solid_infill_every_layers = 0
; solid_infill_extruder = 1
; solid_infill_extrusion_width = 0.5
; solid_infill_speed = 30
; thin_walls = 1
; top_infill_extrusion_width = 0.5
; top_infill_pattern = rectilinear
; top_solid_infill_speed = 30
; top_solid_layers = 5
