solid OpenSCAD_Model
  facet normal -0.996057 0.0313184 0.0830047
    outer loop
      vertex -3.49309 0.219767 6
      vertex -4 0 0
      vertex -3.5 0 6
    endloop
  endfacet
  facet normal 0.996057 0.0313184 0.0830047
    outer loop
      vertex 4 0 0
      vertex 3.49309 0.219767 6
      vertex 3.5 0 6
    endloop
  endfacet
  facet normal 0.996058 0.0312901 0.0830058
    outer loop
      vertex 3.99211 0.251162 0
      vertex 3.49309 0.219767 6
      vertex 4 0 0
    endloop
  endfacet
  facet normal -0.0313184 -0.996057 0.0830047
    outer loop
      vertex 0 -3.5 6
      vertex -0.219767 -3.49309 6
      vertex 0 -4 0
    endloop
  endfacet
  facet normal 0.992127 0.0937748 0.0830052
    outer loop
      vertex 3.96846 0.501332 0
      vertex 3.4724 0.438665 6
      vertex 3.49309 0.219767 6
    endloop
  endfacet
  facet normal 0.659042 -0.747512 0.083005
    outer loop
      vertex 2.39591 -2.55139 6
      vertex 2.23098 -2.6968 6
      vertex 2.73819 -2.91587 0
    endloop
  endfacet
  facet normal 0.0313184 0.996057 0.0830047
    outer loop
      vertex 0 4 0
      vertex 0 3.5 6
      vertex 0.219767 3.49309 6
    endloop
  endfacet
  facet normal -0.996058 -0.0312901 0.0830058
    outer loop
      vertex -3.49309 -0.219767 6
      vertex -4 0 0
      vertex -3.99211 -0.251162 0
    endloop
  endfacet
  facet normal 0.914585 0.395783 0.0830058
    outer loop
      vertex 3.61931 1.70312 0
      vertex 3.16689 1.49023 6
      vertex 3.71911 1.4725 0
    endloop
  endfacet
  facet normal -0.659042 0.747512 0.083005
    outer loop
      vertex -2.23098 2.6968 6
      vertex -2.73819 2.91587 0
      vertex -2.39591 2.55139 6
    endloop
  endfacet
  facet normal -0.337578 0.937631 0.0830055
    outer loop
      vertex -1.08156 3.3287 6
      vertex -1.4725 3.71911 0
      vertex -1.28843 3.25422 6
    endloop
  endfacet
  facet normal -0.747512 -0.659042 0.083005
    outer loop
      vertex -2.6968 -2.23098 6
      vertex -2.91587 -2.73819 0
      vertex -2.55139 -2.39591 6
    endloop
  endfacet
  facet normal 0.0312901 -0.996058 0.0830058
    outer loop
      vertex 0.219767 -3.49309 6
      vertex 0 -4 0
      vertex 0.251162 -3.99211 0
    endloop
  endfacet
  facet normal 0.972546 -0.217404 0.0830046
    outer loop
      vertex 3.92915 -0.749525 0
      vertex 3.39004 -0.870414 6
      vertex 3.87433 -0.994759 0
    endloop
  endfacet
  facet normal 0.704667 0.704667 0.083005
    outer loop
      vertex 2.39591 2.55139 6
      vertex 2.91587 2.73819 0
      vertex 2.73819 2.91587 0
    endloop
  endfacet
  facet normal 0.704667 0.704667 0.083005
    outer loop
      vertex 2.91587 2.73819 0
      vertex 2.39591 2.55139 6
      vertex 2.55139 2.39591 6
    endloop
  endfacet
  facet normal 0.395783 0.914585 0.0830058
    outer loop
      vertex 1.70312 3.61931 0
      vertex 1.4725 3.71911 0
      vertex 1.49023 3.16689 6
    endloop
  endfacet
  facet normal -0.0312901 0.996058 0.0830058
    outer loop
      vertex 0 4 0
      vertex -0.251162 3.99211 0
      vertex -0.219767 3.49309 6
    endloop
  endfacet
  facet normal -0.937631 -0.337578 0.0830055
    outer loop
      vertex -3.3287 -1.08156 6
      vertex -3.71911 -1.4725 0
      vertex -3.25422 -1.28843 6
    endloop
  endfacet
  facet normal 0 0 -1
    outer loop
      vertex 1 -1.5 0
      vertex 4 0 0
      vertex 3.99211 -0.251162 0
    endloop
  endfacet
  facet normal 0 0 -1
    outer loop
      vertex 1 -1.5 0
      vertex 3.99211 -0.251162 0
      vertex 3.96846 -0.501332 0
    endloop
  endfacet
  facet normal 0 0 -1
    outer loop
      vertex 1 1.5 0
      vertex 4 0 0
      vertex 1 -1.5 0
    endloop
  endfacet
  facet normal 0 0 -1
    outer loop
      vertex 1 -1.5 0
      vertex 3.96846 -0.501332 0
      vertex 3.92915 -0.749525 0
    endloop
  endfacet
  facet normal 0 0 -1
    outer loop
      vertex 4 0 0
      vertex 1 1.5 0
      vertex 3.99211 0.251162 0
    endloop
  endfacet
  facet normal 0 0 -1
    outer loop
      vertex 1 -1.5 0
      vertex 3.92915 -0.749525 0
      vertex 3.87433 -0.994759 0
    endloop
  endfacet
  facet normal 0 0 -1
    outer loop
      vertex 3.99211 0.251162 0
      vertex 1 1.5 0
      vertex 3.96846 0.501332 0
    endloop
  endfacet
  facet normal 0 0 -1
    outer loop
      vertex 1 -1.5 0
      vertex 3.87433 -0.994759 0
      vertex 3.80423 -1.23607 0
    endloop
  endfacet
  facet normal 0 0 -1
    outer loop
      vertex 3.96846 0.501332 0
      vertex 1 1.5 0
      vertex 3.92915 0.749525 0
    endloop
  endfacet
  facet normal 0 0 -1
    outer loop
      vertex 1 -1.5 0
      vertex 3.80423 -1.23607 0
      vertex 3.71911 -1.4725 0
    endloop
  endfacet
  facet normal 0 0 -1
    outer loop
      vertex 3.92915 0.749525 0
      vertex 1 1.5 0
      vertex 3.87433 0.994759 0
    endloop
  endfacet
  facet normal 0 0 -1
    outer loop
      vertex 1 -1.5 0
      vertex 3.71911 -1.4725 0
      vertex 3.61931 -1.70312 0
    endloop
  endfacet
  facet normal 0 0 -1
    outer loop
      vertex 3.87433 0.994759 0
      vertex 1 1.5 0
      vertex 3.80423 1.23607 0
    endloop
  endfacet
  facet normal 0 0 -1
    outer loop
      vertex 1 -1.5 0
      vertex 3.61931 -1.70312 0
      vertex 3.50523 -1.92701 0
    endloop
  endfacet
  facet normal 0 0 -1
    outer loop
      vertex 3.80423 1.23607 0
      vertex 1 1.5 0
      vertex 3.71911 1.4725 0
    endloop
  endfacet
  facet normal 0 0 -1
    outer loop
      vertex 1 -1.5 0
      vertex 3.50523 -1.92701 0
      vertex 3.37731 -2.14331 0
    endloop
  endfacet
  facet normal 0 0 -1
    outer loop
      vertex 3.71911 1.4725 0
      vertex 1 1.5 0
      vertex 3.61931 1.70312 0
    endloop
  endfacet
  facet normal 0 0 -1
    outer loop
      vertex 1 -1.5 0
      vertex 3.37731 -2.14331 0
      vertex 3.23607 -2.35114 0
    endloop
  endfacet
  facet normal -0 0 -1
    outer loop
      vertex 3.61931 1.70312 0
      vertex 1 1.5 0
      vertex 3.50523 1.92701 0
    endloop
  endfacet
  facet normal 0 0 -1
    outer loop
      vertex 1 -1.5 0
      vertex 3.23607 -2.35114 0
      vertex 3.08205 -2.5497 0
    endloop
  endfacet
  facet normal -0 0 -1
    outer loop
      vertex 3.50523 1.92701 0
      vertex 1 1.5 0
      vertex 3.37731 2.14331 0
    endloop
  endfacet
  facet normal 0 0 -1
    outer loop
      vertex 1 -1.5 0
      vertex 3.08205 -2.5497 0
      vertex 2.91587 -2.73819 0
    endloop
  endfacet
  facet normal -0 0 -1
    outer loop
      vertex 3.37731 2.14331 0
      vertex 1 1.5 0
      vertex 3.23607 2.35114 0
    endloop
  endfacet
  facet normal 0 0 -1
    outer loop
      vertex 1 -1.5 0
      vertex 2.91587 -2.73819 0
      vertex 2.73819 -2.91587 0
    endloop
  endfacet
  facet normal -0 0 -1
    outer loop
      vertex 3.23607 2.35114 0
      vertex 1 1.5 0
      vertex 3.08205 2.5497 0
    endloop
  endfacet
  facet normal 0 0 -1
    outer loop
      vertex 1 -1.5 0
      vertex 2.73819 -2.91587 0
      vertex 2.5497 -3.08205 0
    endloop
  endfacet
  facet normal -0 0 -1
    outer loop
      vertex 3.08205 2.5497 0
      vertex 1 1.5 0
      vertex 2.91587 2.73819 0
    endloop
  endfacet
  facet normal 0 0 -1
    outer loop
      vertex 1 -1.5 0
      vertex 2.5497 -3.08205 0
      vertex 2.35114 -3.23607 0
    endloop
  endfacet
  facet normal -0 0 -1
    outer loop
      vertex 2.91587 2.73819 0
      vertex 1 1.5 0
      vertex 2.73819 2.91587 0
    endloop
  endfacet
  facet normal 0 0 -1
    outer loop
      vertex 1 -1.5 0
      vertex 2.35114 -3.23607 0
      vertex 2.14331 -3.37731 0
    endloop
  endfacet
  facet normal -0 0 -1
    outer loop
      vertex 2.73819 2.91587 0
      vertex 1 1.5 0
      vertex 2.5497 3.08205 0
    endloop
  endfacet
  facet normal 0 0 -1
    outer loop
      vertex 1 -1.5 0
      vertex 2.14331 -3.37731 0
      vertex 1.92701 -3.50523 0
    endloop
  endfacet
  facet normal -0 0 -1
    outer loop
      vertex 2.5497 3.08205 0
      vertex 1 1.5 0
      vertex 2.35114 3.23607 0
    endloop
  endfacet
  facet normal 0 0 -1
    outer loop
      vertex 1 -1.5 0
      vertex 1.92701 -3.50523 0
      vertex 1.70312 -3.61931 0
    endloop
  endfacet
  facet normal -0 0 -1
    outer loop
      vertex 2.35114 3.23607 0
      vertex 1 1.5 0
      vertex 2.14331 3.37731 0
    endloop
  endfacet
  facet normal 0 0 -1
    outer loop
      vertex 1 -1.5 0
      vertex 1.70312 -3.61931 0
      vertex 1.4725 -3.71911 0
    endloop
  endfacet
  facet normal -0 0 -1
    outer loop
      vertex 2.14331 3.37731 0
      vertex 1 1.5 0
      vertex 1.92701 3.50523 0
    endloop
  endfacet
  facet normal 0 0 -1
    outer loop
      vertex 1 -1.5 0
      vertex 1.4725 -3.71911 0
      vertex 1.23607 -3.80423 0
    endloop
  endfacet
  facet normal -0 0 -1
    outer loop
      vertex 1.92701 3.50523 0
      vertex 1 1.5 0
      vertex 1.70312 3.61931 0
    endloop
  endfacet
  facet normal -0 0 -1
    outer loop
      vertex 1.70312 3.61931 0
      vertex 1 1.5 0
      vertex 1.4725 3.71911 0
    endloop
  endfacet
  facet normal 0 0 -1
    outer loop
      vertex 0.994759 -3.87433 0
      vertex 1 -1.5 0
      vertex 1.23607 -3.80423 0
    endloop
  endfacet
  facet normal 0 0 -1
    outer loop
      vertex 0.749525 -3.92915 0
      vertex 1 -1.5 0
      vertex 0.994759 -3.87433 0
    endloop
  endfacet
  facet normal 0 0 -1
    outer loop
      vertex 0.501332 -3.96846 0
      vertex 1 -1.5 0
      vertex 0.749525 -3.92915 0
    endloop
  endfacet
  facet normal 0 0 -1
    outer loop
      vertex 0.251162 -3.99211 0
      vertex 1 -1.5 0
      vertex 0.501332 -3.96846 0
    endloop
  endfacet
  facet normal 0 0 -1
    outer loop
      vertex 0 -4 0
      vertex 1 -1.5 0
      vertex 0.251162 -3.99211 0
    endloop
  endfacet
  facet normal 0 0 -1
    outer loop
      vertex -1 -1.5 0
      vertex 0 -4 0
      vertex -0.251162 -3.99211 0
    endloop
  endfacet
  facet normal 0 0 -1
    outer loop
      vertex -1 -1.5 0
      vertex -0.251162 -3.99211 0
      vertex -0.501332 -3.96846 0
    endloop
  endfacet
  facet normal 0 0 -1
    outer loop
      vertex -1 -1.5 0
      vertex -0.501332 -3.96846 0
      vertex -0.749525 -3.92915 0
    endloop
  endfacet
  facet normal 0 0 -1
    outer loop
      vertex -1 -1.5 0
      vertex -0.749525 -3.92915 0
      vertex -0.994759 -3.87433 0
    endloop
  endfacet
  facet normal 0 0 -1
    outer loop
      vertex 0 -4 0
      vertex -1 -1.5 0
      vertex 1 -1.5 0
    endloop
  endfacet
  facet normal 0 0 -1
    outer loop
      vertex -1.4725 -3.71911 0
      vertex -1 -1.5 0
      vertex -1.23607 -3.80423 0
    endloop
  endfacet
  facet normal 0 0 -1
    outer loop
      vertex -1.23607 -3.80423 0
      vertex -1 -1.5 0
      vertex -0.994759 -3.87433 0
    endloop
  endfacet
  facet normal -0 0 -1
    outer loop
      vertex 1.4725 3.71911 0
      vertex 1 1.5 0
      vertex 1.23607 3.80423 0
    endloop
  endfacet
  facet normal 0 0 -1
    outer loop
      vertex 1 1.5 0
      vertex 0.994759 3.87433 0
      vertex 1.23607 3.80423 0
    endloop
  endfacet
  facet normal 0 0 -1
    outer loop
      vertex 1 1.5 0
      vertex 0.749525 3.92915 0
      vertex 0.994759 3.87433 0
    endloop
  endfacet
  facet normal 0 0 -1
    outer loop
      vertex 1 1.5 0
      vertex 0.501332 3.96846 0
      vertex 0.749525 3.92915 0
    endloop
  endfacet
  facet normal 0 0 -1
    outer loop
      vertex 1 1.5 0
      vertex 0.251162 3.99211 0
      vertex 0.501332 3.96846 0
    endloop
  endfacet
  facet normal 0 0 -1
    outer loop
      vertex 1 1.5 0
      vertex 0 4 0
      vertex 0.251162 3.99211 0
    endloop
  endfacet
  facet normal 0 0 -1
    outer loop
      vertex -1 1.5 0
      vertex 0 4 0
      vertex 1 1.5 0
    endloop
  endfacet
  facet normal 0 0 -1
    outer loop
      vertex 0 4 0
      vertex -1 1.5 0
      vertex -0.251162 3.99211 0
    endloop
  endfacet
  facet normal 0 0 -1
    outer loop
      vertex -0.251162 3.99211 0
      vertex -1 1.5 0
      vertex -0.501332 3.96846 0
    endloop
  endfacet
  facet normal 0 0 -1
    outer loop
      vertex -0.501332 3.96846 0
      vertex -1 1.5 0
      vertex -0.749525 3.92915 0
    endloop
  endfacet
  facet normal 0 0 -1
    outer loop
      vertex -0.749525 3.92915 0
      vertex -1 1.5 0
      vertex -0.994759 3.87433 0
    endloop
  endfacet
  facet normal 0 0 -1
    outer loop
      vertex -1.70312 -3.61931 0
      vertex -1 -1.5 0
      vertex -1.4725 -3.71911 0
    endloop
  endfacet
  facet normal 0 0 -1
    outer loop
      vertex -1 1.5 0
      vertex -1.23607 3.80423 0
      vertex -0.994759 3.87433 0
    endloop
  endfacet
  facet normal 0 0 -1
    outer loop
      vertex -1.92701 -3.50523 0
      vertex -1 -1.5 0
      vertex -1.70312 -3.61931 0
    endloop
  endfacet
  facet normal 0 0 -1
    outer loop
      vertex -1 1.5 0
      vertex -1.4725 3.71911 0
      vertex -1.23607 3.80423 0
    endloop
  endfacet
  facet normal 0 0 -1
    outer loop
      vertex -2.14331 -3.37731 0
      vertex -1 -1.5 0
      vertex -1.92701 -3.50523 0
    endloop
  endfacet
  facet normal 0 0 -1
    outer loop
      vertex -1 1.5 0
      vertex -1.70312 3.61931 0
      vertex -1.4725 3.71911 0
    endloop
  endfacet
  facet normal 0 0 -1
    outer loop
      vertex -2.35114 -3.23607 0
      vertex -1 -1.5 0
      vertex -2.14331 -3.37731 0
    endloop
  endfacet
  facet normal 0 0 -1
    outer loop
      vertex -1 1.5 0
      vertex -1.92701 3.50523 0
      vertex -1.70312 3.61931 0
    endloop
  endfacet
  facet normal 0 0 -1
    outer loop
      vertex -2.5497 -3.08205 0
      vertex -1 -1.5 0
      vertex -2.35114 -3.23607 0
    endloop
  endfacet
  facet normal 0 0 -1
    outer loop
      vertex -1 1.5 0
      vertex -2.14331 3.37731 0
      vertex -1.92701 3.50523 0
    endloop
  endfacet
  facet normal 0 0 -1
    outer loop
      vertex -2.73819 -2.91587 0
      vertex -1 -1.5 0
      vertex -2.5497 -3.08205 0
    endloop
  endfacet
  facet normal 0 0 -1
    outer loop
      vertex -1 1.5 0
      vertex -2.35114 3.23607 0
      vertex -2.14331 3.37731 0
    endloop
  endfacet
  facet normal 0 0 -1
    outer loop
      vertex -2.91587 -2.73819 0
      vertex -1 -1.5 0
      vertex -2.73819 -2.91587 0
    endloop
  endfacet
  facet normal 0 0 -1
    outer loop
      vertex -1 1.5 0
      vertex -2.5497 3.08205 0
      vertex -2.35114 3.23607 0
    endloop
  endfacet
  facet normal 0 0 -1
    outer loop
      vertex -3.08205 -2.5497 0
      vertex -1 -1.5 0
      vertex -2.91587 -2.73819 0
    endloop
  endfacet
  facet normal 0 0 -1
    outer loop
      vertex -1 1.5 0
      vertex -2.73819 2.91587 0
      vertex -2.5497 3.08205 0
    endloop
  endfacet
  facet normal 0 0 -1
    outer loop
      vertex -3.23607 -2.35114 0
      vertex -1 -1.5 0
      vertex -3.08205 -2.5497 0
    endloop
  endfacet
  facet normal 0 0 -1
    outer loop
      vertex -1 1.5 0
      vertex -2.91587 2.73819 0
      vertex -2.73819 2.91587 0
    endloop
  endfacet
  facet normal 0 0 -1
    outer loop
      vertex -3.37731 -2.14331 0
      vertex -1 -1.5 0
      vertex -3.23607 -2.35114 0
    endloop
  endfacet
  facet normal 0 0 -1
    outer loop
      vertex -1 1.5 0
      vertex -3.08205 2.5497 0
      vertex -2.91587 2.73819 0
    endloop
  endfacet
  facet normal 0 0 -1
    outer loop
      vertex -3.50523 -1.92701 0
      vertex -1 -1.5 0
      vertex -3.37731 -2.14331 0
    endloop
  endfacet
  facet normal 0 0 -1
    outer loop
      vertex -1 1.5 0
      vertex -3.23607 2.35114 0
      vertex -3.08205 2.5497 0
    endloop
  endfacet
  facet normal 0 0 -1
    outer loop
      vertex -3.61931 -1.70312 0
      vertex -1 -1.5 0
      vertex -3.50523 -1.92701 0
    endloop
  endfacet
  facet normal 0 0 -1
    outer loop
      vertex -1 1.5 0
      vertex -3.37731 2.14331 0
      vertex -3.23607 2.35114 0
    endloop
  endfacet
  facet normal 0 0 -1
    outer loop
      vertex -3.71911 -1.4725 0
      vertex -1 -1.5 0
      vertex -3.61931 -1.70312 0
    endloop
  endfacet
  facet normal 0 0 -1
    outer loop
      vertex -1 1.5 0
      vertex -3.50523 1.92701 0
      vertex -3.37731 2.14331 0
    endloop
  endfacet
  facet normal 0 0 -1
    outer loop
      vertex -3.80423 -1.23607 0
      vertex -1 -1.5 0
      vertex -3.71911 -1.4725 0
    endloop
  endfacet
  facet normal 0 0 -1
    outer loop
      vertex -1 1.5 0
      vertex -3.61931 1.70312 0
      vertex -3.50523 1.92701 0
    endloop
  endfacet
  facet normal 0 0 -1
    outer loop
      vertex -3.87433 -0.994759 0
      vertex -1 -1.5 0
      vertex -3.80423 -1.23607 0
    endloop
  endfacet
  facet normal -0 0 -1
    outer loop
      vertex -1 1.5 0
      vertex -3.71911 1.4725 0
      vertex -3.61931 1.70312 0
    endloop
  endfacet
  facet normal 0 0 -1
    outer loop
      vertex -3.92915 -0.749525 0
      vertex -1 -1.5 0
      vertex -3.87433 -0.994759 0
    endloop
  endfacet
  facet normal 0 0 -1
    outer loop
      vertex -1 1.5 0
      vertex -3.80423 1.23607 0
      vertex -3.71911 1.4725 0
    endloop
  endfacet
  facet normal 0 0 -1
    outer loop
      vertex -3.96846 -0.501332 0
      vertex -1 -1.5 0
      vertex -3.92915 -0.749525 0
    endloop
  endfacet
  facet normal 0 0 -1
    outer loop
      vertex -1 1.5 0
      vertex -3.87433 0.994759 0
      vertex -3.80423 1.23607 0
    endloop
  endfacet
  facet normal 0 0 -1
    outer loop
      vertex -3.99211 -0.251162 0
      vertex -1 -1.5 0
      vertex -3.96846 -0.501332 0
    endloop
  endfacet
  facet normal 0 0 -1
    outer loop
      vertex -1 1.5 0
      vertex -3.92915 0.749525 0
      vertex -3.87433 0.994759 0
    endloop
  endfacet
  facet normal 0 0 -1
    outer loop
      vertex -4 0 0
      vertex -1 -1.5 0
      vertex -3.99211 -0.251162 0
    endloop
  endfacet
  facet normal 0 0 -1
    outer loop
      vertex -1 1.5 0
      vertex -3.96846 0.501332 0
      vertex -3.92915 0.749525 0
    endloop
  endfacet
  facet normal 0 0 -1
    outer loop
      vertex -1 -1.5 0
      vertex -4 0 0
      vertex -1 1.5 0
    endloop
  endfacet
  facet normal 0 0 -1
    outer loop
      vertex -1 1.5 0
      vertex -3.99211 0.251162 0
      vertex -3.96846 0.501332 0
    endloop
  endfacet
  facet normal 0 0 -1
    outer loop
      vertex -1 1.5 0
      vertex -4 0 0
      vertex -3.99211 0.251162 0
    endloop
  endfacet
  facet normal -0.395783 -0.914585 0.0830058
    outer loop
      vertex -1.49023 -3.16689 6
      vertex -1.70312 -3.61931 0
      vertex -1.4725 -3.71911 0
    endloop
  endfacet
  facet normal 0.337578 -0.937631 0.0830055
    outer loop
      vertex 1.28843 -3.25422 6
      vertex 1.08156 -3.3287 6
      vertex 1.4725 -3.71911 0
    endloop
  endfacet
  facet normal 0.992126 -0.0937913 0.0830058
    outer loop
      vertex 3.99211 -0.251162 0
      vertex 3.49309 -0.219767 6
      vertex 3.96846 -0.501332 0
    endloop
  endfacet
  facet normal 0.972546 0.217404 0.0830046
    outer loop
      vertex 3.87433 0.994759 0
      vertex 3.39004 0.870414 6
      vertex 3.92915 0.749525 0
    endloop
  endfacet
  facet normal 0.956984 0.278013 0.0830051
    outer loop
      vertex 3.80423 1.23607 0
      vertex 3.3287 1.08156 6
      vertex 3.39004 0.870414 6
    endloop
  endfacet
  facet normal 0.937631 0.337578 0.0830055
    outer loop
      vertex 3.71911 1.4725 0
      vertex 3.25422 1.28843 6
      vertex 3.3287 1.08156 6
    endloop
  endfacet
  facet normal 0.278013 0.956984 0.0830051
    outer loop
      vertex 1.23607 3.80423 0
      vertex 0.870414 3.39004 6
      vertex 1.08156 3.3287 6
    endloop
  endfacet
  facet normal 0.337569 0.937634 0.0830051
    outer loop
      vertex 1.23607 3.80423 0
      vertex 1.08156 3.3287 6
      vertex 1.4725 3.71911 0
    endloop
  endfacet
  facet normal 0.560138 0.82423 0.0830049
    outer loop
      vertex 2.14331 3.37731 0
      vertex 1.87539 2.95515 6
      vertex 2.05725 2.83156 6
    endloop
  endfacet
  facet normal -0.956984 0.278013 0.0830051
    outer loop
      vertex -3.3287 1.08156 6
      vertex -3.80423 1.23607 0
      vertex -3.39004 0.870414 6
    endloop
  endfacet
  facet normal -0.704667 0.704667 0.083005
    outer loop
      vertex -2.91587 2.73819 0
      vertex -2.39591 2.55139 6
      vertex -2.73819 2.91587 0
    endloop
  endfacet
  facet normal -0.704667 0.704667 0.083005
    outer loop
      vertex -2.39591 2.55139 6
      vertex -2.91587 2.73819 0
      vertex -2.55139 2.39591 6
    endloop
  endfacet
  facet normal -0.747512 0.659042 0.083005
    outer loop
      vertex -2.55139 2.39591 6
      vertex -2.91587 2.73819 0
      vertex -2.6968 2.23098 6
    endloop
  endfacet
  facet normal -0.914582 0.39579 0.0830055
    outer loop
      vertex -3.16689 1.49023 6
      vertex -3.71911 1.4725 0
      vertex -3.25422 1.28843 6
    endloop
  endfacet
  facet normal -0.937634 0.337569 0.0830051
    outer loop
      vertex -3.71911 1.4725 0
      vertex -3.80423 1.23607 0
      vertex -3.3287 1.08156 6
    endloop
  endfacet
  facet normal 0 0 1
    outer loop
      vertex 3.49309 0.219767 6
      vertex 3.49309 -0.219767 6
      vertex 3.5 0 6
    endloop
  endfacet
  facet normal 0 0 1
    outer loop
      vertex 3.4724 0.438665 6
      vertex 3.49309 -0.219767 6
      vertex 3.49309 0.219767 6
    endloop
  endfacet
  facet normal 0 0 1
    outer loop
      vertex 3.4724 0.438665 6
      vertex 3.4724 -0.438665 6
      vertex 3.49309 -0.219767 6
    endloop
  endfacet
  facet normal 0 0 1
    outer loop
      vertex 3.438 0.655834 6
      vertex 3.4724 -0.438665 6
      vertex 3.4724 0.438665 6
    endloop
  endfacet
  facet normal 0 0 1
    outer loop
      vertex 3.438 0.655834 6
      vertex 3.438 -0.655834 6
      vertex 3.4724 -0.438665 6
    endloop
  endfacet
  facet normal 0 0 1
    outer loop
      vertex 3.39004 0.870414 6
      vertex 3.438 -0.655834 6
      vertex 3.438 0.655834 6
    endloop
  endfacet
  facet normal 0 0 1
    outer loop
      vertex 3.39004 0.870414 6
      vertex 3.39004 -0.870414 6
      vertex 3.438 -0.655834 6
    endloop
  endfacet
  facet normal 0 0 1
    outer loop
      vertex 3.3287 1.08156 6
      vertex 3.39004 -0.870414 6
      vertex 3.39004 0.870414 6
    endloop
  endfacet
  facet normal 0 0 1
    outer loop
      vertex 3.3287 1.08156 6
      vertex 3.3287 -1.08156 6
      vertex 3.39004 -0.870414 6
    endloop
  endfacet
  facet normal 0 0 1
    outer loop
      vertex 3.25422 1.28843 6
      vertex 3.3287 -1.08156 6
      vertex 3.3287 1.08156 6
    endloop
  endfacet
  facet normal 0 0 1
    outer loop
      vertex 3.25422 1.28843 6
      vertex 3.25422 -1.28843 6
      vertex 3.3287 -1.08156 6
    endloop
  endfacet
  facet normal 0 0 1
    outer loop
      vertex 3.16689 1.49023 6
      vertex 3.25422 -1.28843 6
      vertex 3.25422 1.28843 6
    endloop
  endfacet
  facet normal 0 0 1
    outer loop
      vertex 3.16689 1.49023 6
      vertex 3.16689 -1.49023 6
      vertex 3.25422 -1.28843 6
    endloop
  endfacet
  facet normal 0 0 1
    outer loop
      vertex 3.06707 1.68614 6
      vertex 3.16689 -1.49023 6
      vertex 3.16689 1.49023 6
    endloop
  endfacet
  facet normal 0 0 1
    outer loop
      vertex 3.06707 1.68614 6
      vertex 3.06707 -1.68614 6
      vertex 3.16689 -1.49023 6
    endloop
  endfacet
  facet normal 0 0 1
    outer loop
      vertex 2.95515 1.87539 6
      vertex 3.06707 -1.68614 6
      vertex 3.06707 1.68614 6
    endloop
  endfacet
  facet normal 0 0 1
    outer loop
      vertex 2.95515 1.87539 6
      vertex 2.95515 -1.87539 6
      vertex 3.06707 -1.68614 6
    endloop
  endfacet
  facet normal 0 0 1
    outer loop
      vertex 2.83156 2.05725 6
      vertex 2.95515 -1.87539 6
      vertex 2.95515 1.87539 6
    endloop
  endfacet
  facet normal 0 0 1
    outer loop
      vertex 2.83156 2.05725 6
      vertex 2.83156 -2.05725 6
      vertex 2.95515 -1.87539 6
    endloop
  endfacet
  facet normal 0 0 1
    outer loop
      vertex 2.6968 2.23098 6
      vertex 2.83156 -2.05725 6
      vertex 2.83156 2.05725 6
    endloop
  endfacet
  facet normal 0 0 1
    outer loop
      vertex 2.6968 2.23098 6
      vertex 2.6968 -2.23098 6
      vertex 2.83156 -2.05725 6
    endloop
  endfacet
  facet normal 0 0 1
    outer loop
      vertex 2.55139 2.39591 6
      vertex 2.6968 -2.23098 6
      vertex 2.6968 2.23098 6
    endloop
  endfacet
  facet normal 0 0 1
    outer loop
      vertex 2.55139 2.39591 6
      vertex 2.55139 -2.39591 6
      vertex 2.6968 -2.23098 6
    endloop
  endfacet
  facet normal 0 0 1
    outer loop
      vertex 2.39591 2.55139 6
      vertex 2.55139 -2.39591 6
      vertex 2.55139 2.39591 6
    endloop
  endfacet
  facet normal 0 0 1
    outer loop
      vertex 2.39591 2.55139 6
      vertex 2.39591 -2.55139 6
      vertex 2.55139 -2.39591 6
    endloop
  endfacet
  facet normal 0 0 1
    outer loop
      vertex 2.23098 2.6968 6
      vertex 2.39591 -2.55139 6
      vertex 2.39591 2.55139 6
    endloop
  endfacet
  facet normal 0 0 1
    outer loop
      vertex 2.23098 2.6968 6
      vertex 2.23098 -2.6968 6
      vertex 2.39591 -2.55139 6
    endloop
  endfacet
  facet normal 0 0 1
    outer loop
      vertex 2.05725 2.83156 6
      vertex 2.23098 -2.6968 6
      vertex 2.23098 2.6968 6
    endloop
  endfacet
  facet normal 0 0 1
    outer loop
      vertex 2.05725 2.83156 6
      vertex 2.05725 -2.83156 6
      vertex 2.23098 -2.6968 6
    endloop
  endfacet
  facet normal 0 0 1
    outer loop
      vertex 1.87539 2.95515 6
      vertex 2.05725 -2.83156 6
      vertex 2.05725 2.83156 6
    endloop
  endfacet
  facet normal 0 0 1
    outer loop
      vertex 1.87539 2.95515 6
      vertex 1.87539 -2.95515 6
      vertex 2.05725 -2.83156 6
    endloop
  endfacet
  facet normal 0 0 1
    outer loop
      vertex 1.68614 3.06707 6
      vertex 1.87539 -2.95515 6
      vertex 1.87539 2.95515 6
    endloop
  endfacet
  facet normal 0 0 1
    outer loop
      vertex 1.68614 3.06707 6
      vertex 1.68614 -3.06707 6
      vertex 1.87539 -2.95515 6
    endloop
  endfacet
  facet normal 0 0 1
    outer loop
      vertex 1.49023 3.16689 6
      vertex 1.68614 -3.06707 6
      vertex 1.68614 3.06707 6
    endloop
  endfacet
  facet normal 0 0 1
    outer loop
      vertex 1.49023 3.16689 6
      vertex 1.49023 -3.16689 6
      vertex 1.68614 -3.06707 6
    endloop
  endfacet
  facet normal 0 0 1
    outer loop
      vertex 1.28843 3.25422 6
      vertex 1.49023 -3.16689 6
      vertex 1.49023 3.16689 6
    endloop
  endfacet
  facet normal 0 0 1
    outer loop
      vertex 1.28843 3.25422 6
      vertex 1.28843 -3.25422 6
      vertex 1.49023 -3.16689 6
    endloop
  endfacet
  facet normal 0 0 1
    outer loop
      vertex 1.08156 3.3287 6
      vertex 1.28843 -3.25422 6
      vertex 1.28843 3.25422 6
    endloop
  endfacet
  facet normal 0 0 1
    outer loop
      vertex 1.08156 3.3287 6
      vertex 1.08156 -3.3287 6
      vertex 1.28843 -3.25422 6
    endloop
  endfacet
  facet normal 0 0 1
    outer loop
      vertex 0.870414 3.39004 6
      vertex 1.08156 -3.3287 6
      vertex 1.08156 3.3287 6
    endloop
  endfacet
  facet normal 0 0 1
    outer loop
      vertex 0.870414 3.39004 6
      vertex 0.870414 -3.39004 6
      vertex 1.08156 -3.3287 6
    endloop
  endfacet
  facet normal 0 0 1
    outer loop
      vertex 0.655834 3.438 6
      vertex 0.870414 -3.39004 6
      vertex 0.870414 3.39004 6
    endloop
  endfacet
  facet normal 0 0 1
    outer loop
      vertex 0.655834 3.438 6
      vertex 0.655834 -3.438 6
      vertex 0.870414 -3.39004 6
    endloop
  endfacet
  facet normal 0 0 1
    outer loop
      vertex 0.438665 3.4724 6
      vertex 0.655834 -3.438 6
      vertex 0.655834 3.438 6
    endloop
  endfacet
  facet normal 0 0 1
    outer loop
      vertex 0.438665 3.4724 6
      vertex 0.438665 -3.4724 6
      vertex 0.655834 -3.438 6
    endloop
  endfacet
  facet normal 0 0 1
    outer loop
      vertex 0.219767 3.49309 6
      vertex 0.438665 -3.4724 6
      vertex 0.438665 3.4724 6
    endloop
  endfacet
  facet normal 0 0 1
    outer loop
      vertex 0.219767 3.49309 6
      vertex 0.219767 -3.49309 6
      vertex 0.438665 -3.4724 6
    endloop
  endfacet
  facet normal 0 0 1
    outer loop
      vertex 0 3.5 6
      vertex 0.219767 -3.49309 6
      vertex 0.219767 3.49309 6
    endloop
  endfacet
  facet normal 0 0 1
    outer loop
      vertex 0 3.5 6
      vertex 0 -3.5 6
      vertex 0.219767 -3.49309 6
    endloop
  endfacet
  facet normal -0 0 1
    outer loop
      vertex -0.219767 3.49309 6
      vertex 0 -3.5 6
      vertex 0 3.5 6
    endloop
  endfacet
  facet normal 0 0 1
    outer loop
      vertex -0.219767 3.49309 6
      vertex -0.219767 -3.49309 6
      vertex 0 -3.5 6
    endloop
  endfacet
  facet normal -0 0 1
    outer loop
      vertex -0.438665 3.4724 6
      vertex -0.219767 -3.49309 6
      vertex -0.219767 3.49309 6
    endloop
  endfacet
  facet normal 0 0 1
    outer loop
      vertex -0.438665 3.4724 6
      vertex -0.438665 -3.4724 6
      vertex -0.219767 -3.49309 6
    endloop
  endfacet
  facet normal -0 0 1
    outer loop
      vertex -0.655834 3.438 6
      vertex -0.438665 -3.4724 6
      vertex -0.438665 3.4724 6
    endloop
  endfacet
  facet normal 0 0 1
    outer loop
      vertex -0.655834 3.438 6
      vertex -0.655834 -3.438 6
      vertex -0.438665 -3.4724 6
    endloop
  endfacet
  facet normal -0 0 1
    outer loop
      vertex -0.870414 3.39004 6
      vertex -0.655834 -3.438 6
      vertex -0.655834 3.438 6
    endloop
  endfacet
  facet normal 0 0 1
    outer loop
      vertex -0.870414 3.39004 6
      vertex -0.870414 -3.39004 6
      vertex -0.655834 -3.438 6
    endloop
  endfacet
  facet normal -0 0 1
    outer loop
      vertex -1.08156 3.3287 6
      vertex -0.870414 -3.39004 6
      vertex -0.870414 3.39004 6
    endloop
  endfacet
  facet normal 0 0 1
    outer loop
      vertex -1.08156 3.3287 6
      vertex -1.08156 -3.3287 6
      vertex -0.870414 -3.39004 6
    endloop
  endfacet
  facet normal -0 0 1
    outer loop
      vertex -1.28843 3.25422 6
      vertex -1.08156 -3.3287 6
      vertex -1.08156 3.3287 6
    endloop
  endfacet
  facet normal 0 0 1
    outer loop
      vertex -1.28843 3.25422 6
      vertex -1.28843 -3.25422 6
      vertex -1.08156 -3.3287 6
    endloop
  endfacet
  facet normal -0 0 1
    outer loop
      vertex -1.49023 3.16689 6
      vertex -1.28843 -3.25422 6
      vertex -1.28843 3.25422 6
    endloop
  endfacet
  facet normal 0 0 1
    outer loop
      vertex -1.49023 3.16689 6
      vertex -1.49023 -3.16689 6
      vertex -1.28843 -3.25422 6
    endloop
  endfacet
  facet normal -0 0 1
    outer loop
      vertex -1.68614 3.06707 6
      vertex -1.49023 -3.16689 6
      vertex -1.49023 3.16689 6
    endloop
  endfacet
  facet normal 0 0 1
    outer loop
      vertex -1.68614 3.06707 6
      vertex -1.68614 -3.06707 6
      vertex -1.49023 -3.16689 6
    endloop
  endfacet
  facet normal -0 0 1
    outer loop
      vertex -1.87539 2.95515 6
      vertex -1.68614 -3.06707 6
      vertex -1.68614 3.06707 6
    endloop
  endfacet
  facet normal 0 0 1
    outer loop
      vertex -1.87539 2.95515 6
      vertex -1.87539 -2.95515 6
      vertex -1.68614 -3.06707 6
    endloop
  endfacet
  facet normal -0 0 1
    outer loop
      vertex -2.05725 2.83156 6
      vertex -1.87539 -2.95515 6
      vertex -1.87539 2.95515 6
    endloop
  endfacet
  facet normal 0 0 1
    outer loop
      vertex -2.05725 2.83156 6
      vertex -2.05725 -2.83156 6
      vertex -1.87539 -2.95515 6
    endloop
  endfacet
  facet normal -0 0 1
    outer loop
      vertex -2.23098 2.6968 6
      vertex -2.05725 -2.83156 6
      vertex -2.05725 2.83156 6
    endloop
  endfacet
  facet normal 0 0 1
    outer loop
      vertex -2.23098 2.6968 6
      vertex -2.23098 -2.6968 6
      vertex -2.05725 -2.83156 6
    endloop
  endfacet
  facet normal -0 0 1
    outer loop
      vertex -2.39591 2.55139 6
      vertex -2.23098 -2.6968 6
      vertex -2.23098 2.6968 6
    endloop
  endfacet
  facet normal 0 0 1
    outer loop
      vertex -2.39591 2.55139 6
      vertex -2.39591 -2.55139 6
      vertex -2.23098 -2.6968 6
    endloop
  endfacet
  facet normal -0 0 1
    outer loop
      vertex -2.55139 2.39591 6
      vertex -2.39591 -2.55139 6
      vertex -2.39591 2.55139 6
    endloop
  endfacet
  facet normal 0 0 1
    outer loop
      vertex -2.55139 2.39591 6
      vertex -2.55139 -2.39591 6
      vertex -2.39591 -2.55139 6
    endloop
  endfacet
  facet normal -0 0 1
    outer loop
      vertex -2.6968 2.23098 6
      vertex -2.55139 -2.39591 6
      vertex -2.55139 2.39591 6
    endloop
  endfacet
  facet normal 0 0 1
    outer loop
      vertex -2.6968 2.23098 6
      vertex -2.6968 -2.23098 6
      vertex -2.55139 -2.39591 6
    endloop
  endfacet
  facet normal -0 0 1
    outer loop
      vertex -2.83156 2.05725 6
      vertex -2.6968 -2.23098 6
      vertex -2.6968 2.23098 6
    endloop
  endfacet
  facet normal 0 0 1
    outer loop
      vertex -2.83156 2.05725 6
      vertex -2.83156 -2.05725 6
      vertex -2.6968 -2.23098 6
    endloop
  endfacet
  facet normal -0 0 1
    outer loop
      vertex -2.95515 1.87539 6
      vertex -2.83156 -2.05725 6
      vertex -2.83156 2.05725 6
    endloop
  endfacet
  facet normal 0 0 1
    outer loop
      vertex -2.95515 1.87539 6
      vertex -2.95515 -1.87539 6
      vertex -2.83156 -2.05725 6
    endloop
  endfacet
  facet normal -0 0 1
    outer loop
      vertex -3.06707 1.68614 6
      vertex -2.95515 -1.87539 6
      vertex -2.95515 1.87539 6
    endloop
  endfacet
  facet normal 0 0 1
    outer loop
      vertex -3.06707 1.68614 6
      vertex -3.06707 -1.68614 6
      vertex -2.95515 -1.87539 6
    endloop
  endfacet
  facet normal -0 0 1
    outer loop
      vertex -3.16689 1.49023 6
      vertex -3.06707 -1.68614 6
      vertex -3.06707 1.68614 6
    endloop
  endfacet
  facet normal 0 0 1
    outer loop
      vertex -3.16689 1.49023 6
      vertex -3.16689 -1.49023 6
      vertex -3.06707 -1.68614 6
    endloop
  endfacet
  facet normal -0 0 1
    outer loop
      vertex -3.25422 1.28843 6
      vertex -3.16689 -1.49023 6
      vertex -3.16689 1.49023 6
    endloop
  endfacet
  facet normal 0 0 1
    outer loop
      vertex -3.25422 1.28843 6
      vertex -3.25422 -1.28843 6
      vertex -3.16689 -1.49023 6
    endloop
  endfacet
  facet normal -0 0 1
    outer loop
      vertex -3.3287 1.08156 6
      vertex -3.25422 -1.28843 6
      vertex -3.25422 1.28843 6
    endloop
  endfacet
  facet normal 0 0 1
    outer loop
      vertex -3.3287 1.08156 6
      vertex -3.3287 -1.08156 6
      vertex -3.25422 -1.28843 6
    endloop
  endfacet
  facet normal -0 0 1
    outer loop
      vertex -3.39004 0.870414 6
      vertex -3.3287 -1.08156 6
      vertex -3.3287 1.08156 6
    endloop
  endfacet
  facet normal 0 0 1
    outer loop
      vertex -3.39004 0.870414 6
      vertex -3.39004 -0.870414 6
      vertex -3.3287 -1.08156 6
    endloop
  endfacet
  facet normal -0 0 1
    outer loop
      vertex -3.438 0.655834 6
      vertex -3.39004 -0.870414 6
      vertex -3.39004 0.870414 6
    endloop
  endfacet
  facet normal 0 0 1
    outer loop
      vertex -3.438 0.655834 6
      vertex -3.438 -0.655834 6
      vertex -3.39004 -0.870414 6
    endloop
  endfacet
  facet normal -0 0 1
    outer loop
      vertex -3.4724 0.438665 6
      vertex -3.438 -0.655834 6
      vertex -3.438 0.655834 6
    endloop
  endfacet
  facet normal 0 0 1
    outer loop
      vertex -3.4724 0.438665 6
      vertex -3.4724 -0.438665 6
      vertex -3.438 -0.655834 6
    endloop
  endfacet
  facet normal -0 0 1
    outer loop
      vertex -3.49309 0.219767 6
      vertex -3.4724 -0.438665 6
      vertex -3.4724 0.438665 6
    endloop
  endfacet
  facet normal 0 0 1
    outer loop
      vertex -3.49309 0.219767 6
      vertex -3.49309 -0.219767 6
      vertex -3.4724 -0.438665 6
    endloop
  endfacet
  facet normal 0 -0 1
    outer loop
      vertex -3.49309 -0.219767 6
      vertex -3.49309 0.219767 6
      vertex -3.5 0 6
    endloop
  endfacet
  facet normal -0.452431 0.887928 0.0830057
    outer loop
      vertex -1.70312 3.61931 0
      vertex -1.92701 3.50523 0
      vertex -1.49023 3.16689 6
    endloop
  endfacet
  facet normal -0.155895 0.98428 0.0830052
    outer loop
      vertex -0.501332 3.96846 0
      vertex -0.749525 3.92915 0
      vertex -0.438665 3.4724 6
    endloop
  endfacet
  facet normal -0.992126 -0.0937913 0.0830058
    outer loop
      vertex -3.49309 -0.219767 6
      vertex -3.99211 -0.251162 0
      vertex -3.96846 -0.501332 0
    endloop
  endfacet
  facet normal -0.857776 -0.507278 0.0830048
    outer loop
      vertex -3.06707 -1.68614 6
      vertex -3.37731 -2.14331 0
      vertex -2.95515 -1.87539 6
    endloop
  endfacet
  facet normal -0.887934 -0.45242 0.0830052
    outer loop
      vertex -3.16689 -1.49023 6
      vertex -3.50523 -1.92701 0
      vertex -3.06707 -1.68614 6
    endloop
  endfacet
  facet normal -0.217404 -0.972546 0.0830046
    outer loop
      vertex -0.870414 -3.39004 6
      vertex -0.994759 -3.87433 0
      vertex -0.749525 -3.92915 0
    endloop
  endfacet
  facet normal -0.337569 -0.937634 0.0830051
    outer loop
      vertex -1.08156 -3.3287 6
      vertex -1.4725 -3.71911 0
      vertex -1.23607 -3.80423 0
    endloop
  endfacet
  facet normal -0.0937748 -0.992127 0.0830052
    outer loop
      vertex -0.438665 -3.4724 6
      vertex -0.501332 -3.96846 0
      vertex -0.219767 -3.49309 6
    endloop
  endfacet
  facet normal 0.0937913 -0.992126 0.0830058
    outer loop
      vertex 0.501332 -3.96846 0
      vertex 0.219767 -3.49309 6
      vertex 0.251162 -3.99211 0
    endloop
  endfacet
  facet normal 0.278002 -0.956988 0.0830046
    outer loop
      vertex 1.23607 -3.80423 0
      vertex 0.870414 -3.39004 6
      vertex 0.994759 -3.87433 0
    endloop
  endfacet
  facet normal 0.507278 -0.857776 0.0830048
    outer loop
      vertex 1.87539 -2.95515 6
      vertex 1.68614 -3.06707 6
      vertex 2.14331 -3.37731 0
    endloop
  endfacet
  facet normal 0.45242 -0.887934 0.0830052
    outer loop
      vertex 1.68614 -3.06707 6
      vertex 1.49023 -3.16689 6
      vertex 1.92701 -3.50523 0
    endloop
  endfacet
  facet normal 0.704667 -0.704667 0.083005
    outer loop
      vertex 2.39591 -2.55139 6
      vertex 2.91587 -2.73819 0
      vertex 2.55139 -2.39591 6
    endloop
  endfacet
  facet normal 0.704667 -0.704667 0.083005
    outer loop
      vertex 2.91587 -2.73819 0
      vertex 2.39591 -2.55139 6
      vertex 2.73819 -2.91587 0
    endloop
  endfacet
  facet normal 0.747512 -0.659042 0.083005
    outer loop
      vertex 2.6968 -2.23098 6
      vertex 2.55139 -2.39591 6
      vertex 2.91587 -2.73819 0
    endloop
  endfacet
  facet normal 0.937634 -0.337569 0.0830051
    outer loop
      vertex 3.80423 -1.23607 0
      vertex 3.3287 -1.08156 6
      vertex 3.71911 -1.4725 0
    endloop
  endfacet
  facet normal 0.984277 -0.155911 0.0830059
    outer loop
      vertex 3.4724 -0.438665 6
      vertex 3.438 -0.655834 6
      vertex 3.92915 -0.749525 0
    endloop
  endfacet
  facet normal 0.98428 0.155895 0.0830052
    outer loop
      vertex 3.92915 0.749525 0
      vertex 3.4724 0.438665 6
      vertex 3.96846 0.501332 0
    endloop
  endfacet
  facet normal 0.992126 0.0937913 0.0830058
    outer loop
      vertex 3.96846 0.501332 0
      vertex 3.49309 0.219767 6
      vertex 3.99211 0.251162 0
    endloop
  endfacet
  facet normal 0.972553 0.217372 0.0830059
    outer loop
      vertex 3.92915 0.749525 0
      vertex 3.39004 0.870414 6
      vertex 3.438 0.655834 6
    endloop
  endfacet
  facet normal 0.956988 0.278002 0.0830046
    outer loop
      vertex 3.80423 1.23607 0
      vertex 3.39004 0.870414 6
      vertex 3.87433 0.994759 0
    endloop
  endfacet
  facet normal 0.887928 0.452431 0.0830057
    outer loop
      vertex 3.50523 1.92701 0
      vertex 3.16689 1.49023 6
      vertex 3.61931 1.70312 0
    endloop
  endfacet
  facet normal 0.155911 0.984277 0.0830059
    outer loop
      vertex 0.749525 3.92915 0
      vertex 0.438665 3.4724 6
      vertex 0.655834 3.438 6
    endloop
  endfacet
  facet normal 0.0312901 0.996058 0.0830058
    outer loop
      vertex 0.251162 3.99211 0
      vertex 0 4 0
      vertex 0.219767 3.49309 6
    endloop
  endfacet
  facet normal 0.337578 0.937631 0.0830055
    outer loop
      vertex 1.4725 3.71911 0
      vertex 1.08156 3.3287 6
      vertex 1.28843 3.25422 6
    endloop
  endfacet
  facet normal 0.39579 0.914582 0.0830055
    outer loop
      vertex 1.4725 3.71911 0
      vertex 1.28843 3.25422 6
      vertex 1.49023 3.16689 6
    endloop
  endfacet
  facet normal 0.560141 0.824229 0.0830047
    outer loop
      vertex 2.14331 3.37731 0
      vertex 2.05725 2.83156 6
      vertex 2.35114 3.23607 0
    endloop
  endfacet
  facet normal 0.610795 0.787426 0.0830047
    outer loop
      vertex 2.35114 3.23607 0
      vertex 2.05725 2.83156 6
      vertex 2.23098 2.6968 6
    endloop
  endfacet
  facet normal 0.507286 0.857771 0.0830052
    outer loop
      vertex 1.92701 3.50523 0
      vertex 1.68614 3.06707 6
      vertex 2.14331 3.37731 0
    endloop
  endfacet
  facet normal 0.659042 0.747512 0.083005
    outer loop
      vertex 2.73819 2.91587 0
      vertex 2.23098 2.6968 6
      vertex 2.39591 2.55139 6
    endloop
  endfacet
  facet normal -0.984277 0.155911 0.0830059
    outer loop
      vertex -3.438 0.655834 6
      vertex -3.92915 0.749525 0
      vertex -3.4724 0.438665 6
    endloop
  endfacet
  facet normal -0.996058 0.0312901 0.0830058
    outer loop
      vertex -3.99211 0.251162 0
      vertex -4 0 0
      vertex -3.49309 0.219767 6
    endloop
  endfacet
  facet normal -0.787426 0.610795 0.0830047
    outer loop
      vertex -3.08205 2.5497 0
      vertex -3.23607 2.35114 0
      vertex -2.6968 2.23098 6
    endloop
  endfacet
  facet normal -0.747515 0.659038 0.0830048
    outer loop
      vertex -2.91587 2.73819 0
      vertex -3.08205 2.5497 0
      vertex -2.6968 2.23098 6
    endloop
  endfacet
  facet normal -0.937631 0.337578 0.0830055
    outer loop
      vertex -3.25422 1.28843 6
      vertex -3.71911 1.4725 0
      vertex -3.3287 1.08156 6
    endloop
  endfacet
  facet normal -0.560141 0.824229 0.0830047
    outer loop
      vertex -2.14331 3.37731 0
      vertex -2.35114 3.23607 0
      vertex -2.05725 2.83156 6
    endloop
  endfacet
  facet normal -0.560138 0.82423 0.0830049
    outer loop
      vertex -1.87539 2.95515 6
      vertex -2.14331 3.37731 0
      vertex -2.05725 2.83156 6
    endloop
  endfacet
  facet normal -0.45242 0.887934 0.0830052
    outer loop
      vertex -1.49023 3.16689 6
      vertex -1.92701 3.50523 0
      vertex -1.68614 3.06707 6
    endloop
  endfacet
  facet normal -0.217372 0.972553 0.0830059
    outer loop
      vertex -0.749525 3.92915 0
      vertex -0.870414 3.39004 6
      vertex -0.655834 3.438 6
    endloop
  endfacet
  facet normal -0.337569 0.937634 0.0830051
    outer loop
      vertex -1.23607 3.80423 0
      vertex -1.4725 3.71911 0
      vertex -1.08156 3.3287 6
    endloop
  endfacet
  facet normal -0.155911 0.984277 0.0830059
    outer loop
      vertex -0.438665 3.4724 6
      vertex -0.749525 3.92915 0
      vertex -0.655834 3.438 6
    endloop
  endfacet
  facet normal -0.0937913 0.992126 0.0830058
    outer loop
      vertex -0.251162 3.99211 0
      vertex -0.501332 3.96846 0
      vertex -0.219767 3.49309 6
    endloop
  endfacet
  facet normal -0.996057 -0.0313184 0.0830047
    outer loop
      vertex -3.5 0 6
      vertex -4 0 0
      vertex -3.49309 -0.219767 6
    endloop
  endfacet
  facet normal -0.972553 -0.217372 0.0830059
    outer loop
      vertex -3.438 -0.655834 6
      vertex -3.92915 -0.749525 0
      vertex -3.39004 -0.870414 6
    endloop
  endfacet
  facet normal -0.937634 -0.337569 0.0830051
    outer loop
      vertex -3.3287 -1.08156 6
      vertex -3.80423 -1.23607 0
      vertex -3.71911 -1.4725 0
    endloop
  endfacet
  facet normal -0.857771 -0.507286 0.0830052
    outer loop
      vertex -3.06707 -1.68614 6
      vertex -3.50523 -1.92701 0
      vertex -3.37731 -2.14331 0
    endloop
  endfacet
  facet normal -0.824229 -0.560141 0.0830047
    outer loop
      vertex -2.83156 -2.05725 6
      vertex -3.37731 -2.14331 0
      vertex -3.23607 -2.35114 0
    endloop
  endfacet
  facet normal -0.82423 -0.560138 0.0830049
    outer loop
      vertex -2.95515 -1.87539 6
      vertex -3.37731 -2.14331 0
      vertex -2.83156 -2.05725 6
    endloop
  endfacet
  facet normal -0.914582 -0.39579 0.0830055
    outer loop
      vertex -3.25422 -1.28843 6
      vertex -3.71911 -1.4725 0
      vertex -3.16689 -1.49023 6
    endloop
  endfacet
  facet normal -0.887928 -0.452431 0.0830057
    outer loop
      vertex -3.16689 -1.49023 6
      vertex -3.61931 -1.70312 0
      vertex -3.50523 -1.92701 0
    endloop
  endfacet
  facet normal -0.0312901 -0.996058 0.0830058
    outer loop
      vertex -0.219767 -3.49309 6
      vertex -0.251162 -3.99211 0
      vertex 0 -4 0
    endloop
  endfacet
  facet normal -0.337578 -0.937631 0.0830055
    outer loop
      vertex -1.28843 -3.25422 6
      vertex -1.4725 -3.71911 0
      vertex -1.08156 -3.3287 6
    endloop
  endfacet
  facet normal -0.39579 -0.914582 0.0830055
    outer loop
      vertex -1.28843 -3.25422 6
      vertex -1.49023 -3.16689 6
      vertex -1.4725 -3.71911 0
    endloop
  endfacet
  facet normal -0.659042 -0.747512 0.083005
    outer loop
      vertex -2.39591 -2.55139 6
      vertex -2.73819 -2.91587 0
      vertex -2.23098 -2.6968 6
    endloop
  endfacet
  facet normal -0.704667 -0.704667 0.083005
    outer loop
      vertex -2.91587 -2.73819 0
      vertex -2.39591 -2.55139 6
      vertex -2.55139 -2.39591 6
    endloop
  endfacet
  facet normal -0.704667 -0.704667 0.083005
    outer loop
      vertex -2.39591 -2.55139 6
      vertex -2.91587 -2.73819 0
      vertex -2.73819 -2.91587 0
    endloop
  endfacet
  facet normal -0.560141 -0.824229 0.0830047
    outer loop
      vertex -2.05725 -2.83156 6
      vertex -2.35114 -3.23607 0
      vertex -2.14331 -3.37731 0
    endloop
  endfacet
  facet normal 0.0313184 -0.996057 0.0830047
    outer loop
      vertex 0 -3.5 6
      vertex 0 -4 0
      vertex 0.219767 -3.49309 6
    endloop
  endfacet
  facet normal 0.278013 -0.956984 0.0830051
    outer loop
      vertex 1.08156 -3.3287 6
      vertex 0.870414 -3.39004 6
      vertex 1.23607 -3.80423 0
    endloop
  endfacet
  facet normal 0.337569 -0.937634 0.0830051
    outer loop
      vertex 1.4725 -3.71911 0
      vertex 1.08156 -3.3287 6
      vertex 1.23607 -3.80423 0
    endloop
  endfacet
  facet normal 0.507286 -0.857771 0.0830052
    outer loop
      vertex 2.14331 -3.37731 0
      vertex 1.68614 -3.06707 6
      vertex 1.92701 -3.50523 0
    endloop
  endfacet
  facet normal 0.560138 -0.82423 0.0830049
    outer loop
      vertex 2.05725 -2.83156 6
      vertex 1.87539 -2.95515 6
      vertex 2.14331 -3.37731 0
    endloop
  endfacet
  facet normal 0.39579 -0.914582 0.0830055
    outer loop
      vertex 1.49023 -3.16689 6
      vertex 1.28843 -3.25422 6
      vertex 1.4725 -3.71911 0
    endloop
  endfacet
  facet normal 0.452431 -0.887928 0.0830057
    outer loop
      vertex 1.92701 -3.50523 0
      vertex 1.49023 -3.16689 6
      vertex 1.70312 -3.61931 0
    endloop
  endfacet
  facet normal 0.787426 -0.610795 0.0830047
    outer loop
      vertex 3.23607 -2.35114 0
      vertex 2.6968 -2.23098 6
      vertex 3.08205 -2.5497 0
    endloop
  endfacet
  facet normal 0.747515 -0.659038 0.0830048
    outer loop
      vertex 3.08205 -2.5497 0
      vertex 2.6968 -2.23098 6
      vertex 2.91587 -2.73819 0
    endloop
  endfacet
  facet normal 0.937631 -0.337578 0.0830055
    outer loop
      vertex 3.3287 -1.08156 6
      vertex 3.25422 -1.28843 6
      vertex 3.71911 -1.4725 0
    endloop
  endfacet
  facet normal 0.984277 0.155911 0.0830059
    outer loop
      vertex 3.92915 0.749525 0
      vertex 3.438 0.655834 6
      vertex 3.4724 0.438665 6
    endloop
  endfacet
  facet normal 0.937634 0.337569 0.0830051
    outer loop
      vertex 3.71911 1.4725 0
      vertex 3.3287 1.08156 6
      vertex 3.80423 1.23607 0
    endloop
  endfacet
  facet normal 0.914582 0.39579 0.0830055
    outer loop
      vertex 3.71911 1.4725 0
      vertex 3.16689 1.49023 6
      vertex 3.25422 1.28843 6
    endloop
  endfacet
  facet normal 0.857771 0.507286 0.0830052
    outer loop
      vertex 3.37731 2.14331 0
      vertex 3.06707 1.68614 6
      vertex 3.50523 1.92701 0
    endloop
  endfacet
  facet normal 0.747515 0.659038 0.0830048
    outer loop
      vertex 2.91587 2.73819 0
      vertex 2.6968 2.23098 6
      vertex 3.08205 2.5497 0
    endloop
  endfacet
  facet normal 0.82423 0.560138 0.0830049
    outer loop
      vertex 3.37731 2.14331 0
      vertex 2.83156 2.05725 6
      vertex 2.95515 1.87539 6
    endloop
  endfacet
  facet normal 0.0937913 0.992126 0.0830058
    outer loop
      vertex 0.251162 3.99211 0
      vertex 0.219767 3.49309 6
      vertex 0.501332 3.96846 0
    endloop
  endfacet
  facet normal 0.217404 0.972546 0.0830046
    outer loop
      vertex 0.994759 3.87433 0
      vertex 0.749525 3.92915 0
      vertex 0.870414 3.39004 6
    endloop
  endfacet
  facet normal 0.278002 0.956988 0.0830046
    outer loop
      vertex 0.994759 3.87433 0
      vertex 0.870414 3.39004 6
      vertex 1.23607 3.80423 0
    endloop
  endfacet
  facet normal 0.507278 0.857776 0.0830048
    outer loop
      vertex 2.14331 3.37731 0
      vertex 1.68614 3.06707 6
      vertex 1.87539 2.95515 6
    endloop
  endfacet
  facet normal 0.452431 0.887928 0.0830057
    outer loop
      vertex 1.70312 3.61931 0
      vertex 1.49023 3.16689 6
      vertex 1.92701 3.50523 0
    endloop
  endfacet
  facet normal 0.610795 0.787426 0.0830047
    outer loop
      vertex 2.35114 3.23607 0
      vertex 2.23098 2.6968 6
      vertex 2.5497 3.08205 0
    endloop
  endfacet
  facet normal 0.659038 0.747515 0.0830048
    outer loop
      vertex 2.5497 3.08205 0
      vertex 2.23098 2.6968 6
      vertex 2.73819 2.91587 0
    endloop
  endfacet
  facet normal -0.992126 0.0937913 0.0830058
    outer loop
      vertex -3.96846 0.501332 0
      vertex -3.99211 0.251162 0
      vertex -3.49309 0.219767 6
    endloop
  endfacet
  facet normal -0.887928 0.452431 0.0830057
    outer loop
      vertex -3.50523 1.92701 0
      vertex -3.61931 1.70312 0
      vertex -3.16689 1.49023 6
    endloop
  endfacet
  facet normal -0.914585 0.395783 0.0830058
    outer loop
      vertex -3.61931 1.70312 0
      vertex -3.71911 1.4725 0
      vertex -3.16689 1.49023 6
    endloop
  endfacet
  facet normal -0.857776 0.507278 0.0830048
    outer loop
      vertex -2.95515 1.87539 6
      vertex -3.37731 2.14331 0
      vertex -3.06707 1.68614 6
    endloop
  endfacet
  facet normal -0.82423 0.560138 0.0830049
    outer loop
      vertex -2.83156 2.05725 6
      vertex -3.37731 2.14331 0
      vertex -2.95515 1.87539 6
    endloop
  endfacet
  facet normal -0.787426 0.610795 0.0830047
    outer loop
      vertex -2.6968 2.23098 6
      vertex -3.23607 2.35114 0
      vertex -2.83156 2.05725 6
    endloop
  endfacet
  facet normal -0.972546 0.217404 0.0830046
    outer loop
      vertex -3.87433 0.994759 0
      vertex -3.92915 0.749525 0
      vertex -3.39004 0.870414 6
    endloop
  endfacet
  facet normal -0.956988 0.278002 0.0830046
    outer loop
      vertex -3.80423 1.23607 0
      vertex -3.87433 0.994759 0
      vertex -3.39004 0.870414 6
    endloop
  endfacet
  facet normal -0.610795 0.787426 0.0830047
    outer loop
      vertex -2.35114 3.23607 0
      vertex -2.5497 3.08205 0
      vertex -2.23098 2.6968 6
    endloop
  endfacet
  facet normal -0.659038 0.747515 0.0830048
    outer loop
      vertex -2.5497 3.08205 0
      vertex -2.73819 2.91587 0
      vertex -2.23098 2.6968 6
    endloop
  endfacet
  facet normal -0.507286 0.857771 0.0830052
    outer loop
      vertex -1.92701 3.50523 0
      vertex -2.14331 3.37731 0
      vertex -1.68614 3.06707 6
    endloop
  endfacet
  facet normal -0.507278 0.857776 0.0830048
    outer loop
      vertex -1.68614 3.06707 6
      vertex -2.14331 3.37731 0
      vertex -1.87539 2.95515 6
    endloop
  endfacet
  facet normal -0.217404 0.972546 0.0830046
    outer loop
      vertex -0.749525 3.92915 0
      vertex -0.994759 3.87433 0
      vertex -0.870414 3.39004 6
    endloop
  endfacet
  facet normal -0.0313184 0.996057 0.0830047
    outer loop
      vertex 0 4 0
      vertex -0.219767 3.49309 6
      vertex 0 3.5 6
    endloop
  endfacet
  facet normal -0.992127 -0.0937748 0.0830052
    outer loop
      vertex -3.49309 -0.219767 6
      vertex -3.96846 -0.501332 0
      vertex -3.4724 -0.438665 6
    endloop
  endfacet
  facet normal -0.98428 -0.155895 0.0830052
    outer loop
      vertex -3.4724 -0.438665 6
      vertex -3.96846 -0.501332 0
      vertex -3.92915 -0.749525 0
    endloop
  endfacet
  facet normal -0.972546 -0.217404 0.0830046
    outer loop
      vertex -3.39004 -0.870414 6
      vertex -3.92915 -0.749525 0
      vertex -3.87433 -0.994759 0
    endloop
  endfacet
  facet normal -0.787426 -0.610795 0.0830047
    outer loop
      vertex -2.6968 -2.23098 6
      vertex -3.23607 -2.35114 0
      vertex -3.08205 -2.5497 0
    endloop
  endfacet
  facet normal -0.747515 -0.659038 0.0830048
    outer loop
      vertex -2.6968 -2.23098 6
      vertex -3.08205 -2.5497 0
      vertex -2.91587 -2.73819 0
    endloop
  endfacet
  facet normal -0.914585 -0.395783 0.0830058
    outer loop
      vertex -3.16689 -1.49023 6
      vertex -3.71911 -1.4725 0
      vertex -3.61931 -1.70312 0
    endloop
  endfacet
  facet normal -0.0937913 -0.992126 0.0830058
    outer loop
      vertex -0.219767 -3.49309 6
      vertex -0.501332 -3.96846 0
      vertex -0.251162 -3.99211 0
    endloop
  endfacet
  facet normal -0.217372 -0.972553 0.0830059
    outer loop
      vertex -0.655834 -3.438 6
      vertex -0.870414 -3.39004 6
      vertex -0.749525 -3.92915 0
    endloop
  endfacet
  facet normal -0.452431 -0.887928 0.0830057
    outer loop
      vertex -1.49023 -3.16689 6
      vertex -1.92701 -3.50523 0
      vertex -1.70312 -3.61931 0
    endloop
  endfacet
  facet normal -0.610795 -0.787426 0.0830047
    outer loop
      vertex -2.23098 -2.6968 6
      vertex -2.5497 -3.08205 0
      vertex -2.35114 -3.23607 0
    endloop
  endfacet
  facet normal -0.659038 -0.747515 0.0830048
    outer loop
      vertex -2.23098 -2.6968 6
      vertex -2.73819 -2.91587 0
      vertex -2.5497 -3.08205 0
    endloop
  endfacet
  facet normal -0.610795 -0.787426 0.0830047
    outer loop
      vertex -2.23098 -2.6968 6
      vertex -2.35114 -3.23607 0
      vertex -2.05725 -2.83156 6
    endloop
  endfacet
  facet normal -0.507278 -0.857776 0.0830048
    outer loop
      vertex -1.87539 -2.95515 6
      vertex -2.14331 -3.37731 0
      vertex -1.68614 -3.06707 6
    endloop
  endfacet
  facet normal -0.560138 -0.82423 0.0830049
    outer loop
      vertex -2.05725 -2.83156 6
      vertex -2.14331 -3.37731 0
      vertex -1.87539 -2.95515 6
    endloop
  endfacet
  facet normal 0.155895 -0.98428 0.0830052
    outer loop
      vertex 0.749525 -3.92915 0
      vertex 0.438665 -3.4724 6
      vertex 0.501332 -3.96846 0
    endloop
  endfacet
  facet normal 0.155911 -0.984277 0.0830059
    outer loop
      vertex 0.655834 -3.438 6
      vertex 0.438665 -3.4724 6
      vertex 0.749525 -3.92915 0
    endloop
  endfacet
  facet normal 0.610795 -0.787426 0.0830047
    outer loop
      vertex 2.5497 -3.08205 0
      vertex 2.23098 -2.6968 6
      vertex 2.35114 -3.23607 0
    endloop
  endfacet
  facet normal 0.659038 -0.747515 0.0830048
    outer loop
      vertex 2.73819 -2.91587 0
      vertex 2.23098 -2.6968 6
      vertex 2.5497 -3.08205 0
    endloop
  endfacet
  facet normal 0.395783 -0.914585 0.0830058
    outer loop
      vertex 1.49023 -3.16689 6
      vertex 1.4725 -3.71911 0
      vertex 1.70312 -3.61931 0
    endloop
  endfacet
  facet normal 0.914585 -0.395783 0.0830058
    outer loop
      vertex 3.71911 -1.4725 0
      vertex 3.16689 -1.49023 6
      vertex 3.61931 -1.70312 0
    endloop
  endfacet
  facet normal 0.914582 -0.39579 0.0830055
    outer loop
      vertex 3.25422 -1.28843 6
      vertex 3.16689 -1.49023 6
      vertex 3.71911 -1.4725 0
    endloop
  endfacet
  facet normal 0.82423 -0.560138 0.0830049
    outer loop
      vertex 2.95515 -1.87539 6
      vertex 2.83156 -2.05725 6
      vertex 3.37731 -2.14331 0
    endloop
  endfacet
  facet normal 0.824229 -0.560141 0.0830047
    outer loop
      vertex 3.37731 -2.14331 0
      vertex 2.83156 -2.05725 6
      vertex 3.23607 -2.35114 0
    endloop
  endfacet
  facet normal 0.787426 -0.610795 0.0830047
    outer loop
      vertex 2.83156 -2.05725 6
      vertex 2.6968 -2.23098 6
      vertex 3.23607 -2.35114 0
    endloop
  endfacet
  facet normal 0.972553 -0.217372 0.0830059
    outer loop
      vertex 3.438 -0.655834 6
      vertex 3.39004 -0.870414 6
      vertex 3.92915 -0.749525 0
    endloop
  endfacet
  facet normal 0.996058 -0.0312901 0.0830058
    outer loop
      vertex 4 0 0
      vertex 3.49309 -0.219767 6
      vertex 3.99211 -0.251162 0
    endloop
  endfacet
  facet normal 0.996057 -0.0313184 0.0830047
    outer loop
      vertex 3.5 0 6
      vertex 3.49309 -0.219767 6
      vertex 4 0 0
    endloop
  endfacet
  facet normal 0.747512 0.659042 0.083005
    outer loop
      vertex 2.91587 2.73819 0
      vertex 2.55139 2.39591 6
      vertex 2.6968 2.23098 6
    endloop
  endfacet
  facet normal 0.787426 0.610795 0.0830047
    outer loop
      vertex 3.23607 2.35114 0
      vertex 2.6968 2.23098 6
      vertex 2.83156 2.05725 6
    endloop
  endfacet
  facet normal 0.787426 0.610795 0.0830047
    outer loop
      vertex 3.08205 2.5497 0
      vertex 2.6968 2.23098 6
      vertex 3.23607 2.35114 0
    endloop
  endfacet
  facet normal 0.887934 0.45242 0.0830052
    outer loop
      vertex 3.50523 1.92701 0
      vertex 3.06707 1.68614 6
      vertex 3.16689 1.49023 6
    endloop
  endfacet
  facet normal 0.857776 0.507278 0.0830048
    outer loop
      vertex 3.37731 2.14331 0
      vertex 2.95515 1.87539 6
      vertex 3.06707 1.68614 6
    endloop
  endfacet
  facet normal 0.824229 0.560141 0.0830047
    outer loop
      vertex 3.23607 2.35114 0
      vertex 2.83156 2.05725 6
      vertex 3.37731 2.14331 0
    endloop
  endfacet
  facet normal 0.155895 0.98428 0.0830052
    outer loop
      vertex 0.501332 3.96846 0
      vertex 0.438665 3.4724 6
      vertex 0.749525 3.92915 0
    endloop
  endfacet
  facet normal 0.0937748 0.992127 0.0830052
    outer loop
      vertex 0.501332 3.96846 0
      vertex 0.219767 3.49309 6
      vertex 0.438665 3.4724 6
    endloop
  endfacet
  facet normal 0.217372 0.972553 0.0830059
    outer loop
      vertex 0.749525 3.92915 0
      vertex 0.655834 3.438 6
      vertex 0.870414 3.39004 6
    endloop
  endfacet
  facet normal 0.45242 0.887934 0.0830052
    outer loop
      vertex 1.92701 3.50523 0
      vertex 1.49023 3.16689 6
      vertex 1.68614 3.06707 6
    endloop
  endfacet
  facet normal -0.98428 0.155895 0.0830052
    outer loop
      vertex -3.92915 0.749525 0
      vertex -3.96846 0.501332 0
      vertex -3.4724 0.438665 6
    endloop
  endfacet
  facet normal -0.992127 0.0937748 0.0830052
    outer loop
      vertex -3.4724 0.438665 6
      vertex -3.96846 0.501332 0
      vertex -3.49309 0.219767 6
    endloop
  endfacet
  facet normal -0.824229 0.560141 0.0830047
    outer loop
      vertex -3.23607 2.35114 0
      vertex -3.37731 2.14331 0
      vertex -2.83156 2.05725 6
    endloop
  endfacet
  facet normal -0.972553 0.217372 0.0830059
    outer loop
      vertex -3.39004 0.870414 6
      vertex -3.92915 0.749525 0
      vertex -3.438 0.655834 6
    endloop
  endfacet
  facet normal -0.610795 0.787426 0.0830047
    outer loop
      vertex -2.05725 2.83156 6
      vertex -2.35114 3.23607 0
      vertex -2.23098 2.6968 6
    endloop
  endfacet
  facet normal -0.39579 0.914582 0.0830055
    outer loop
      vertex -1.4725 3.71911 0
      vertex -1.49023 3.16689 6
      vertex -1.28843 3.25422 6
    endloop
  endfacet
  facet normal -0.395783 0.914585 0.0830058
    outer loop
      vertex -1.4725 3.71911 0
      vertex -1.70312 3.61931 0
      vertex -1.49023 3.16689 6
    endloop
  endfacet
  facet normal -0.278002 0.956988 0.0830046
    outer loop
      vertex -0.994759 3.87433 0
      vertex -1.23607 3.80423 0
      vertex -0.870414 3.39004 6
    endloop
  endfacet
  facet normal -0.278013 0.956984 0.0830051
    outer loop
      vertex -0.870414 3.39004 6
      vertex -1.23607 3.80423 0
      vertex -1.08156 3.3287 6
    endloop
  endfacet
  facet normal -0.0937748 0.992127 0.0830052
    outer loop
      vertex -0.219767 3.49309 6
      vertex -0.501332 3.96846 0
      vertex -0.438665 3.4724 6
    endloop
  endfacet
  facet normal -0.984277 -0.155911 0.0830059
    outer loop
      vertex -3.4724 -0.438665 6
      vertex -3.92915 -0.749525 0
      vertex -3.438 -0.655834 6
    endloop
  endfacet
  facet normal -0.956988 -0.278002 0.0830046
    outer loop
      vertex -3.39004 -0.870414 6
      vertex -3.87433 -0.994759 0
      vertex -3.80423 -1.23607 0
    endloop
  endfacet
  facet normal -0.956984 -0.278013 0.0830051
    outer loop
      vertex -3.39004 -0.870414 6
      vertex -3.80423 -1.23607 0
      vertex -3.3287 -1.08156 6
    endloop
  endfacet
  facet normal -0.787426 -0.610795 0.0830047
    outer loop
      vertex -2.83156 -2.05725 6
      vertex -3.23607 -2.35114 0
      vertex -2.6968 -2.23098 6
    endloop
  endfacet
  facet normal -0.155911 -0.984277 0.0830059
    outer loop
      vertex -0.655834 -3.438 6
      vertex -0.749525 -3.92915 0
      vertex -0.438665 -3.4724 6
    endloop
  endfacet
  facet normal -0.155895 -0.98428 0.0830052
    outer loop
      vertex -0.438665 -3.4724 6
      vertex -0.749525 -3.92915 0
      vertex -0.501332 -3.96846 0
    endloop
  endfacet
  facet normal -0.278013 -0.956984 0.0830051
    outer loop
      vertex -1.08156 -3.3287 6
      vertex -1.23607 -3.80423 0
      vertex -0.870414 -3.39004 6
    endloop
  endfacet
  facet normal -0.278002 -0.956988 0.0830046
    outer loop
      vertex -0.870414 -3.39004 6
      vertex -1.23607 -3.80423 0
      vertex -0.994759 -3.87433 0
    endloop
  endfacet
  facet normal -0.507286 -0.857771 0.0830052
    outer loop
      vertex -1.68614 -3.06707 6
      vertex -2.14331 -3.37731 0
      vertex -1.92701 -3.50523 0
    endloop
  endfacet
  facet normal -0.45242 -0.887934 0.0830052
    outer loop
      vertex -1.68614 -3.06707 6
      vertex -1.92701 -3.50523 0
      vertex -1.49023 -3.16689 6
    endloop
  endfacet
  facet normal 0.0937748 -0.992127 0.0830052
    outer loop
      vertex 0.438665 -3.4724 6
      vertex 0.219767 -3.49309 6
      vertex 0.501332 -3.96846 0
    endloop
  endfacet
  facet normal 0.217372 -0.972553 0.0830059
    outer loop
      vertex 0.870414 -3.39004 6
      vertex 0.655834 -3.438 6
      vertex 0.749525 -3.92915 0
    endloop
  endfacet
  facet normal 0.217404 -0.972546 0.0830046
    outer loop
      vertex 0.870414 -3.39004 6
      vertex 0.749525 -3.92915 0
      vertex 0.994759 -3.87433 0
    endloop
  endfacet
  facet normal 0.560141 -0.824229 0.0830047
    outer loop
      vertex 2.35114 -3.23607 0
      vertex 2.05725 -2.83156 6
      vertex 2.14331 -3.37731 0
    endloop
  endfacet
  facet normal 0.610795 -0.787426 0.0830047
    outer loop
      vertex 2.23098 -2.6968 6
      vertex 2.05725 -2.83156 6
      vertex 2.35114 -3.23607 0
    endloop
  endfacet
  facet normal 0.857776 -0.507278 0.0830048
    outer loop
      vertex 3.06707 -1.68614 6
      vertex 2.95515 -1.87539 6
      vertex 3.37731 -2.14331 0
    endloop
  endfacet
  facet normal 0.887928 -0.452431 0.0830057
    outer loop
      vertex 3.61931 -1.70312 0
      vertex 3.16689 -1.49023 6
      vertex 3.50523 -1.92701 0
    endloop
  endfacet
  facet normal 0.857771 -0.507286 0.0830052
    outer loop
      vertex 3.50523 -1.92701 0
      vertex 3.06707 -1.68614 6
      vertex 3.37731 -2.14331 0
    endloop
  endfacet
  facet normal 0.956984 -0.278013 0.0830051
    outer loop
      vertex 3.39004 -0.870414 6
      vertex 3.3287 -1.08156 6
      vertex 3.80423 -1.23607 0
    endloop
  endfacet
  facet normal 0.956988 -0.278002 0.0830046
    outer loop
      vertex 3.87433 -0.994759 0
      vertex 3.39004 -0.870414 6
      vertex 3.80423 -1.23607 0
    endloop
  endfacet
  facet normal 0.98428 -0.155895 0.0830052
    outer loop
      vertex 3.96846 -0.501332 0
      vertex 3.4724 -0.438665 6
      vertex 3.92915 -0.749525 0
    endloop
  endfacet
  facet normal 0.992127 -0.0937748 0.0830052
    outer loop
      vertex 3.49309 -0.219767 6
      vertex 3.4724 -0.438665 6
      vertex 3.96846 -0.501332 0
    endloop
  endfacet
  facet normal -0.857771 0.507286 0.0830052
    outer loop
      vertex -3.37731 2.14331 0
      vertex -3.50523 1.92701 0
      vertex -3.06707 1.68614 6
    endloop
  endfacet
  facet normal -0.887934 0.45242 0.0830052
    outer loop
      vertex -3.06707 1.68614 6
      vertex -3.50523 1.92701 0
      vertex -3.16689 1.49023 6
    endloop
  endfacet
  facet normal 0.887934 -0.45242 0.0830052
    outer loop
      vertex 3.16689 -1.49023 6
      vertex 3.06707 -1.68614 6
      vertex 3.50523 -1.92701 0
    endloop
  endfacet
  facet normal 1 -0 0
    outer loop
      vertex -1 -1.5 3.1
      vertex -1 1.5 0
      vertex -1 1.5 3.1
    endloop
  endfacet
  facet normal 1 0 0
    outer loop
      vertex -1 1.5 0
      vertex -1 -1.5 3.1
      vertex -1 -1.5 0
    endloop
  endfacet
  facet normal 0 0 -1
    outer loop
      vertex -1 -1.5 3.1
      vertex 1 1.5 3.1
      vertex 1 -1.5 3.1
    endloop
  endfacet
  facet normal -0 0 -1
    outer loop
      vertex 1 1.5 3.1
      vertex -1 -1.5 3.1
      vertex -1 1.5 3.1
    endloop
  endfacet
  facet normal -1 0 0
    outer loop
      vertex 1 -1.5 0
      vertex 1 1.5 3.1
      vertex 1 1.5 0
    endloop
  endfacet
  facet normal -1 -0 0
    outer loop
      vertex 1 1.5 3.1
      vertex 1 -1.5 0
      vertex 1 -1.5 3.1
    endloop
  endfacet
  facet normal 0 1 -0
    outer loop
      vertex 1 -1.5 0
      vertex -1 -1.5 3.1
      vertex 1 -1.5 3.1
    endloop
  endfacet
  facet normal 0 1 0
    outer loop
      vertex -1 -1.5 3.1
      vertex 1 -1.5 0
      vertex -1 -1.5 0
    endloop
  endfacet
  facet normal 0 -1 0
    outer loop
      vertex -1 1.5 0
      vertex 1 1.5 3.1
      vertex -1 1.5 3.1
    endloop
  endfacet
  facet normal 0 -1 -0
    outer loop
      vertex 1 1.5 3.1
      vertex -1 1.5 0
      vertex 1 1.5 0
    endloop
  endfacet
endsolid OpenSCAD_Model
