999
dxfrw 0.6.3
  0
SECTION
  2
HEADER
  9
$ACADVER
  1
AC1021
  9
$DWGCODEPAGE
  3
ANSI_1252
  9
$INSBASE
 10
0
 20
0
 30
0
  9
$EXTMIN
 10
-98
 20
-367.4000073429538
 30
0
  9
$EXTMAX
 10
2.97539770599542e-14
 20
0
 30
0
  9
$LIMMIN
 10
-25
 20
-25
  9
$LIMMAX
 10
275
 20
275
  9
$ORTHOMODE
 70
    0
  9
$REGENMODE
 70
    1
  9
$FILLMODE
 70
    1
  9
$QTEXTMODE
 70
    0
  9
$MIRRTEXT
 70
    0
  9
$LTSCALE
 40
1
  9
$ATTMODE
 70
    0
  9
$TEXTSIZE
 40
2.5
  9
$TRACEWID
 40
15.68
  9
$TEXTSTYLE
  7
STANDARD
  9
$CLAYER
  8
0
  9
$CELTYPE
  6
BYLAYER
  9
$CECOLOR
 62
  256
  9
$CELTSCALE
 40
1
  9
$DISPSILH
 70
    0
  9
$DIMSCALE
 40
1
  9
$DIMASZ
 40
2.5
  9
$DIMEXO
 40
0.625
  9
$DIMDLI
 40
3.75
  9
$DIMRND
 40
0
  9
$DIMDLE
 40
0
  9
$DIMEXE
 40
1.25
  9
$DIMTP
 40
0
  9
$DIMTM
 40
0
  9
$DIMTXT
 40
2.5
  9
$DIMCEN
 40
2.5
  9
$DIMTSZ
 40
0
  9
$DIMTOL
 70
    0
  9
$DIMLIM
 70
    0
  9
$DIMTIH
 70
    0
  9
$DIMTOH
 70
    0
  9
$DIMSE1
 70
    0
  9
$DIMSE2
 70
    0
  9
$DIMTAD
 70
    1
  9
$DIMZIN
 70
    8
  9
$DIMBLK
  1

  9
$DIMASO
 70
    1
  9
$DIMSHO
 70
    1
  9
$DIMPOST
  1

  9
$DIMAPOST
  1

  9
$DIMALT
 70
    0
  9
$DIMALTD
 70
    3
  9
$DIMALTF
 40
0.03937
  9
$DIMLFAC
 40
1
  9
$DIMTOFL
 70
    1
  9
$DIMTVP
 40
0
  9
$DIMTIX
 70
    0
  9
$DIMSOXD
 70
    0
  9
$DIMSAH
 70
    0
  9
$DIMBLK1
  1

  9
$DIMBLK2
  1

  9
$DIMSTYLE
  2
Standard
  9
$DIMCLRD
 70
    0
  9
$DIMCLRE
 70
    0
  9
$DIMCLRT
 70
    0
  9
$DIMTFAC
 40
1
  9
$DIMGAP
 40
0.625
  9
$DIMJUST
 70
    0
  9
$DIMSD1
 70
    0
  9
$DIMSD2
 70
    0
  9
$DIMTOLJ
 70
    0
  9
$DIMTZIN
 70
    8
  9
$DIMALTZ
 70
    0
  9
$DIMALTTZ
 70
    0
  9
$DIMUPT
 70
    0
  9
$DIMDEC
 70
    2
  9
$DIMTDEC
 70
    2
  9
$DIMALTU
 70
    2
  9
$DIMALTTD
 70
    3
  9
$DIMTXSTY
  7
STANDARD
  9
$DIMAUNIT
 70
    0
  9
$DIMADEC
 70
    0
  9
$DIMALTRND
 40
0
  9
$DIMAZIN
 70
    0
  9
$DIMDSEP
 70
   44
  9
$DIMATFIT
 70
    3
  9
$DIMFRAC
 70
    0
  9
$DIMLDRBLK
  1
STANDARD
  9
$DIMLUNIT
 70
    2
  9
$DIMLWD
 70
   -2
  9
$DIMLWE
 70
   -2
  9
$DIMTMOVE
 70
    0
  9
$DIMFXL
 40
1
  9
$DIMFXLON
 70
    0
  9
$DIMJOGANG
 40
0.7854
  9
$DIMTFILL
 70
    0
  9
$DIMTFILLCLR
 70
    0
  9
$DIMARCSYM
 70
    0
  9
$DIMLTYPE
  6

  9
$DIMLTEX1
  6

  9
$DIMLTEX2
  6

  9
$LUNITS
 70
    2
  9
$LUPREC
 70
    4
  9
$SKETCHINC
 40
1
  9
$FILLETRAD
 40
0
  9
$AUNITS
 70
    0
  9
$AUPREC
 70
    2
  9
$MENU
  1
.
  9
$ELEVATION
 40
0
  9
$PELEVATION
 40
0
  9
$THICKNESS
 40
1.326
  9
$LIMCHECK
 70
    0
  9
$CHAMFERA
 40
0
  9
$CHAMFERB
 40
0
  9
$CHAMFERC
 40
0
  9
$CHAMFERD
 40
0
  9
$SKPOLY
 70
    0
  9
$USRTIMER
 70
    1
  9
$ANGBASE
 50
0
  9
$ANGDIR
 70
    0
  9
$PDMODE
 70
   34
  9
$PDSIZE
 40
0
  9
$PLINEWID
 40
0
  9
$SPLFRAME
 70
    0
  9
$SPLINETYPE
 70
    2
  9
$SPLINESEGS
 70
    8
  9
$HANDSEED
  5
20000
  9
$SURFTAB1
 70
    6
  9
$SURFTAB2
 70
    6
  9
$SURFTYPE
 70
    6
  9
$SURFU
 70
    6
  9
$SURFV
 70
    6
  9
$UCSBASE
  2

  9
$UCSNAME
  2

  9
$UCSORG
 10
0
 20
0
 30
0
  9
$UCSXDIR
 10
1
 20
0
 30
0
  9
$UCSYDIR
 10
0
 20
1
 30
0
  9
$UCSORTHOREF
  2

  9
$UCSORTHOVIEW
 70
    0
  9
$UCSORGTOP
 10
0
 20
0
 30
0
  9
$UCSORGBOTTOM
 10
0
 20
0
 30
0
  9
$UCSORGLEFT
 10
0
 20
0
 30
0
  9
$UCSORGRIGHT
 10
0
 20
0
 30
0
  9
$UCSORGFRONT
 10
0
 20
0
 30
0
  9
$UCSORGBACK
 10
0
 20
0
 30
0
  9
$PUCSBASE
  2

  9
$PUCSNAME
  2

  9
$PUCSORG
 10
0
 20
0
 30
0
  9
$PUCSXDIR
 10
1
 20
0
 30
0
  9
$PUCSYDIR
 10
0
 20
1
 30
0
  9
$PUCSORTHOREF
  2

  9
$PUCSORTHOVIEW
 70
    0
  9
$PUCSORGTOP
 10
0
 20
0
 30
0
  9
$PUCSORGBOTTOM
 10
0
 20
0
 30
0
  9
$PUCSORGLEFT
 10
0
 20
0
 30
0
  9
$PUCSORGRIGHT
 10
0
 20
0
 30
0
  9
$PUCSORGFRONT
 10
0
 20
0
 30
0
  9
$PUCSORGBACK
 10
0
 20
0
 30
0
  9
$USERI1
 70
    0
  9
$USERI2
 70
    0
  9
$USERI3
 70
    0
  9
$USERI4
 70
    0
  9
$USERI5
 70
    0
  9
$USERR1
 40
0
  9
$USERR2
 40
0
  9
$USERR3
 40
0
  9
$USERR4
 40
0
  9
$USERR5
 40
0
  9
$WORLDVIEW
 70
    1
  9
$SHADEDGE
 70
    3
  9
$SHADEDIF
 70
   70
  9
$TILEMODE
 70
    1
  9
$MAXACTVP
 70
   64
  9
$PINSBASE
 10
0
 20
0
 30
0
  9
$PLIMCHECK
 70
    0
  9
$PEXTMIN
 10
0
 20
0
 30
0
  9
$PEXTMAX
 10
0
 20
0
 30
0
  9
$GRIDMODE
 70
    1
  9
$SNAPSTYLE
 70
    0
  9
$PLIMMIN
 10
0
 20
0
  9
$PLIMMAX
 10
297
 20
210
  9
$UNITMODE
 70
    0
  9
$VISRETAIN
 70
    1
  9
$PLINEGEN
 70
    0
  9
$PSLTSCALE
 70
    1
  9
$TREEDEPTH
 70
 3020
  9
$CMLSTYLE
  2
Standard
  9
$CMLJUST
 70
    0
  9
$CMLSCALE
 40
20
  9
$PROXYGRAPHICS
 70
    1
  9
$MEASUREMENT
 70
    1
  9
$CELWEIGHT
370
   -1
  9
$ENDCAPS
280
    0
  9
$JOINSTYLE
280
    0
  9
$LWDISPLAY
290
    0
  9
$INSUNITS
 70
    4
  9
$HYPERLINKBASE
  1

  9
$STYLESHEET
  1

  9
$XEDIT
290
    1
  9
$CEPSNTYPE
380
    0
  9
$PSTYLEMODE
290
    1
  9
$EXTNAMES
290
    1
  9
$PSVPSCALE
 40
1
  9
$OLESTARTUP
290
    0
  9
$SORTENTS
280
  127
  9
$INDEXCTL
280
    0
  9
$HIDETEXT
280
    1
  9
$XCLIPFRAME
290
    0
  9
$HALOGAP
280
    0
  9
$OBSCOLOR
 70
  257
  9
$OBSLTYPE
280
    0
  9
$INTERSECTIONDISPLAY
280
    0
  9
$INTERSECTIONCOLOR
 70
  257
  9
$DIMASSOC
280
    1
  9
$PROJECTNAME
  1

  9
$CAMERADISPLAY
290
    0
  9
$LENSLENGTH
 40
50
  9
$CAMERAHEIGHT
 40
0
  9
$STEPSPERSEC
 40
2
  9
$STEPSIZE
 40
50
  9
$3DDWFPREC
 40
2
  9
$PSOLWIDTH
 40
5
  9
$PSOLHEIGHT
 40
80
  9
$LOFTANG1
 40
1.570796326794897
  9
$LOFTANG2
 40
1.570796326794897
  9
$LOFTMAG1
 40
0
  9
$LOFTMAG2
 40
0
  9
$LOFTPARAM
 70
    7
  9
$LOFTNORMALS
280
    1
  9
$LATITUDE
 40
1
  9
$LONGITUDE
 40
1
  9
$NORTHDIRECTION
 40
0
  9
$TIMEZONE
 70
-8000
  9
$LIGHTGLYPHDISPLAY
280
    1
  9
$TILEMODELIGHTSYNCH
280
    1
  9
$SOLIDHIST
280
    1
  9
$SHOWHIST
280
    1
  9
$DWFFRAME
280
    2
  9
$DGNFRAME
280
    0
  9
$REALWORLDSCALE
290
    1
  9
$INTERFERECOLOR
 62
    1
  9
$CSHADOW
280
    0
  9
$SHADOWPLANELOCATION
 40
0
  0
ENDSEC
  0
SECTION
  2
CLASSES
  0
ENDSEC
  0
SECTION
  2
TABLES
  0
TABLE
  2
VPORT
  5
8
330
0
100
AcDbSymbolTable
 70
    1
  0
VPORT
  5
31
330
2
100
AcDbSymbolTableRecord
100
AcDbViewportTableRecord
  2
*ACTIVE
 70
    0
 10
0
 20
0
 11
1
 21
1
 12
254.8526907568145
 22
52.79658546831204
 13
0
 23
0
 14
10
 24
10
 15
10
 25
10
 16
0
 26
0
 36
1
 17
0
 27
0
 37
0
 40
676.431440887246
 41
1.727699530516432
 42
50
 43
0
 44
0
 50
0
 51
0
 71
    0
 72
  100
 73
    1
 74
    3
 75
    0
 76
    1
 77
    0
 78
    0
281
    0
 65
    1
110
0
120
0
130
0
111
1
121
0
131
0
112
0
122
1
132
0
 79
    0
146
0
348
10020
 60
    7
 61
    5
292
1
282
    1
141
0
142
0
 63
  250
421
3358443
  0
ENDTAB
  0
TABLE
  2
LTYPE
  5
5
330
0
100
AcDbSymbolTable
 70
    4
  0
LTYPE
  5
14
330
5
100
AcDbSymbolTableRecord
100
AcDbLinetypeTableRecord
  2
ByBlock
 70
    0
  3

 72
   65
 73
    0
 40
0
  0
LTYPE
  5
15
330
5
100
AcDbSymbolTableRecord
100
AcDbLinetypeTableRecord
  2
ByLayer
 70
    0
  3

 72
   65
 73
    0
 40
0
  0
LTYPE
  5
16
330
5
100
AcDbSymbolTableRecord
100
AcDbLinetypeTableRecord
  2
Continuous
 70
    0
  3
Solid line
 72
   65
 73
    0
 40
0
  0
LTYPE
  5
32
330
5
100
AcDbSymbolTableRecord
100
AcDbLinetypeTableRecord
  2
DOT
 70
    0
  3
Dot . . . . . . . . . . . . . . . . . . . . . .
 72
   65
 73
    2
 40
6.35
 49
0
 74
    0
 49
-6.35
 74
    0
  0
LTYPE
  5
33
330
5
100
AcDbSymbolTableRecord
100
AcDbLinetypeTableRecord
  2
DOTTINY
 70
    0
  3
Dot (.15x) .....................................
 72
   65
 73
    2
 40
0.9525
 49
0
 74
    0
 49
-0.9525
 74
    0
  0
LTYPE
  5
34
330
5
100
AcDbSymbolTableRecord
100
AcDbLinetypeTableRecord
  2
DOT2
 70
    0
  3
Dot (.5x) .....................................
 72
   65
 73
    2
 40
3.175
 49
0
 74
    0
 49
-3.175
 74
    0
  0
LTYPE
  5
35
330
5
100
AcDbSymbolTableRecord
100
AcDbLinetypeTableRecord
  2
DOTX2
 70
    0
  3
Dot (2x) .  .  .  .  .  .  .  .  .  .  .  .  .
 72
   65
 73
    2
 40
12.7
 49
0
 74
    0
 49
-12.7
 74
    0
  0
LTYPE
  5
36
330
5
100
AcDbSymbolTableRecord
100
AcDbLinetypeTableRecord
  2
DASHED
 70
    0
  3
Dashed _ _ _ _ _ _ _ _ _ _ _ _ _ _ _ _ _
 72
   65
 73
    2
 40
19.05
 49
12.7
 74
    0
 49
-6.35
 74
    0
  0
LTYPE
  5
37
330
5
100
AcDbSymbolTableRecord
100
AcDbLinetypeTableRecord
  2
DASHEDTINY
 70
    0
  3
Dashed (.15x) _ _ _ _ _ _ _ _ _ _ _ _ _ _ _ _ _
 72
   65
 73
    2
 40
2.8575
 49
1.905
 74
    0
 49
-0.9525
 74
    0
  0
LTYPE
  5
38
330
5
100
AcDbSymbolTableRecord
100
AcDbLinetypeTableRecord
  2
DASHED2
 70
    0
  3
Dashed (.5x) _ _ _ _ _ _ _ _ _ _ _ _ _ _ _ _ _
 72
   65
 73
    2
 40
9.524999999999999
 49
6.35
 74
    0
 49
-3.175
 74
    0
  0
LTYPE
  5
39
330
5
100
AcDbSymbolTableRecord
100
AcDbLinetypeTableRecord
  2
DASHEDX2
 70
    0
  3
Dashed (2x) ____  ____  ____  ____  ____  ___
 72
   65
 73
    2
 40
38.09999999999999
 49
25.4
 74
    0
 49
-12.7
 74
    0
  0
LTYPE
  5
3A
330
5
100
AcDbSymbolTableRecord
100
AcDbLinetypeTableRecord
  2
DASHDOT
 70
    0
  3
Dash dot __ . __ . __ . __ . __ . __ . __ . __
 72
   65
 73
    4
 40
25.4
 49
12.7
 74
    0
 49
-6.35
 74
    0
 49
0
 74
    0
 49
-6.35
 74
    0
  0
LTYPE
  5
3B
330
5
100
AcDbSymbolTableRecord
100
AcDbLinetypeTableRecord
  2
DASHDOTTINY
 70
    0
  3
Dash dot (.15x) _._._._._._._._._._._._._._._.
 72
   65
 73
    4
 40
3.81
 49
1.905
 74
    0
 49
-0.9525
 74
    0
 49
0
 74
    0
 49
-0.9525
 74
    0
  0
LTYPE
  5
3C
330
5
100
AcDbSymbolTableRecord
100
AcDbLinetypeTableRecord
  2
DASHDOT2
 70
    0
  3
Dash dot (.5x) _._._._._._._._._._._._._._._.
 72
   65
 73
    4
 40
12.7
 49
6.35
 74
    0
 49
-3.175
 74
    0
 49
0
 74
    0
 49
-3.175
 74
    0
  0
LTYPE
  5
3D
330
5
100
AcDbSymbolTableRecord
100
AcDbLinetypeTableRecord
  2
DASHDOTX2
 70
    0
  3
Dash dot (2x) ____  .  ____  .  ____  .  ___
 72
   65
 73
    4
 40
50.8
 49
25.4
 74
    0
 49
-12.7
 74
    0
 49
0
 74
    0
 49
-12.7
 74
    0
  0
LTYPE
  5
3E
330
5
100
AcDbSymbolTableRecord
100
AcDbLinetypeTableRecord
  2
DIVIDE
 70
    0
  3
Divide ____ . . ____ . . ____ . . ____ . . ____
 72
   65
 73
    6
 40
31.75
 49
12.7
 74
    0
 49
-6.35
 74
    0
 49
0
 74
    0
 49
-6.35
 74
    0
 49
0
 74
    0
 49
-6.35
 74
    0
  0
LTYPE
  5
3F
330
5
100
AcDbSymbolTableRecord
100
AcDbLinetypeTableRecord
  2
DIVIDETINY
 70
    0
  3
Divide (.15x) __..__..__..__..__..__..__..__.._
 72
   65
 73
    6
 40
4.7625
 49
1.905
 74
    0
 49
-0.9525
 74
    0
 49
0
 74
    0
 49
-0.9525
 74
    0
 49
0
 74
    0
 49
-0.9525
 74
    0
  0
LTYPE
  5
40
330
5
100
AcDbSymbolTableRecord
100
AcDbLinetypeTableRecord
  2
DIVIDE2
 70
    0
  3
Divide (.5x) __..__..__..__..__..__..__..__.._
 72
   65
 73
    6
 40
15.875
 49
6.35
 74
    0
 49
-3.175
 74
    0
 49
0
 74
    0
 49
-3.175
 74
    0
 49
0
 74
    0
 49
-3.175
 74
    0
  0
LTYPE
  5
41
330
5
100
AcDbSymbolTableRecord
100
AcDbLinetypeTableRecord
  2
DIVIDEX2
 70
    0
  3
Divide (2x) ________  .  .  ________  .  .  _
 72
   65
 73
    6
 40
63.5
 49
25.4
 74
    0
 49
-12.7
 74
    0
 49
0
 74
    0
 49
-12.7
 74
    0
 49
0
 74
    0
 49
-12.7
 74
    0
  0
LTYPE
  5
42
330
5
100
AcDbSymbolTableRecord
100
AcDbLinetypeTableRecord
  2
BORDER
 70
    0
  3
Border __ __ . __ __ . __ __ . __ __ . __ __ .
 72
   65
 73
    6
 40
44.45
 49
12.7
 74
    0
 49
-6.35
 74
    0
 49
12.7
 74
    0
 49
-6.35
 74
    0
 49
0
 74
    0
 49
-6.35
 74
    0
  0
LTYPE
  5
43
330
5
100
AcDbSymbolTableRecord
100
AcDbLinetypeTableRecord
  2
BORDERTINY
 70
    0
  3
Border (.15x) __.__.__.__.__.__.__.__.__.__.__.
 72
   65
 73
    6
 40
6.6675
 49
1.905
 74
    0
 49
-0.9525
 74
    0
 49
1.905
 74
    0
 49
-0.9525
 74
    0
 49
0
 74
    0
 49
-0.9525
 74
    0
  0
LTYPE
  5
44
330
5
100
AcDbSymbolTableRecord
100
AcDbLinetypeTableRecord
  2
BORDER2
 70
    0
  3
Border (.5x) __.__.__.__.__.__.__.__.__.__.__.
 72
   65
 73
    6
 40
22.225
 49
6.35
 74
    0
 49
-3.175
 74
    0
 49
6.35
 74
    0
 49
-3.175
 74
    0
 49
0
 74
    0
 49
-3.175
 74
    0
  0
LTYPE
  5
45
330
5
100
AcDbSymbolTableRecord
100
AcDbLinetypeTableRecord
  2
BORDERX2
 70
    0
  3
Border (2x) ____  ____  .  ____  ____  .  ___
 72
   65
 73
    6
 40
88.89999999999999
 49
25.4
 74
    0
 49
-12.7
 74
    0
 49
25.4
 74
    0
 49
-12.7
 74
    0
 49
0
 74
    0
 49
-12.7
 74
    0
  0
LTYPE
  5
46
330
5
100
AcDbSymbolTableRecord
100
AcDbLinetypeTableRecord
  2
CENTER
 70
    0
  3
Center ____ _ ____ _ ____ _ ____ _ ____ _ ____
 72
   65
 73
    4
 40
50.8
 49
31.75
 74
    0
 49
-6.35
 74
    0
 49
6.35
 74
    0
 49
-6.35
 74
    0
  0
LTYPE
  5
47
330
5
100
AcDbSymbolTableRecord
100
AcDbLinetypeTableRecord
  2
CENTERTINY
 70
    0
  3
Center (.15x) ___ _ ___ _ ___ _ ___ _ ___ _ ___
 72
   65
 73
    4
 40
7.619999999999999
 49
4.7625
 74
    0
 49
-0.9525
 74
    0
 49
0.9525
 74
    0
 49
-0.9525
 74
    0
  0
LTYPE
  5
48
330
5
100
AcDbSymbolTableRecord
100
AcDbLinetypeTableRecord
  2
CENTER2
 70
    0
  3
Center (.5x) ___ _ ___ _ ___ _ ___ _ ___ _ ___
 72
   65
 73
    4
 40
28.575
 49
19.05
 74
    0
 49
-3.175
 74
    0
 49
3.175
 74
    0
 49
-3.175
 74
    0
  0
LTYPE
  5
49
330
5
100
AcDbSymbolTableRecord
100
AcDbLinetypeTableRecord
  2
CENTERX2
 70
    0
  3
Center (2x) ________  __  ________  __  _____
 72
   65
 73
    4
 40
101.6
 49
63.5
 74
    0
 49
-12.7
 74
    0
 49
12.7
 74
    0
 49
-12.7
 74
    0
  0
ENDTAB
  0
TABLE
  2
LAYER
  5
2
330
0
100
AcDbSymbolTable
 70
    1
  0
LAYER
  5
10
330
2
100
AcDbSymbolTableRecord
100
AcDbLayerTableRecord
  2
0
 70
    1
 62
    7
  6
CONTINUOUS
370
    0
390
F
  0
LAYER
  5
4A
330
2
100
AcDbSymbolTableRecord
100
AcDbLayerTableRecord
  2
0_engrave
 70
    0
 62
    7
  6
CONTINUOUS
370
  100
390
F
  0
LAYER
  5
4B
330
2
100
AcDbSymbolTableRecord
100
AcDbLayerTableRecord
  2
1_cut
 70
    0
 62
    5
  6
CONTINUOUS
370
    0
390
F
  0
LAYER
  5
4C
330
2
100
AcDbSymbolTableRecord
100
AcDbLayerTableRecord
  2
2_cut
 70
    0
 62
    1
  6
CONTINUOUS
370
    0
390
F
  0
LAYER
  5
4D
330
2
100
AcDbSymbolTableRecord
100
AcDbLayerTableRecord
  2
3_cut
 70
    0
 62
    3
  6
CONTINUOUS
370
    0
390
F
  0
LAYER
  5
4E
330
2
100
AcDbSymbolTableRecord
100
AcDbLayerTableRecord
  2
4_cut
 70
    0
 62
   56
420
8421376
  6
CONTINUOUS
370
    0
390
F
  0
ENDTAB
  0
TABLE
  2
STYLE
  5
3
330
0
100
AcDbSymbolTable
 70
    3
  0
STYLE
  5
4F
330
2
100
AcDbSymbolTableRecord
100
AcDbTextStyleTableRecord
  2
opengosttypeb-regular
 70
    0
 40
0
 41
1
 50
0
 71
    0
 42
1
  3
opengosttypeb-regular
  4

  0
STYLE
  5
50
330
2
100
AcDbSymbolTableRecord
100
AcDbTextStyleTableRecord
  2
Standard
 70
    0
 40
0
 41
1
 50
0
 71
    0
 42
1
  3
txt
  4

  0
ENDTAB
  0
TABLE
  2
VIEW
  5
6
330
0
100
AcDbSymbolTable
 70
    0
  0
ENDTAB
  0
TABLE
  2
UCS
  5
7
330
0
100
AcDbSymbolTable
 70
    0
  0
ENDTAB
  0
TABLE
  2
APPID
  5
9
330
0
100
AcDbSymbolTable
 70
    1
  0
APPID
  5
12
330
9
100
AcDbSymbolTableRecord
100
AcDbRegAppTableRecord
  2
ACAD
 70
    0
  0
APPID
  5
51
330
9
100
AcDbSymbolTableRecord
100
AcDbRegAppTableRecord
  2
LibreCad
 70
    0
  0
ENDTAB
  0
TABLE
  2
DIMSTYLE
  5
A
330
0
100
AcDbSymbolTable
 70
    1
100
AcDbDimStyleTable
 71
    1
  0
DIMSTYLE
105
52
330
A
100
AcDbSymbolTableRecord
100
AcDbDimStyleTableRecord
  2
Standard
 70
    0
 40
1
 41
2.5
 42
0.625
 43
0.38
 44
1.25
 45
0
 46
0
 47
0
 48
0
 49
1
140
2.5
141
0.09
142
0
143
25.4
144
1
145
0
146
1
147
0.625
148
0
 71
    0
 72
    0
 73
    0
 74
    1
 75
    0
 76
    0
 77
    0
 78
    8
 79
    0
170
    0
171
    2
172
    0
173
    0
174
    0
175
    0
176
    0
177
    0
178
    0
179
    0
271
    2
272
    4
273
    2
274
    2
275
    0
276
    0
277
    2
278
   44
279
    0
280
    0
281
    0
282
    0
283
    1
284
    0
285
    0
286
    0
288
    0
289
    3
340
STANDARD
341

371
   -2
372
   -2
  0
ENDTAB
  0
TABLE
  2
BLOCK_RECORD
  5
1
330
0
100
AcDbSymbolTable
 70
    2
  0
BLOCK_RECORD
  5
1F
330
1
100
AcDbSymbolTableRecord
100
AcDbBlockTableRecord
  2
*Model_Space
 70
    0
280
    1
281
    0
  0
BLOCK_RECORD
  5
1E
330
1
100
AcDbSymbolTableRecord
100
AcDbBlockTableRecord
  2
*Paper_Space
 70
    0
280
    1
281
    0
  0
BLOCK_RECORD
  5
53
330
1
100
AcDbSymbolTableRecord
100
AcDbBlockTableRecord
  2
FIGURE_CIRCLE
 70
    0
280
    1
281
    0
  0
BLOCK_RECORD
  5
56
330
1
100
AcDbSymbolTableRecord
100
AcDbBlockTableRecord
  2
FIGURE_SQUARE
 70
    0
280
    1
281
    0
  0
BLOCK_RECORD
  5
59
330
1
100
AcDbSymbolTableRecord
100
AcDbBlockTableRecord
  2
FIGURE_HEX
 70
    0
280
    1
281
    0
  0
BLOCK_RECORD
  5
5C
330
1
100
AcDbSymbolTableRecord
100
AcDbBlockTableRecord
  2
FIGURE_OCT
 70
    0
280
    1
281
    0
  0
BLOCK_RECORD
  5
5F
330
1
100
AcDbSymbolTableRecord
100
AcDbBlockTableRecord
  2
FIGURE_OBLONG
 70
    0
280
    1
281
    0
  0
BLOCK_RECORD
  5
62
330
1
100
AcDbSymbolTableRecord
100
AcDbBlockTableRecord
  2
FIGURE_TRI
 70
    0
280
    1
281
    0
  0
BLOCK_RECORD
  5
65
330
1
100
AcDbSymbolTableRecord
100
AcDbBlockTableRecord
  2
FIGURE_CROSS
 70
    0
280
    1
281
    0
  0
BLOCK_RECORD
  5
68
330
1
100
AcDbSymbolTableRecord
100
AcDbBlockTableRecord
  2
FIGURE_DIAMOND
 70
    0
280
    1
281
    0
  0
BLOCK_RECORD
  5
6B
330
1
100
AcDbSymbolTableRecord
100
AcDbBlockTableRecord
  2
footClip
 70
    0
280
    1
281
    0
  0
BLOCK_RECORD
  5
6E
330
1
100
AcDbSymbolTableRecord
100
AcDbBlockTableRecord
  2
leftSide
 70
    0
280
    1
281
    0
  0
ENDTAB
  0
ENDSEC
  0
SECTION
  2
BLOCKS
  0
BLOCK
  5
20
330
1F
100
AcDbEntity
  8
0
100
AcDbBlockBegin
  2
*Model_Space
 70
    0
 10
0
 20
0
 30
0
  3
*Model_Space
  1

  0
ENDBLK
  5
21
330
1F
100
AcDbEntity
  8
0
100
AcDbBlockEnd
  0
BLOCK
  5
1C
330
1B
100
AcDbEntity
  8
0
100
AcDbBlockBegin
  2
*Paper_Space
 70
    0
 10
0
 20
0
 30
0
  3
*Paper_Space
  1

  0
ENDBLK
  5
1D
330
1F
100
AcDbEntity
  8
0
100
AcDbBlockEnd
  0
BLOCK
  5
54
330
53
100
AcDbEntity
  8
0
100
AcDbBlockBegin
  2
FIGURE_CIRCLE
 70
    0
 10
0
 20
0
  3
FIGURE_CIRCLE
  1

  0
CIRCLE
  5
71
100
AcDbEntity
  8
0
  6
ByLayer
 62
  256
370
   -1
100
AcDbCircle
 10
0
 20
0
 40
0.5
  0
ENDBLK
  5
55
330
53
100
AcDbEntity
  8
0
100
AcDbBlockEnd
  0
BLOCK
  5
57
330
56
100
AcDbEntity
  8
0
100
AcDbBlockBegin
  2
FIGURE_SQUARE
 70
    0
 10
0
 20
0
  3
FIGURE_SQUARE
  1

  0
LWPOLYLINE
  5
72
100
AcDbEntity
  8
0
  6
ByLayer
 62
  256
370
   -1
100
AcDbPolyline
 90
    4
 70
    1
 43
0
 10
-0.5
 20
-0.5
 10
-0.5
 20
0.5
 10
0.5
 20
0.5
 10
0.5
 20
-0.5
  0
ENDBLK
  5
58
330
56
100
AcDbEntity
  8
0
100
AcDbBlockEnd
  0
BLOCK
  5
5A
330
59
100
AcDbEntity
  8
0
100
AcDbBlockBegin
  2
FIGURE_HEX
 70
    0
 10
0
 20
0
  3
FIGURE_HEX
  1

  0
LWPOLYLINE
  5
73
100
AcDbEntity
  8
0
  6
ByLayer
 62
  256
370
   -1
100
AcDbPolyline
 90
    6
 70
    1
 43
0
 10
-0.5
 20
0
 10
-0.25
 20
0.5
 10
0.25
 20
0.5
 10
0.5
 20
0
 10
0.25
 20
-0.5
 10
-0.25
 20
-0.5
  0
ENDBLK
  5
5B
330
59
100
AcDbEntity
  8
0
100
AcDbBlockEnd
  0
BLOCK
  5
5D
330
5C
100
AcDbEntity
  8
0
100
AcDbBlockBegin
  2
FIGURE_OCT
 70
    0
 10
0
 20
0
  3
FIGURE_OCT
  1

  0
LWPOLYLINE
  5
74
100
AcDbEntity
  8
0
  6
ByLayer
 62
  256
370
   -1
100
AcDbPolyline
 90
    8
 70
    1
 43
0
 10
-0.5
 20
-0.2071
 10
-0.5
 20
0.2071
 10
-0.2071
 20
0.5
 10
0.2071
 20
0.5
 10
0.5
 20
0.2071
 10
0.5
 20
-0.2071
 10
0.2071
 20
-0.5
 10
-0.2071
 20
-0.5
  0
ENDBLK
  5
5E
330
5C
100
AcDbEntity
  8
0
100
AcDbBlockEnd
  0
BLOCK
  5
60
330
5F
100
AcDbEntity
  8
0
100
AcDbBlockBegin
  2
FIGURE_OBLONG
 70
    0
 10
0
 20
0
  3
FIGURE_OBLONG
  1

  0
LWPOLYLINE
  5
75
100
AcDbEntity
  8
0
  6
ByLayer
 62
  256
370
   -1
100
AcDbPolyline
 90
   12
 70
    1
 43
0
 10
-0.5
 20
-0.125
 10
-0.5
 20
0.125
 10
-0.416
 20
0.375
 10
-0.25
 20
0.5
 10
0.25
 20
0.5
 10
0.416
 20
0.375
 10
0.5
 20
0.125
 10
0.5
 20
-0.125
 10
0.416
 20
-0.375
 10
0.25
 20
-0.5
 10
-0.25
 20
-0.5
 10
-0.416
 20
-0.375
  0
ENDBLK
  5
61
330
5F
100
AcDbEntity
  8
0
100
AcDbBlockEnd
  0
BLOCK
  5
63
330
62
100
AcDbEntity
  8
0
100
AcDbBlockBegin
  2
FIGURE_TRI
 70
    0
 10
0
 20
0
  3
FIGURE_TRI
  1

  0
LWPOLYLINE
  5
76
100
AcDbEntity
  8
0
  6
ByLayer
 62
  256
370
   -1
100
AcDbPolyline
 90
    3
 70
    1
 43
0
 10
-0.5
 20
-0.5
 10
0
 20
0.5
 10
0.5
 20
-0.5
  0
ENDBLK
  5
64
330
62
100
AcDbEntity
  8
0
100
AcDbBlockEnd
  0
BLOCK
  5
66
330
65
100
AcDbEntity
  8
0
100
AcDbBlockBegin
  2
FIGURE_CROSS
 70
    0
 10
0
 20
0
  3
FIGURE_CROSS
  1

  0
LWPOLYLINE
  5
77
100
AcDbEntity
  8
0
  6
ByLayer
 62
  256
370
   -1
100
AcDbPolyline
 90
    2
 70
    0
 43
0
 10
-0.5
 20
0
 10
0.5
 20
0
  0
LWPOLYLINE
  5
78
100
AcDbEntity
  8
0
  6
ByLayer
 62
  256
370
   -1
100
AcDbPolyline
 90
    2
 70
    0
 43
0
 10
0
 20
0.5
 10
0
 20
-0.5
  0
ENDBLK
  5
67
330
65
100
AcDbEntity
  8
0
100
AcDbBlockEnd
  0
BLOCK
  5
69
330
68
100
AcDbEntity
  8
0
100
AcDbBlockBegin
  2
FIGURE_DIAMOND
 70
    0
 10
0
 20
0
  3
FIGURE_DIAMOND
  1

  0
LWPOLYLINE
  5
79
100
AcDbEntity
  8
0
  6
ByLayer
 62
  256
370
   -1
100
AcDbPolyline
 90
    4
 70
    1
 43
0
 10
-0.5
 20
0
 10
0
 20
0.5
 10
0.5
 20
0
 10
0
 20
-0.5
  0
ENDBLK
  5
6A
330
68
100
AcDbEntity
  8
0
100
AcDbBlockEnd
  0
BLOCK
  5
6C
330
6B
100
AcDbEntity
  8
0
100
AcDbBlockBegin
  2
footClip
 70
    0
 10
0
 20
0
  3
footClip
  1

  0
ENDBLK
  5
6D
330
6B
100
AcDbEntity
  8
0
100
AcDbBlockEnd
  0
BLOCK
  5
6F
330
6E
100
AcDbEntity
  8
0
100
AcDbBlockBegin
  2
leftSide
 70
    0
 10
0
 20
0
  3
leftSide
  1

  0
LINE
  5
7A
100
AcDbEntity
  8
0
  6
ByLayer
 62
  256
370
   -1
100
AcDbLine
 10
0
 20
48.5
 11
9
 21
48.5
  0
LINE
  5
7B
100
AcDbEntity
  8
0
  6
ByLayer
 62
  256
370
   -1
100
AcDbLine
 10
9
 20
48.5
 11
9
 21
51.5
  0
LINE
  5
7C
100
AcDbEntity
  8
0
  6
ByLayer
 62
  256
370
   -1
100
AcDbLine
 10
9
 20
51.5
 11
19
 21
51.5
  0
LINE
  5
7D
100
AcDbEntity
  8
0
  6
ByLayer
 62
  256
370
   -1
100
AcDbLine
 10
19
 20
51.5
 11
19
 21
48.5
  0
LINE
  5
7E
100
AcDbEntity
  8
0
  6
ByLayer
 62
  256
370
   -1
100
AcDbLine
 10
19
 20
48.5
 11
39
 21
48.5
  0
LINE
  5
7F
100
AcDbEntity
  8
0
  6
ByLayer
 62
  256
370
   -1
100
AcDbLine
 10
39
 20
48.5
 11
39
 21
51.5
  0
LINE
  5
80
100
AcDbEntity
  8
0
  6
ByLayer
 62
  256
370
   -1
100
AcDbLine
 10
39
 20
51.5
 11
49
 21
51.5
  0
LINE
  5
81
100
AcDbEntity
  8
0
  6
ByLayer
 62
  256
370
   -1
100
AcDbLine
 10
49
 20
51.5
 11
49
 21
48.5
  0
LINE
  5
82
100
AcDbEntity
  8
0
  6
ByLayer
 62
  256
370
   -1
100
AcDbLine
 10
49
 20
48.5
 11
58
 21
48.5
  0
LINE
  5
83
100
AcDbEntity
  8
0
  6
ByLayer
 62
  256
370
   -1
100
AcDbLine
 10
0
 20
48.5
 11
0
 21
44.25
  0
LINE
  5
84
100
AcDbEntity
  8
0
  6
ByLayer
 62
  256
370
   -1
100
AcDbLine
 10
0
 20
44.25
 11
-3
 21
44.25
  0
LINE
  5
85
100
AcDbEntity
  8
0
  6
ByLayer
 62
  256
370
   -1
100
AcDbLine
 10
-3
 20
44.25
 11
-3
 21
34.25
  0
LINE
  5
86
100
AcDbEntity
  8
0
  6
ByLayer
 62
  256
370
   -1
100
AcDbLine
 10
-3
 20
34.25
 11
0
 21
34.25
  0
LINE
  5
87
100
AcDbEntity
  8
0
  6
ByLayer
 62
  256
370
   -1
100
AcDbLine
 10
0
 20
34.25
 11
0
 21
24.25
  0
LINE
  5
88
100
AcDbEntity
  8
0
  6
ByLayer
 62
  256
370
   -1
100
AcDbLine
 10
0
 20
24.25
 11
-3
 21
24.25
  0
LINE
  5
89
100
AcDbEntity
  8
0
  6
ByLayer
 62
  256
370
   -1
100
AcDbLine
 10
-3
 20
24.25
 11
-3
 21
4.25
  0
LINE
  5
8A
100
AcDbEntity
  8
0
  6
ByLayer
 62
  256
370
   -1
100
AcDbLine
 10
-3
 20
4.25
 11
0
 21
4.25
  0
LINE
  5
8B
100
AcDbEntity
  8
0
  6
ByLayer
 62
  256
370
   -1
100
AcDbLine
 10
0
 20
4.25
 11
0
 21
0
  0
LINE
  5
8C
100
AcDbEntity
  8
0
  6
ByLayer
 62
  256
370
   -1
100
AcDbLine
 10
0
 20
4.25
 11
0
 21
0
  0
LINE
  5
8D
100
AcDbEntity
  8
0
  6
ByLayer
 62
  256
370
   -1
100
AcDbLine
 10
0
 20
0
 11
9
 21
0
  0
LINE
  5
8E
100
AcDbEntity
  8
0
  6
ByLayer
 62
  256
370
   -1
100
AcDbLine
 10
9
 20
0
 11
9
 21
-3
  0
LINE
  5
8F
100
AcDbEntity
  8
0
  6
ByLayer
 62
  256
370
   -1
100
AcDbLine
 10
9
 20
-3
 11
19
 21
-3
  0
LINE
  5
90
100
AcDbEntity
  8
0
  6
ByLayer
 62
  256
370
   -1
100
AcDbLine
 10
19
 20
-3
 11
19
 21
0
  0
LINE
  5
91
100
AcDbEntity
  8
0
  6
ByLayer
 62
  256
370
   -1
100
AcDbLine
 10
58
 20
0
 11
49
 21
0
  0
LINE
  5
92
100
AcDbEntity
  8
0
  6
ByLayer
 62
  256
370
   -1
100
AcDbLine
 10
49
 20
0
 11
49
 21
-3
  0
LINE
  5
93
100
AcDbEntity
  8
0
  6
ByLayer
 62
  256
370
   -1
100
AcDbLine
 10
49
 20
-3
 11
39
 21
-3
  0
LINE
  5
94
100
AcDbEntity
  8
0
  6
ByLayer
 62
  256
370
   -1
100
AcDbLine
 10
39
 20
-3
 11
39
 21
0
  0
LINE
  5
95
100
AcDbEntity
  8
0
  6
ByLayer
 62
  256
370
   -1
100
AcDbLine
 10
58
 20
48.5
 11
58
 21
34.25
  0
LINE
  5
96
100
AcDbEntity
  8
0
  6
ByLayer
 62
  256
370
   -1
100
AcDbLine
 10
58
 20
34.25
 11
61
 21
34.25
  0
LINE
  5
97
100
AcDbEntity
  8
0
  6
ByLayer
 62
  256
370
   -1
100
AcDbLine
 10
61
 20
34.25
 11
61
 21
14.25
  0
LINE
  5
98
100
AcDbEntity
  8
0
  6
ByLayer
 62
  256
370
   -1
100
AcDbLine
 10
61
 20
14.25
 11
58
 21
14.25
  0
LINE
  5
99
100
AcDbEntity
  8
0
  6
ByLayer
 62
  256
370
   -1
100
AcDbLine
 10
58
 20
14.25
 11
58
 21
0
  0
LINE
  5
9A
100
AcDbEntity
  8
0
  6
ByLayer
 62
  256
370
   -1
100
AcDbLine
 10
19
 20
0
 11
19.59999999999999
 21
0
  0
LINE
  5
9B
100
AcDbEntity
  8
0
  6
ByLayer
 62
  256
370
   -1
100
AcDbLine
 10
38.30000000000001
 20
0
 11
39
 21
0
  0
LINE
  5
9C
100
AcDbEntity
  8
0
  6
ByLayer
 62
  256
370
   -1
100
AcDbLine
 10
19.59999999999999
 20
0
 11
19.59999999999999
 21
7.5
  0
ARC
  5
9D
100
AcDbEntity
  8
0
  6
ByLayer
 62
  256
370
   -1
100
AcDbCircle
 10
20.09999999999999
 20
7.5
 40
0.5
100
AcDbArc
 50
90
 51
180
  0
LINE
  5
9E
100
AcDbEntity
  8
0
  6
ByLayer
 62
  256
370
   -1
100
AcDbLine
 10
20.09999999999999
 20
8
 11
37.80000000000001
 21
8
  0
LINE
  5
9F
100
AcDbEntity
  8
0
  6
ByLayer
 62
  256
370
   -1
100
AcDbLine
 10
38.30000000000001
 20
7.5
 11
38.30000000000001
 21
0
  0
ARC
  5
A0
100
AcDbEntity
  8
0
  6
ByLayer
 62
  256
370
   -1
100
AcDbCircle
 10
37.80000000000001
 20
7.5
 40
0.5
100
AcDbArc
 50
0
 51
90
  0
CIRCLE
  5
A1
100
AcDbEntity
  8
0
  6
ByLayer
 62
  256
370
   -1
100
AcDbCircle
 10
9
 20
10.8
 40
1
  0
CIRCLE
  5
A2
100
AcDbEntity
  8
0
  6
ByLayer
 62
  256
370
   -1
100
AcDbCircle
 10
13
 20
10.8
 40
1
  0
CIRCLE
  5
A3
100
AcDbEntity
  8
0
  6
ByLayer
 62
  256
370
   -1
100
AcDbCircle
 10
45
 20
10.8
 40
1
  0
CIRCLE
  5
A4
100
AcDbEntity
  8
0
  6
ByLayer
 62
  256
370
   -1
100
AcDbCircle
 10
49
 20
10.8
 40
1
  0
CIRCLE
  5
A5
100
AcDbEntity
  8
0
  6
ByLayer
 62
  256
370
   -1
100
AcDbCircle
 10
40
 20
34.75000000000001
 40
4
  0
LINE
  5
A6
100
AcDbEntity
  8
0
  6
ByLayer
 62
  256
370
   -1
100
AcDbLine
 10
13.8
 20
38.95000000000002
 11
13.8
 21
30.55000000000001
  0
LINE
  5
A7
100
AcDbEntity
  8
0
  6
ByLayer
 62
  256
370
   -1
100
AcDbLine
 10
13.8
 20
30.55000000000001
 11
22.19999999999999
 21
30.55000000000001
  0
LINE
  5
A8
100
AcDbEntity
  8
0
  6
ByLayer
 62
  256
370
   -1
100
AcDbLine
 10
22.19999999999999
 20
30.55000000000001
 11
22.19999999999999
 21
38.95000000000002
  0
LINE
  5
A9
100
AcDbEntity
  8
0
  6
ByLayer
 62
  256
370
   -1
100
AcDbLine
 10
22.19999999999999
 20
38.95000000000002
 11
13.8
 21
38.95000000000002
  0
ENDBLK
  5
70
330
6E
100
AcDbEntity
  8
0
100
AcDbBlockEnd
  0
ENDSEC
  0
SECTION
  2
ENTITIES
  0
LINE
  5
AA
100
AcDbEntity
  8
4_cut
  6
ByLayer
 62
  256
370
   -1
100
AcDbLine
 10
-6.500000000000036
 20
-62.99999999999983
 11
-3.500000000000035
 21
-62.99999999999983
  0
LINE
  5
AB
100
AcDbEntity
  8
4_cut
  6
ByLayer
 62
  256
370
   -1
100
AcDbLine
 10
-3.500000000000035
 20
-62.99999999999983
 11
-3.500000000000035
 21
-65.99999999999983
  0
LINE
  5
AC
100
AcDbEntity
  8
4_cut
  6
ByLayer
 62
  256
370
   -1
100
AcDbLine
 10
-74.5
 20
-62.99999999999983
 11
-74.5
 21
-65.99999999999983
  0
LINE
  5
AD
100
AcDbEntity
  8
3_cut
  6
ByLayer
 62
  256
370
   -1
100
AcDbLine
 10
-6.500000000000036
 20
-62.99999999999983
 11
-9.500000000000032
 21
-62.99999999999983
  0
LINE
  5
AE
100
AcDbEntity
  8
1_cut
  6
ByLayer
 62
  256
370
   -1
100
AcDbLine
 10
-91.99999999999999
 20
-88.64999999999981
 11
-95.39999999999999
 21
-88.64999999999981
  0
LINE
  5
AF
100
AcDbEntity
  8
1_cut
  6
ByLayer
 62
  256
370
   -1
100
AcDbLine
 10
-95.39999999999999
 20
-88.64999999999981
 11
-95.39999999999999
 21
-78.24999999999983
  0
LINE
  5
B0
100
AcDbEntity
  8
1_cut
  6
ByLayer
 62
  256
370
   -1
100
AcDbLine
 10
-91.99999999999999
 20
-78.24999999999983
 11
-91.99999999999999
 21
-88.64999999999981
  0
LINE
  5
B1
100
AcDbEntity
  8
1_cut
  6
ByLayer
 62
  256
370
   -1
100
AcDbLine
 10
-95.39999999999999
 20
-78.24999999999983
 11
-91.99999999999999
 21
-78.24999999999983
  0
LINE
  5
B2
100
AcDbEntity
  8
1_cut
  6
ByLayer
 62
  256
370
   -1
100
AcDbLine
 10
-2.600000000000001
 20
-88.64999999999981
 11
-5.99999999999995
 21
-88.64999999999981
  0
LINE
  5
B3
100
AcDbEntity
  8
1_cut
  6
ByLayer
 62
  256
370
   -1
100
AcDbLine
 10
-5.99999999999995
 20
-88.64999999999981
 11
-5.99999999999995
 21
-78.24999999999983
  0
LINE
  5
B4
100
AcDbEntity
  8
1_cut
  6
ByLayer
 62
  256
370
   -1
100
AcDbLine
 10
-2.600000000000001
 20
-78.24999999999983
 11
-2.600000000000001
 21
-88.64999999999981
  0
LINE
  5
B5
100
AcDbEntity
  8
1_cut
  6
ByLayer
 62
  256
370
   -1
100
AcDbLine
 10
-5.99999999999995
 20
-78.24999999999983
 11
-2.600000000000001
 21
-78.24999999999983
  0
LINE
  5
B6
100
AcDbEntity
  8
4_cut
  6
ByLayer
 62
  256
370
   -1
100
AcDbLine
 10
-97.99999999999999
 20
-101.5999999999999
 11
-97.99999999999999
 21
-65.99999999999983
  0
LINE
  5
B7
100
AcDbEntity
  8
4_cut
  6
ByLayer
 62
  256
370
   -1
100
AcDbLine
 10
-97.99999999999999
 20
-65.99999999999983
 11
-74.5
 21
-65.99999999999983
  0
LINE
  5
B8
100
AcDbEntity
  8
4_cut
  6
ByLayer
 62
  256
370
   -1
100
AcDbLine
 10
-6.217248937900877e-15
 20
-65.99999999999983
 11
-6.217248937900877e-15
 21
-101.5999999999999
  0
LINE
  5
B9
100
AcDbEntity
  8
4_cut
  6
ByLayer
 62
  256
370
   -1
100
AcDbLine
 10
-3.500000000000035
 20
-65.99999999999983
 11
-6.217248937900877e-15
 21
-65.99999999999983
  0
LINE
  5
BA
100
AcDbEntity
  8
1_cut
  6
ByLayer
 62
  256
370
   -1
100
AcDbLine
 10
-62.06666666666664
 20
-101.5999999999999
 11
-62.06666666666664
 21
-104.5999999999999
  0
LINE
  5
BB
100
AcDbEntity
  8
4_cut
  6
ByLayer
 62
  256
370
   -1
100
AcDbLine
 10
-72.06666666666663
 20
-104.5999999999999
 11
-72.06666666666663
 21
-101.5999999999999
  0
LINE
  5
BC
100
AcDbEntity
  8
4_cut
  6
ByLayer
 62
  256
370
   -1
100
AcDbLine
 10
-25.93333333333334
 20
-101.5999999999999
 11
-25.93333333333334
 21
-104.5999999999999
  0
LINE
  5
BD
100
AcDbEntity
  8
1_cut
  6
ByLayer
 62
  256
370
   -1
100
AcDbLine
 10
-35.93333333333329
 20
-104.5999999999999
 11
-35.93333333333329
 21
-101.5999999999999
  0
LINE
  5
BE
100
AcDbEntity
  8
3_cut
  6
ByLayer
 62
  256
370
   -1
100
AcDbLine
 10
-9.500000000000032
 20
-62.99999999999983
 11
-9.500000000000032
 21
-87.09999999999985
  0
ARC
  5
BF
100
AcDbEntity
  8
3_cut
  6
ByLayer
 62
  256
370
   -1
100
AcDbCircle
 10
-10.50000000000003
 20
-87.09999999999985
 40
1
100
AcDbArc
 50
270
 51
0
  0
LINE
  5
C0
100
AcDbEntity
  8
3_cut
  6
ByLayer
 62
  256
370
   -1
100
AcDbLine
 10
-68.5
 20
-87.09999999999985
 11
-68.5
 21
-62.99999999999983
  0
ARC
  5
C1
100
AcDbEntity
  8
3_cut
  6
ByLayer
 62
  256
370
   -1
100
AcDbCircle
 10
-67.5
 20
-87.09999999999985
 40
1
100
AcDbArc
 50
180
 51
270
  0
LINE
  5
C2
100
AcDbEntity
  8
4_cut
  6
ByLayer
 62
  256
370
   -1
100
AcDbLine
 10
-97.99999999999999
 20
-101.5999999999999
 11
-72.06666666666663
 21
-101.5999999999999
  0
LINE
  5
C3
100
AcDbEntity
  8
1_cut
  6
ByLayer
 62
  256
370
   -1
100
AcDbLine
 10
-62.06666666666664
 20
-101.5999999999999
 11
-35.93333333333329
 21
-101.5999999999999
  0
LINE
  5
C4
100
AcDbEntity
  8
4_cut
  6
ByLayer
 62
  256
370
   -1
100
AcDbLine
 10
-25.93333333333334
 20
-101.5999999999999
 11
-6.217248937900877e-15
 21
-101.5999999999999
  0
CIRCLE
  5
C5
100
AcDbEntity
  8
1_cut
  6
ByLayer
 62
  256
370
   -1
100
AcDbCircle
 10
-88
 20
-114.5999999999999
 40
1.375
  0
CIRCLE
  5
C6
100
AcDbEntity
  8
1_cut
  6
ByLayer
 62
  256
370
   -1
100
AcDbCircle
 10
-30
 20
-114.5999999999999
 40
1.375
  0
CIRCLE
  5
C7
100
AcDbEntity
  8
1_cut
  6
ByLayer
 62
  256
370
   -1
100
AcDbCircle
 10
-30
 20
-163.5999999999999
 40
1.375
  0
CIRCLE
  5
C8
100
AcDbEntity
  8
1_cut
  6
ByLayer
 62
  256
370
   -1
100
AcDbCircle
 10
-88
 20
-163.5999999999999
 40
1.375
  0
LINE
  5
C9
100
AcDbEntity
  8
1_cut
  6
ByLayer
 62
  256
370
   -1
100
AcDbLine
 10
-84.5
 20
-117.8999999999998
 11
-84.5
 21
-117.8999999999998
  0
LINE
  5
CA
100
AcDbEntity
  8
1_cut
  6
ByLayer
 62
  256
370
   -1
100
AcDbLine
 10
-33.50000000000001
 20
-117.8999999999998
 11
-33.49999999999999
 21
-117.8999999999998
  0
ARC
  5
CB
100
AcDbEntity
  8
1_cut
  6
ByLayer
 62
  256
370
   -1
100
AcDbCircle
 10
-75
 20
-128.9749999999996
 40
3
100
AcDbArc
 50
89.99999999999993
 51
180
  0
LINE
  5
CC
100
AcDbEntity
  8
1_cut
  6
ByLayer
 62
  256
370
   -1
100
AcDbLine
 10
-78
 20
-128.9749999999996
 11
-78
 21
-149.2249999999999
  0
ARC
  5
CD
100
AcDbEntity
  8
1_cut
  6
ByLayer
 62
  256
370
   -1
100
AcDbCircle
 10
-75
 20
-149.2249999999999
 40
3
100
AcDbArc
 50
179.9999999999999
 51
270
  0
LINE
  5
CE
100
AcDbEntity
  8
1_cut
  6
ByLayer
 62
  256
370
   -1
100
AcDbLine
 10
-75
 20
-152.2249999999999
 11
-19.5
 21
-152.2249999999999
  0
ARC
  5
CF
100
AcDbEntity
  8
1_cut
  6
ByLayer
 62
  256
370
   -1
100
AcDbCircle
 10
-19.5
 20
-149.2249999999999
 40
3
100
AcDbArc
 50
270
 51
0
  0
LINE
  5
D0
100
AcDbEntity
  8
1_cut
  6
ByLayer
 62
  256
370
   -1
100
AcDbLine
 10
-16.5
 20
-149.2249999999999
 11
-16.5
 21
-128.9749999999996
  0
LINE
  5
D1
100
AcDbEntity
  8
1_cut
  6
ByLayer
 62
  256
370
   -1
100
AcDbLine
 10
-19.5
 20
-125.9749999999996
 11
-75
 21
-125.9749999999996
  0
ARC
  5
D2
100
AcDbEntity
  8
1_cut
  6
ByLayer
 62
  256
370
   -1
100
AcDbCircle
 10
-19.5
 20
-128.9749999999996
 40
3
100
AcDbArc
 50
0
 51
90
  0
ARC
  5
D3
100
AcDbEntity
  8
4_cut
  6
ByLayer
 62
  256
370
   -1
100
AcDbCircle
 10
-95
 20
-107.5999999999999
 40
3
100
AcDbArc
 50
90.00000000000001
 51
180
  0
LINE
  5
D4
100
AcDbEntity
  8
4_cut
  6
ByLayer
 62
  256
370
   -1
100
AcDbLine
 10
-98
 20
-170.5999999999999
 11
-98
 21
-107.5999999999999
  0
ARC
  5
D5
100
AcDbEntity
  8
4_cut
  6
ByLayer
 62
  256
370
   -1
100
AcDbCircle
 10
-95
 20
-170.5999999999999
 40
3
100
AcDbArc
 50
180
 51
270
  0
LINE
  5
D6
100
AcDbEntity
  8
2_cut
  6
ByLayer
 62
  256
370
   -1
100
AcDbLine
 10
-3.000000000000001
 20
-173.5999999999999
 11
-95
 21
-173.5999999999999
  0
ARC
  5
D7
100
AcDbEntity
  8
4_cut
  6
ByLayer
 62
  256
370
   -1
100
AcDbCircle
 10
-3.000000000000001
 20
-170.5999999999999
 40
3
100
AcDbArc
 50
270
 51
0
  0
LINE
  5
D8
100
AcDbEntity
  8
4_cut
  6
ByLayer
 62
  256
370
   -1
100
AcDbLine
 10
-1.332267629550188e-15
 20
-107.5999999999999
 11
-1.332267629550188e-15
 21
-170.5999999999999
  0
ARC
  5
D9
100
AcDbEntity
  8
4_cut
  6
ByLayer
 62
  256
370
   -1
100
AcDbCircle
 10
-3.000000000000001
 20
-107.5999999999999
 40
3
100
AcDbArc
 50
0
 51
90
  0
LINE
  5
DA
100
AcDbEntity
  8
1_cut
  6
ByLayer
 62
  256
370
   -1
100
AcDbLine
 10
-95.39999999999999
 20
-120.6666666666665
 11
-92
 21
-120.6666666666665
  0
LINE
  5
DB
100
AcDbEntity
  8
1_cut
  6
ByLayer
 62
  256
370
   -1
100
AcDbLine
 10
-92
 20
-120.6666666666665
 11
-92
 21
-131.0666666666665
  0
LINE
  5
DC
100
AcDbEntity
  8
1_cut
  6
ByLayer
 62
  256
370
   -1
100
AcDbLine
 10
-92
 20
-131.0666666666665
 11
-95.40000000000001
 21
-131.0666666666665
  0
LINE
  5
DD
100
AcDbEntity
  8
1_cut
  6
ByLayer
 62
  256
370
   -1
100
AcDbLine
 10
-95.40000000000001
 20
-131.0666666666665
 11
-95.39999999999999
 21
-120.6666666666665
  0
LINE
  5
DE
100
AcDbEntity
  8
1_cut
  6
ByLayer
 62
  256
370
   -1
100
AcDbLine
 10
-2.599999999999996
 20
-131.0666666666665
 11
-6.000000000000002
 21
-131.0666666666665
  0
LINE
  5
DF
100
AcDbEntity
  8
1_cut
  6
ByLayer
 62
  256
370
   -1
100
AcDbLine
 10
-2.599999999999996
 20
-120.6666666666665
 11
-2.599999999999996
 21
-131.0666666666665
  0
LINE
  5
E0
100
AcDbEntity
  8
1_cut
  6
ByLayer
 62
  256
370
   -1
100
AcDbLine
 10
-6.000000000000002
 20
-131.0666666666665
 11
-6.000000000000002
 21
-120.6666666666665
  0
LINE
  5
E1
100
AcDbEntity
  8
1_cut
  6
ByLayer
 62
  256
370
   -1
100
AcDbLine
 10
-6.000000000000002
 20
-120.6666666666665
 11
-2.599999999999996
 21
-120.6666666666665
  0
LINE
  5
E2
100
AcDbEntity
  8
1_cut
  6
ByLayer
 62
  256
370
   -1
100
AcDbLine
 10
-95.40000000000001
 20
-157.5333333333332
 11
-92
 21
-157.5333333333332
  0
LINE
  5
E3
100
AcDbEntity
  8
1_cut
  6
ByLayer
 62
  256
370
   -1
100
AcDbLine
 10
-92
 20
-157.5333333333332
 11
-92
 21
-147.1333333333332
  0
LINE
  5
E4
100
AcDbEntity
  8
1_cut
  6
ByLayer
 62
  256
370
   -1
100
AcDbLine
 10
-92
 20
-147.1333333333332
 11
-95.39999999999999
 21
-147.1333333333332
  0
LINE
  5
E5
100
AcDbEntity
  8
1_cut
  6
ByLayer
 62
  256
370
   -1
100
AcDbLine
 10
-95.39999999999999
 20
-147.1333333333332
 11
-95.40000000000001
 21
-157.5333333333332
  0
LINE
  5
E6
100
AcDbEntity
  8
1_cut
  6
ByLayer
 62
  256
370
   -1
100
AcDbLine
 10
-2.599999999999996
 20
-147.1333333333332
 11
-6.000000000000002
 21
-147.1333333333332
  0
LINE
  5
E7
100
AcDbEntity
  8
1_cut
  6
ByLayer
 62
  256
370
   -1
100
AcDbLine
 10
-2.599999999999996
 20
-157.5333333333332
 11
-2.599999999999996
 21
-147.1333333333332
  0
LINE
  5
E8
100
AcDbEntity
  8
1_cut
  6
ByLayer
 62
  256
370
   -1
100
AcDbLine
 10
-6.000000000000002
 20
-147.1333333333332
 11
-6.000000000000002
 21
-157.5333333333332
  0
LINE
  5
E9
100
AcDbEntity
  8
1_cut
  6
ByLayer
 62
  256
370
   -1
100
AcDbLine
 10
-6.000000000000002
 20
-157.5333333333332
 11
-2.599999999999996
 21
-157.5333333333332
  0
LINE
  5
EA
100
AcDbEntity
  8
1_cut
  6
ByLayer
 62
  256
370
   -1
100
AcDbLine
 10
-23.3
 20
-167.5999999999999
 11
-23.3
 21
-170.9999999999998
  0
LINE
  5
EB
100
AcDbEntity
  8
1_cut
  6
ByLayer
 62
  256
370
   -1
100
AcDbLine
 10
-23.3
 20
-167.5999999999999
 11
-29.7
 21
-167.5999999999999
  0
LINE
  5
EC
100
AcDbEntity
  8
1_cut
  6
ByLayer
 62
  256
370
   -1
100
AcDbLine
 10
-29.7
 20
-170.9999999999998
 11
-23.3
 21
-170.9999999999998
  0
LINE
  5
ED
100
AcDbEntity
  8
1_cut
  6
ByLayer
 62
  256
370
   -1
100
AcDbLine
 10
-29.7
 20
-167.5999999999999
 11
-29.7
 21
-170.9999999999998
  0
LINE
  5
EE
100
AcDbEntity
  8
1_cut
  6
ByLayer
 62
  256
370
   -1
100
AcDbLine
 10
-88.29999999999997
 20
-170.9999999999998
 11
-88.29999999999997
 21
-167.5999999999999
  0
LINE
  5
EF
100
AcDbEntity
  8
1_cut
  6
ByLayer
 62
  256
370
   -1
100
AcDbLine
 10
-94.69999999999996
 20
-170.9999999999998
 11
-88.29999999999997
 21
-170.9999999999998
  0
LINE
  5
F0
100
AcDbEntity
  8
1_cut
  6
ByLayer
 62
  256
370
   -1
100
AcDbLine
 10
-88.29999999999997
 20
-167.5999999999999
 11
-94.69999999999996
 21
-167.5999999999999
  0
LINE
  5
F1
100
AcDbEntity
  8
1_cut
  6
ByLayer
 62
  256
370
   -1
100
AcDbLine
 10
-94.69999999999996
 20
-167.5999999999999
 11
-94.69999999999996
 21
-170.9999999999998
  0
LINE
  5
F2
100
AcDbEntity
  8
1_cut
  6
ByLayer
 62
  256
370
   -1
100
AcDbLine
 10
-29.7
 20
-110.5999999999999
 11
-23.3
 21
-110.5999999999999
  0
LINE
  5
F3
100
AcDbEntity
  8
1_cut
  6
ByLayer
 62
  256
370
   -1
100
AcDbLine
 10
-29.7
 20
-110.5999999999999
 11
-29.7
 21
-107.1999999999998
  0
LINE
  5
F4
100
AcDbEntity
  8
1_cut
  6
ByLayer
 62
  256
370
   -1
100
AcDbLine
 10
-23.3
 20
-107.1999999999998
 11
-23.3
 21
-110.5999999999999
  0
LINE
  5
F5
100
AcDbEntity
  8
1_cut
  6
ByLayer
 62
  256
370
   -1
100
AcDbLine
 10
-29.7
 20
-107.1999999999998
 11
-23.3
 21
-107.1999999999998
  0
LINE
  5
F6
100
AcDbEntity
  8
1_cut
  6
ByLayer
 62
  256
370
   -1
100
AcDbLine
 10
-94.69999999999996
 20
-107.1999999999998
 11
-94.69999999999996
 21
-110.5999999999999
  0
LINE
  5
F7
100
AcDbEntity
  8
1_cut
  6
ByLayer
 62
  256
370
   -1
100
AcDbLine
 10
-94.69999999999996
 20
-110.5999999999999
 11
-88.29999999999997
 21
-110.5999999999999
  0
LINE
  5
F8
100
AcDbEntity
  8
1_cut
  6
ByLayer
 62
  256
370
   -1
100
AcDbLine
 10
-94.69999999999996
 20
-107.1999999999998
 11
-88.29999999999997
 21
-107.1999999999998
  0
LINE
  5
F9
100
AcDbEntity
  8
1_cut
  6
ByLayer
 62
  256
370
   -1
100
AcDbLine
 10
-88.29999999999997
 20
-110.5999999999999
 11
-88.29999999999997
 21
-107.1999999999998
  0
ARC
  5
FA
100
AcDbEntity
  8
1_cut
  6
ByLayer
 62
  256
370
   -1
100
AcDbCircle
 10
-24.69999999999996
 20
-214.2000073429537
 40
0.8
100
AcDbArc
 50
90
 51
180
  0
LINE
  5
FB
100
AcDbEntity
  8
1_cut
  6
ByLayer
 62
  256
370
   -1
100
AcDbLine
 10
-24.69999999999996
 20
-213.4000073429536
 11
-22.34999999999995
 21
-213.4000073429536
  0
ARC
  5
FC
100
AcDbEntity
  8
1_cut
  6
ByLayer
 62
  256
370
   -1
100
AcDbCircle
 10
-22.34999999999995
 20
-214.2000073429537
 40
0.8
100
AcDbArc
 50
0
 51
90
  0
LINE
  5
FD
100
AcDbEntity
  8
1_cut
  6
ByLayer
 62
  256
370
   -1
100
AcDbLine
 10
-21.54999999999994
 20
-214.2000073429537
 11
-21.54999999999994
 21
-235.0000073429536
  0
ARC
  5
FE
100
AcDbEntity
  8
1_cut
  6
ByLayer
 62
  256
370
   -1
100
AcDbCircle
 10
-22.34999999999995
 20
-235.0000073429536
 40
0.8
100
AcDbArc
 50
270
 51
1.017777498068325e-13
  0
LINE
  5
FF
100
AcDbEntity
  8
1_cut
  6
ByLayer
 62
  256
370
   -1
100
AcDbLine
 10
-22.34999999999995
 20
-235.8000073429537
 11
-24.69999999999997
 21
-235.8000073429537
  0
LINE
  5
100
100
AcDbEntity
  8
1_cut
  6
ByLayer
 62
  256
370
   -1
100
AcDbLine
 10
-25.49999999999996
 20
-235.0000073429536
 11
-25.49999999999996
 21
-214.2000073429537
  0
ARC
  5
101
100
AcDbEntity
  8
1_cut
  6
ByLayer
 62
  256
370
   -1
100
AcDbCircle
 10
-24.69999999999997
 20
-235.0000073429536
 40
0.8
100
AcDbArc
 50
180
 51
270
  0
CIRCLE
  5
102
100
AcDbEntity
  8
1_cut
  6
ByLayer
 62
  256
370
   -1
100
AcDbCircle
 10
-9.599999999999962
 20
-224.6000073251219
 40
1.6
  0
CIRCLE
  5
103
100
AcDbEntity
  8
1_cut
  6
ByLayer
 62
  256
370
   -1
100
AcDbCircle
 10
-87.99999999999999
 20
-183.6000073429536
 40
1.375
  0
CIRCLE
  5
104
100
AcDbEntity
  8
1_cut
  6
ByLayer
 62
  256
370
   -1
100
AcDbCircle
 10
-29.99999999999998
 20
-183.6000073429536
 40
1.375
  0
CIRCLE
  5
105
100
AcDbEntity
  8
1_cut
  6
ByLayer
 62
  256
370
   -1
100
AcDbCircle
 10
-29.99999999999998
 20
-232.6000073429536
 40
1.375
  0
CIRCLE
  5
106
100
AcDbEntity
  8
1_cut
  6
ByLayer
 62
  256
370
   -1
100
AcDbCircle
 10
-87.99999999999999
 20
-232.6000073429536
 40
1.375
  0
LINE
  5
107
100
AcDbEntity
  8
1_cut
  6
ByLayer
 62
  256
370
   -1
100
AcDbLine
 10
-84.49999999999999
 20
-186.9000073429536
 11
-84.49999999999999
 21
-186.9000073429536
  0
LINE
  5
108
100
AcDbEntity
  8
1_cut
  6
ByLayer
 62
  256
370
   -1
100
AcDbLine
 10
-33.49999999999999
 20
-186.9000073429536
 11
-33.49999999999997
 21
-186.9000073429536
  0
ARC
  5
109
100
AcDbEntity
  8
4_cut
  6
ByLayer
 62
  256
370
   -1
100
AcDbCircle
 10
-94.99999999999999
 20
-176.6000073429536
 40
3
100
AcDbArc
 50
90.00000000000001
 51
180
  0
LINE
  5
10A
100
AcDbEntity
  8
4_cut
  6
ByLayer
 62
  256
370
   -1
100
AcDbLine
 10
-97.99999999999999
 20
-239.6000073429536
 11
-97.99999999999999
 21
-176.6000073429536
  0
ARC
  5
10B
100
AcDbEntity
  8
4_cut
  6
ByLayer
 62
  256
370
   -1
100
AcDbCircle
 10
-94.99999999999999
 20
-239.6000073429536
 40
3
100
AcDbArc
 50
180
 51
270
  0
ARC
  5
10C
100
AcDbEntity
  8
4_cut
  6
ByLayer
 62
  256
370
   -1
100
AcDbCircle
 10
-2.999999999999987
 20
-239.6000073429536
 40
3
100
AcDbArc
 50
270
 51
0
  0
LINE
  5
10D
100
AcDbEntity
  8
4_cut
  6
ByLayer
 62
  256
370
   -1
100
AcDbLine
 10
1.265654248072678e-14
 20
-176.6000073429536
 11
1.265654248072678e-14
 21
-239.6000073429536
  0
ARC
  5
10E
100
AcDbEntity
  8
4_cut
  6
ByLayer
 62
  256
370
   -1
100
AcDbCircle
 10
-2.999999999999987
 20
-176.6000073429536
 40
3
100
AcDbArc
 50
0
 51
90
  0
LINE
  5
10F
100
AcDbEntity
  8
1_cut
  6
ByLayer
 62
  256
370
   -1
100
AcDbLine
 10
-95.39999999999998
 20
-189.6666740096204
 11
-91.99999999999999
 21
-189.6666740096204
  0
LINE
  5
110
100
AcDbEntity
  8
1_cut
  6
ByLayer
 62
  256
370
   -1
100
AcDbLine
 10
-91.99999999999999
 20
-189.6666740096204
 11
-91.99999999999999
 21
-200.0666740096203
  0
LINE
  5
111
100
AcDbEntity
  8
1_cut
  6
ByLayer
 62
  256
370
   -1
100
AcDbLine
 10
-91.99999999999999
 20
-200.0666740096203
 11
-95.39999999999999
 21
-200.0666740096203
  0
LINE
  5
112
100
AcDbEntity
  8
1_cut
  6
ByLayer
 62
  256
370
   -1
100
AcDbLine
 10
-95.39999999999999
 20
-200.0666740096203
 11
-95.39999999999998
 21
-189.6666740096204
  0
LINE
  5
113
100
AcDbEntity
  8
1_cut
  6
ByLayer
 62
  256
370
   -1
100
AcDbLine
 10
-2.599999999999981
 20
-200.0666740096203
 11
-5.999999999999988
 21
-200.0666740096203
  0
LINE
  5
114
100
AcDbEntity
  8
1_cut
  6
ByLayer
 62
  256
370
   -1
100
AcDbLine
 10
-2.599999999999981
 20
-189.6666740096204
 11
-2.599999999999981
 21
-200.0666740096203
  0
LINE
  5
115
100
AcDbEntity
  8
1_cut
  6
ByLayer
 62
  256
370
   -1
100
AcDbLine
 10
-5.999999999999988
 20
-200.0666740096203
 11
-5.999999999999988
 21
-189.6666740096204
  0
LINE
  5
116
100
AcDbEntity
  8
1_cut
  6
ByLayer
 62
  256
370
   -1
100
AcDbLine
 10
-5.999999999999988
 20
-189.6666740096204
 11
-2.599999999999981
 21
-189.6666740096204
  0
LINE
  5
117
100
AcDbEntity
  8
1_cut
  6
ByLayer
 62
  256
370
   -1
100
AcDbLine
 10
-95.39999999999999
 20
-226.5333406762869
 11
-91.99999999999999
 21
-226.5333406762869
  0
LINE
  5
118
100
AcDbEntity
  8
1_cut
  6
ByLayer
 62
  256
370
   -1
100
AcDbLine
 10
-91.99999999999999
 20
-226.5333406762869
 11
-91.99999999999999
 21
-216.1333406762869
  0
LINE
  5
119
100
AcDbEntity
  8
1_cut
  6
ByLayer
 62
  256
370
   -1
100
AcDbLine
 10
-91.99999999999999
 20
-216.1333406762869
 11
-95.39999999999998
 21
-216.1333406762869
  0
LINE
  5
11A
100
AcDbEntity
  8
1_cut
  6
ByLayer
 62
  256
370
   -1
100
AcDbLine
 10
-95.39999999999998
 20
-216.1333406762869
 11
-95.39999999999999
 21
-226.5333406762869
  0
LINE
  5
11B
100
AcDbEntity
  8
1_cut
  6
ByLayer
 62
  256
370
   -1
100
AcDbLine
 10
-2.599999999999981
 20
-216.1333406762869
 11
-5.999999999999988
 21
-216.1333406762869
  0
LINE
  5
11C
100
AcDbEntity
  8
1_cut
  6
ByLayer
 62
  256
370
   -1
100
AcDbLine
 10
-2.599999999999981
 20
-226.5333406762869
 11
-2.599999999999981
 21
-216.1333406762869
  0
LINE
  5
11D
100
AcDbEntity
  8
1_cut
  6
ByLayer
 62
  256
370
   -1
100
AcDbLine
 10
-5.999999999999988
 20
-216.1333406762869
 11
-5.999999999999988
 21
-226.5333406762869
  0
LINE
  5
11E
100
AcDbEntity
  8
1_cut
  6
ByLayer
 62
  256
370
   -1
100
AcDbLine
 10
-5.999999999999988
 20
-226.5333406762869
 11
-2.599999999999981
 21
-226.5333406762869
  0
LINE
  5
11F
100
AcDbEntity
  8
1_cut
  6
ByLayer
 62
  256
370
   -1
100
AcDbLine
 10
-61.86666666666667
 20
-240.0000073429536
 11
-61.86666666666667
 21
-236.6000073429536
  0
LINE
  5
120
100
AcDbEntity
  8
1_cut
  6
ByLayer
 62
  256
370
   -1
100
AcDbLine
 10
-61.86666666666667
 20
-236.6000073429536
 11
-72.26666666666665
 21
-236.6000073429536
  0
LINE
  5
121
100
AcDbEntity
  8
1_cut
  6
ByLayer
 62
  256
370
   -1
100
AcDbLine
 10
-72.26666666666665
 20
-240.0000073429536
 11
-61.86666666666667
 21
-240.0000073429536
  0
LINE
  5
122
100
AcDbEntity
  8
1_cut
  6
ByLayer
 62
  256
370
   -1
100
AcDbLine
 10
-72.26666666666665
 20
-236.6000073429536
 11
-72.26666666666665
 21
-240.0000073429536
  0
LINE
  5
123
100
AcDbEntity
  8
1_cut
  6
ByLayer
 62
  256
370
   -1
100
AcDbLine
 10
-61.86666666666665
 20
-176.2000073429537
 11
-61.86666666666665
 21
-179.6000073429536
  0
LINE
  5
124
100
AcDbEntity
  8
1_cut
  6
ByLayer
 62
  256
370
   -1
100
AcDbLine
 10
-61.86666666666665
 20
-179.6000073429536
 11
-72.26666666666664
 21
-179.6000073429536
  0
LINE
  5
125
100
AcDbEntity
  8
1_cut
  6
ByLayer
 62
  256
370
   -1
100
AcDbLine
 10
-72.26666666666664
 20
-176.2000073429537
 11
-61.86666666666665
 21
-176.2000073429537
  0
LINE
  5
126
100
AcDbEntity
  8
1_cut
  6
ByLayer
 62
  256
370
   -1
100
AcDbLine
 10
-72.26666666666664
 20
-179.6000073429536
 11
-72.26666666666664
 21
-176.2000073429537
  0
LINE
  5
127
100
AcDbEntity
  8
1_cut
  6
ByLayer
 62
  256
370
   -1
100
AcDbLine
 10
-36.13333333333333
 20
-240.0000073429537
 11
-36.13333333333333
 21
-236.6000073429536
  0
LINE
  5
128
100
AcDbEntity
  8
1_cut
  6
ByLayer
 62
  256
370
   -1
100
AcDbLine
 10
-36.13333333333333
 20
-236.6000073429536
 11
-25.73333333333333
 21
-236.6000073429536
  0
LINE
  5
129
100
AcDbEntity
  8
1_cut
  6
ByLayer
 62
  256
370
   -1
100
AcDbLine
 10
-25.73333333333333
 20
-240.0000073429537
 11
-36.13333333333333
 21
-240.0000073429537
  0
LINE
  5
12A
100
AcDbEntity
  8
1_cut
  6
ByLayer
 62
  256
370
   -1
100
AcDbLine
 10
-25.73333333333333
 20
-236.6000073429536
 11
-25.73333333333333
 21
-240.0000073429537
  0
LINE
  5
12B
100
AcDbEntity
  8
1_cut
  6
ByLayer
 62
  256
370
   -1
100
AcDbLine
 10
-36.13333333333333
 20
-176.2000073429537
 11
-36.13333333333333
 21
-179.6000073429536
  0
LINE
  5
12C
100
AcDbEntity
  8
1_cut
  6
ByLayer
 62
  256
370
   -1
100
AcDbLine
 10
-36.13333333333333
 20
-179.6000073429536
 11
-25.73333333333335
 21
-179.6000073429536
  0
LINE
  5
12D
100
AcDbEntity
  8
1_cut
  6
ByLayer
 62
  256
370
   -1
100
AcDbLine
 10
-25.73333333333335
 20
-176.2000073429537
 11
-36.13333333333333
 21
-176.2000073429537
  0
LINE
  5
12E
100
AcDbEntity
  8
1_cut
  6
ByLayer
 62
  256
370
   -1
100
AcDbLine
 10
-25.73333333333335
 20
-179.6000073429536
 11
-25.73333333333335
 21
-176.2000073429537
  0
ARC
  5
12F
100
AcDbEntity
  8
1_cut
  6
ByLayer
 62
  256
370
   -1
100
AcDbCircle
 10
-77.49999999999999
 20
-229.6000073429536
 40
4.5
100
AcDbArc
 50
180
 51
270
  0
LINE
  5
130
100
AcDbEntity
  8
1_cut
  6
ByLayer
 62
  256
370
   -1
100
AcDbLine
 10
-40.49999999999997
 20
-234.1000073429536
 11
-77.49999999999999
 21
-234.1000073429536
  0
ARC
  5
131
100
AcDbEntity
  8
1_cut
  6
ByLayer
 62
  256
370
   -1
100
AcDbCircle
 10
-40.49999999999997
 20
-229.6000073429536
 40
4.5
100
AcDbArc
 50
270
 51
0
  0
LINE
  5
132
100
AcDbEntity
  8
1_cut
  6
ByLayer
 62
  256
370
   -1
100
AcDbLine
 10
-35.99999999999997
 20
-189.5000073429536
 11
-35.99999999999997
 21
-229.6000073429536
  0
LINE
  5
133
100
AcDbEntity
  8
1_cut
  6
ByLayer
 62
  256
370
   -1
100
AcDbLine
 10
-33.09999999999999
 20
-186.6000073429536
 11
-33.09999999999997
 21
-186.6000073429536
  0
LINE
  5
134
100
AcDbEntity
  8
1_cut
  6
ByLayer
 62
  256
370
   -1
100
AcDbLine
 10
-81.99999999999999
 20
-229.6000073429536
 11
-81.99999999999999
 21
-189.5000073429536
  0
LINE
  5
135
100
AcDbEntity
  8
1_cut
  6
ByLayer
 62
  256
370
   -1
100
AcDbLine
 10
-84.89999999999999
 20
-186.6000073429536
 11
-84.89999999999999
 21
-186.6000073429536
  0
ARC
  5
136
100
AcDbEntity
  8
1_cut
  6
ByLayer
 62
  256
370
   -1
100
AcDbCircle
 10
-33.59999999999999
 20
-181.1000073429536
 40
0.5
100
AcDbArc
 50
0
 51
90
  0
LINE
  5
137
100
AcDbEntity
  8
1_cut
  6
ByLayer
 62
  256
370
   -1
100
AcDbLine
 10
-84.39999999999999
 20
-180.6000073429536
 11
-33.59999999999999
 21
-180.6000073429536
  0
ARC
  5
138
100
AcDbEntity
  8
1_cut
  6
ByLayer
 62
  256
370
   -1
100
AcDbCircle
 10
-84.39999999999999
 20
-181.1000073429536
 40
0.5
100
AcDbArc
 50
90
 51
180
  0
ARC
  5
139
100
AcDbEntity
  8
1_cut
  6
ByLayer
 62
  256
370
   -1
100
AcDbCircle
 10
-84.89999999999999
 20
-189.5000073429536
 40
2.9
100
AcDbArc
 50
359.9999999999998
 51
81.54348066472924
  0
LINE
  5
13A
100
AcDbEntity
  8
1_cut
  6
ByLayer
 62
  256
370
   -1
100
AcDbLine
 10
-84.89999999999999
 20
-186.1369729987937
 11
-84.89999999999999
 21
-181.1000073429536
  0
ARC
  5
13B
100
AcDbEntity
  8
1_cut
  6
ByLayer
 62
  256
370
   -1
100
AcDbCircle
 10
-84.39999999999999
 20
-186.1369729987937
 40
0.5
100
AcDbArc
 50
180
 51
261.5434806647292
  0
ARC
  5
13C
100
AcDbEntity
  8
1_cut
  6
ByLayer
 62
  256
370
   -1
100
AcDbCircle
 10
-33.09999999999997
 20
-189.5000073429536
 40
2.9
100
AcDbArc
 50
98.45651933527016
 51
180
  0
LINE
  5
13D
100
AcDbEntity
  8
1_cut
  6
ByLayer
 62
  256
370
   -1
100
AcDbLine
 10
-33.09999999999999
 20
-181.1000073429536
 11
-33.09999999999999
 21
-186.1369729987935
  0
ARC
  5
13E
100
AcDbEntity
  8
1_cut
  6
ByLayer
 62
  256
370
   -1
100
AcDbCircle
 10
-33.59999999999997
 20
-186.1369729987935
 40
0.5
100
AcDbArc
 50
278.4565193352702
 51
0
  0
LINE
  5
13F
100
AcDbEntity
  8
4_cut
  6
ByLayer
 62
  256
370
   -1
100
AcDbLine
 10
-3.500000000000029
 20
-284.2000073429537
 11
-3.500000000000029
 21
-281.2000073429537
  0
LINE
  5
140
100
AcDbEntity
  8
4_cut
  6
ByLayer
 62
  256
370
   -1
100
AcDbLine
 10
-74.5
 20
-284.2000073429537
 11
-74.5
 21
-281.2000073429537
  0
LINE
  5
141
100
AcDbEntity
  8
2_cut
  6
ByLayer
 62
  256
370
   -1
100
AcDbLine
 10
-68.5
 20
-284.2000073429537
 11
-74.5
 21
-284.2000073429537
  0
LINE
  5
142
100
AcDbEntity
  8
1_cut
  6
ByLayer
 62
  256
370
   -1
100
AcDbLine
 10
-91.99999999999999
 20
-258.5500073429537
 11
-95.39999999999999
 21
-258.5500073429537
  0
LINE
  5
143
100
AcDbEntity
  8
1_cut
  6
ByLayer
 62
  256
370
   -1
100
AcDbLine
 10
-95.39999999999999
 20
-258.5500073429537
 11
-95.39999999999999
 21
-268.9500073429537
  0
LINE
  5
144
100
AcDbEntity
  8
1_cut
  6
ByLayer
 62
  256
370
   -1
100
AcDbLine
 10
-91.99999999999999
 20
-268.9500073429537
 11
-91.99999999999999
 21
-258.5500073429537
  0
LINE
  5
145
100
AcDbEntity
  8
1_cut
  6
ByLayer
 62
  256
370
   -1
100
AcDbLine
 10
-95.39999999999999
 20
-268.9500073429537
 11
-91.99999999999999
 21
-268.9500073429537
  0
LINE
  5
146
100
AcDbEntity
  8
1_cut
  6
ByLayer
 62
  256
370
   -1
100
AcDbLine
 10
-2.599999999999996
 20
-258.5500073429537
 11
-6.000000000000002
 21
-258.5500073429537
  0
LINE
  5
147
100
AcDbEntity
  8
1_cut
  6
ByLayer
 62
  256
370
   -1
100
AcDbLine
 10
-6.000000000000002
 20
-258.5500073429537
 11
-6.000000000000002
 21
-268.9500073429535
  0
LINE
  5
148
100
AcDbEntity
  8
1_cut
  6
ByLayer
 62
  256
370
   -1
100
AcDbLine
 10
-2.599999999999996
 20
-268.9500073429537
 11
-2.599999999999996
 21
-258.5500073429537
  0
LINE
  5
149
100
AcDbEntity
  8
1_cut
  6
ByLayer
 62
  256
370
   -1
100
AcDbLine
 10
-6.000000000000002
 20
-268.9500073429535
 11
-2.599999999999996
 21
-268.9500073429537
  0
LINE
  5
14A
100
AcDbEntity
  8
4_cut
  6
ByLayer
 62
  256
370
   -1
100
AcDbLine
 10
-97.99999999999999
 20
-245.6000073429537
 11
-97.99999999999999
 21
-281.2000073429537
  0
LINE
  5
14B
100
AcDbEntity
  8
4_cut
  6
ByLayer
 62
  256
370
   -1
100
AcDbLine
 10
-97.99999999999999
 20
-281.2000073429537
 11
-74.5
 21
-281.2000073429537
  0
LINE
  5
14C
100
AcDbEntity
  8
4_cut
  6
ByLayer
 62
  256
370
   -1
100
AcDbLine
 10
-1.332267629550188e-15
 20
-281.2000073429537
 11
-1.332267629550188e-15
 21
-245.6000073429537
  0
LINE
  5
14D
100
AcDbEntity
  8
4_cut
  6
ByLayer
 62
  256
370
   -1
100
AcDbLine
 10
-3.500000000000029
 20
-281.2000073429537
 11
-1.332267629550188e-15
 21
-281.2000073429537
  0
LINE
  5
14E
100
AcDbEntity
  8
1_cut
  6
ByLayer
 62
  256
370
   -1
100
AcDbLine
 10
-62.06666666666663
 20
-245.6000073429537
 11
-62.06666666666663
 21
-242.6000073429537
  0
LINE
  5
14F
100
AcDbEntity
  8
4_cut
  6
ByLayer
 62
  256
370
   -1
100
AcDbLine
 10
-72.06666666666663
 20
-242.6000073429537
 11
-72.06666666666663
 21
-245.6000073429537
  0
LINE
  5
150
100
AcDbEntity
  8
4_cut
  6
ByLayer
 62
  256
370
   -1
100
AcDbLine
 10
-25.93333333333334
 20
-245.6000073429537
 11
-25.93333333333334
 21
-242.6000073429536
  0
LINE
  5
151
100
AcDbEntity
  8
1_cut
  6
ByLayer
 62
  256
370
   -1
100
AcDbLine
 10
-35.93333333333334
 20
-242.6000073429536
 11
-35.93333333333334
 21
-245.6000073429537
  0
LINE
  5
152
100
AcDbEntity
  8
4_cut
  6
ByLayer
 62
  256
370
   -1
100
AcDbLine
 10
-1.332267629550188e-15
 20
-245.6000073429537
 11
-25.93333333333334
 21
-245.6000073429537
  0
LINE
  5
153
100
AcDbEntity
  8
1_cut
  6
ByLayer
 62
  256
370
   -1
100
AcDbLine
 10
-35.93333333333334
 20
-245.6000073429537
 11
-62.06666666666663
 21
-245.6000073429537
  0
LINE
  5
154
100
AcDbEntity
  8
4_cut
  6
ByLayer
 62
  256
370
   -1
100
AcDbLine
 10
-72.06666666666663
 20
-245.6000073429537
 11
-97.99999999999999
 21
-245.6000073429537
  0
LINE
  5
155
100
AcDbEntity
  8
1_cut
  6
ByLayer
 62
  256
370
   -1
100
AcDbLine
 10
-9.500000000000032
 20
-284.2000073429537
 11
-9.500000000000032
 21
-260.1000073429536
  0
ARC
  5
156
100
AcDbEntity
  8
1_cut
  6
ByLayer
 62
  256
370
   -1
100
AcDbCircle
 10
-10.50000000000003
 20
-260.1000073429536
 40
1
100
AcDbArc
 50
0
 51
90
  0
LINE
  5
157
100
AcDbEntity
  8
1_cut
  6
ByLayer
 62
  256
370
   -1
100
AcDbLine
 10
-64.2
 20
-259.1000073429536
 11
-67.5
 21
-259.1000073429536
  0
LINE
  5
158
100
AcDbEntity
  8
1_cut
  6
ByLayer
 62
  256
370
   -1
100
AcDbLine
 10
-68.5
 20
-260.1000073429536
 11
-68.5
 21
-284.2000073429537
  0
ARC
  5
159
100
AcDbEntity
  8
1_cut
  6
ByLayer
 62
  256
370
   -1
100
AcDbCircle
 10
-67.5
 20
-260.1000073429536
 40
1
100
AcDbArc
 50
90
 51
180
  0
LINE
  5
15A
100
AcDbEntity
  8
4_cut
  6
ByLayer
 62
  256
370
   -1
100
AcDbLine
 10
-71.25000000000003
 20
-62.99999999999983
 11
-74.5
 21
-62.99999999999983
  0
LINE
  5
15B
100
AcDbEntity
  8
4_cut
  6
ByLayer
 62
  256
370
   -1
100
AcDbLine
 10
-21.95000000000003
 20
-13.26666666666654
 11
-21.95000000000003
 21
-16.26666666666654
  0
LINE
  5
15C
100
AcDbEntity
  8
4_cut
  6
ByLayer
 62
  256
370
   -1
100
AcDbLine
 10
-31.95000000000002
 20
-16.26666666666654
 11
-31.95000000000002
 21
-13.26666666666654
  0
LINE
  5
15D
100
AcDbEntity
  8
4_cut
  6
ByLayer
 62
  256
370
   -1
100
AcDbLine
 10
-31.95000000000002
 20
-13.26666666666654
 11
-21.95000000000003
 21
-13.26666666666654
  0
LINE
  5
15E
100
AcDbEntity
  8
3_cut
  6
ByLayer
 62
  256
370
   -1
100
AcDbLine
 10
-31.95000000000002
 20
-73.26666666666654
 11
-31.95000000000002
 21
-76.26666666666654
  0
LINE
  5
15F
100
AcDbEntity
  8
3_cut
  6
ByLayer
 62
  256
370
   -1
100
AcDbLine
 10
-31.95000000000002
 20
-76.26666666666654
 11
-21.95000000000003
 21
-76.26666666666654
  0
LINE
  5
160
100
AcDbEntity
  8
3_cut
  6
ByLayer
 62
  256
370
   -1
100
AcDbLine
 10
-21.95000000000003
 20
-76.26666666666654
 11
-21.95000000000003
 21
-73.26666666666654
  0
LINE
  5
161
100
AcDbEntity
  8
2_cut
  6
ByLayer
 62
  256
370
   -1
100
AcDbLine
 10
-45.10000000000004
 20
-52.99999999999983
 11
-48.10000000000004
 21
-52.99999999999983
  0
LINE
  5
162
100
AcDbEntity
  8
2_cut
  6
ByLayer
 62
  256
370
   -1
100
AcDbLine
 10
-45.10000000000004
 20
-26.53333333333325
 11
-48.10000000000004
 21
-26.53333333333325
  0
LINE
  5
163
100
AcDbEntity
  8
2_cut
  6
ByLayer
 62
  256
370
   -1
100
AcDbLine
 10
-48.10000000000004
 20
-36.53333333333325
 11
-45.10000000000004
 21
-36.53333333333325
  0
LINE
  5
164
100
AcDbEntity
  8
2_cut
  6
ByLayer
 62
  256
370
   -1
100
AcDbLine
 10
-45.10000000000004
 20
-36.53333333333325
 11
-45.10000000000004
 21
-52.99999999999983
  0
LINE
  5
165
100
AcDbEntity
  8
2_cut
  6
ByLayer
 62
  256
370
   -1
100
AcDbLine
 10
-48.10000000000004
 20
-62.99999999999983
 11
-45.10000000000004
 21
-62.99999999999983
  0
LINE
  5
166
100
AcDbEntity
  8
4_cut
  6
ByLayer
 62
  256
370
   -1
100
AcDbLine
 10
-6.500000000000036
 20
-52.99999999999983
 11
-6.500000000000036
 21
-62.99999999999983
  0
LINE
  5
167
100
AcDbEntity
  8
4_cut
  6
ByLayer
 62
  256
370
   -1
100
AcDbLine
 10
-6.500000000000036
 20
-26.53333333333325
 11
-6.500000000000036
 21
-36.53333333333325
  0
LINE
  5
168
100
AcDbEntity
  8
4_cut
  6
ByLayer
 62
  256
370
   -1
100
AcDbLine
 10
-9.500000000000032
 20
-52.99999999999983
 11
-6.500000000000036
 21
-52.99999999999983
  0
LINE
  5
169
100
AcDbEntity
  8
4_cut
  6
ByLayer
 62
  256
370
   -1
100
AcDbLine
 10
-9.500000000000032
 20
-36.53333333333325
 11
-9.500000000000032
 21
-52.99999999999983
  0
LINE
  5
16A
100
AcDbEntity
  8
4_cut
  6
ByLayer
 62
  256
370
   -1
100
AcDbLine
 10
-6.500000000000036
 20
-36.53333333333325
 11
-9.500000000000032
 21
-36.53333333333325
  0
LINE
  5
16B
100
AcDbEntity
  8
4_cut
  6
ByLayer
 62
  256
370
   -1
100
AcDbLine
 10
-9.500000000000032
 20
-26.53333333333325
 11
-6.500000000000036
 21
-26.53333333333325
  0
LINE
  5
16C
100
AcDbEntity
  8
4_cut
  6
ByLayer
 62
  256
370
   -1
100
AcDbLine
 10
-9.500000000000032
 20
-16.26666666666654
 11
-9.500000000000032
 21
-26.53333333333325
  0
LINE
  5
16D
100
AcDbEntity
  8
4_cut
  6
ByLayer
 62
  256
370
   -1
100
AcDbLine
 10
-31.95000000000002
 20
-16.26666666666654
 11
-45.10000000000004
 21
-16.26666666666654
  0
LINE
  5
16E
100
AcDbEntity
  8
3_cut
  6
ByLayer
 62
  256
370
   -1
100
AcDbLine
 10
-31.95000000000002
 20
-73.26666666666654
 11
-45.10000000000004
 21
-73.26666666666654
  0
LINE
  5
16F
100
AcDbEntity
  8
3_cut
  6
ByLayer
 62
  256
370
   -1
100
AcDbLine
 10
-45.10000000000004
 20
-62.99999999999983
 11
-45.10000000000004
 21
-73.26666666666654
  0
LINE
  5
170
100
AcDbEntity
  8
3_cut
  6
ByLayer
 62
  256
370
   -1
100
AcDbLine
 10
-9.500000000000032
 20
-73.26666666666654
 11
-21.95000000000003
 21
-73.26666666666654
  0
LINE
  5
171
100
AcDbEntity
  8
1_cut
  6
ByLayer
 62
  256
370
   -1
100
AcDbLine
 10
-19.60000000000003
 20
-18.76166666666654
 11
-33.50000000000004
 21
-18.76166666666654
  0
LINE
  5
172
100
AcDbEntity
  8
1_cut
  6
ByLayer
 62
  256
370
   -1
100
AcDbLine
 10
-33.50000000000004
 20
-35.27166666666642
 11
-19.60000000000003
 21
-35.27166666666642
  0
LINE
  5
173
100
AcDbEntity
  8
1_cut
  6
ByLayer
 62
  256
370
   -1
100
AcDbLine
 10
-33.50000000000004
 20
-18.76166666666654
 11
-33.50000000000004
 21
-35.27166666666642
  0
LINE
  5
174
100
AcDbEntity
  8
1_cut
  6
ByLayer
 62
  256
370
   -1
100
AcDbLine
 10
-19.60000000000003
 20
-38.01666666666654
 11
-36.50000000000004
 21
-38.01666666666654
  0
LINE
  5
175
100
AcDbEntity
  8
1_cut
  6
ByLayer
 62
  256
370
   -1
100
AcDbLine
 10
-36.50000000000004
 20
-38.01666666666654
 11
-36.50000000000004
 21
-53.51666666666654
  0
LINE
  5
176
100
AcDbEntity
  8
1_cut
  6
ByLayer
 62
  256
370
   -1
100
AcDbLine
 10
-36.50000000000004
 20
-53.51666666666654
 11
-19.60000000000003
 21
-53.51666666666654
  0
LINE
  5
177
100
AcDbEntity
  8
1_cut
  6
ByLayer
 62
  256
370
   -1
100
AcDbLine
 10
-19.60000000000003
 20
-55.9166666666664
 11
-36.50000000000004
 21
-55.9166666666664
  0
LINE
  5
178
100
AcDbEntity
  8
1_cut
  6
ByLayer
 62
  256
370
   -1
100
AcDbLine
 10
-36.50000000000004
 20
-71.6166666666665
 11
-19.60000000000003
 21
-71.6166666666665
  0
LINE
  5
179
100
AcDbEntity
  8
1_cut
  6
ByLayer
 62
  256
370
   -1
100
AcDbLine
 10
-36.50000000000004
 20
-55.9166666666664
 11
-36.50000000000004
 21
-71.6166666666665
  0
LINE
  5
17A
100
AcDbEntity
  8
1_cut
  6
ByLayer
 62
  256
370
   -1
100
AcDbLine
 10
-19.60000000000003
 20
-18.76166666666654
 11
-19.60000000000003
 21
-35.27166666666642
  0
LINE
  5
17B
100
AcDbEntity
  8
1_cut
  6
ByLayer
 62
  256
370
   -1
100
AcDbLine
 10
-19.60000000000003
 20
-38.01666666666654
 11
-19.60000000000003
 21
-53.51666666666654
  0
LINE
  5
17C
100
AcDbEntity
  8
1_cut
  6
ByLayer
 62
  256
370
   -1
100
AcDbLine
 10
-19.60000000000003
 20
-55.9166666666664
 11
-19.60000000000003
 21
-71.6166666666665
  0
ARC
  5
17D
100
AcDbEntity
  8
4_cut
  6
ByLayer
 62
  256
370
   -1
100
AcDbCircle
 10
-58.80000000000003
 20
-21.98999999999995
 40
1
100
AcDbArc
 50
180
 51
270
  0
LINE
  5
17E
100
AcDbEntity
  8
4_cut
  6
ByLayer
 62
  256
370
   -1
100
AcDbLine
 10
-58.80000000000003
 20
-22.98999999999995
 11
-59.00000000000004
 21
-22.98999999999995
  0
ARC
  5
17F
100
AcDbEntity
  8
4_cut
  6
ByLayer
 62
  256
370
   -1
100
AcDbCircle
 10
-59.00000000000004
 20
-23.98999999999995
 40
1
100
AcDbArc
 50
0
 51
90
  0
LINE
  5
180
100
AcDbEntity
  8
4_cut
  6
ByLayer
 62
  256
370
   -1
100
AcDbLine
 10
-58.00000000000004
 20
-23.98999999999995
 11
-58.00000000000004
 21
-38.98999999999995
  0
ARC
  5
181
100
AcDbEntity
  8
4_cut
  6
ByLayer
 62
  256
370
   -1
100
AcDbCircle
 10
-59.00000000000004
 20
-38.98999999999995
 40
1
100
AcDbArc
 50
270
 51
0
  0
LINE
  5
182
100
AcDbEntity
  8
4_cut
  6
ByLayer
 62
  256
370
   -1
100
AcDbLine
 10
-59.00000000000004
 20
-39.98999999999995
 11
-58.80000000000003
 21
-39.98999999999995
  0
ARC
  5
183
100
AcDbEntity
  8
4_cut
  6
ByLayer
 62
  256
370
   -1
100
AcDbCircle
 10
-58.80000000000003
 20
-40.98999999999995
 40
1
100
AcDbArc
 50
90
 51
180
  0
ARC
  5
184
100
AcDbEntity
  8
4_cut
  6
ByLayer
 62
  256
370
   -1
100
AcDbCircle
 10
-70.80000000000003
 20
-51.99999999999994
 40
1
100
AcDbArc
 50
180
 51
270
  0
LINE
  5
185
100
AcDbEntity
  8
4_cut
  6
ByLayer
 62
  256
370
   -1
100
AcDbLine
 10
-70.80000000000003
 20
-52.99999999999994
 11
-60.80000000000003
 21
-52.99999999999994
  0
LINE
  5
186
100
AcDbEntity
  8
4_cut
  6
ByLayer
 62
  256
370
   -1
100
AcDbLine
 10
-59.80000000000003
 20
-40.98999999999995
 11
-59.80000000000003
 21
-51.99999999999994
  0
ARC
  5
187
100
AcDbEntity
  8
4_cut
  6
ByLayer
 62
  256
370
   -1
100
AcDbCircle
 10
-60.80000000000003
 20
-51.99999999999994
 40
1
100
AcDbArc
 50
270
 51
0
  0
LINE
  5
188
100
AcDbEntity
  8
4_cut
  6
ByLayer
 62
  256
370
   -1
100
AcDbLine
 10
-59.80000000000003
 20
-10.99999999999994
 11
-59.80000000000003
 21
-21.98999999999995
  0
ARC
  5
189
100
AcDbEntity
  8
4_cut
  6
ByLayer
 62
  256
370
   -1
100
AcDbCircle
 10
-60.80000000000003
 20
-10.99999999999994
 40
1
100
AcDbArc
 50
0
 51
90
  0
LINE
  5
18A
100
AcDbEntity
  8
4_cut
  6
ByLayer
 62
  256
370
   -1
100
AcDbLine
 10
-60.80000000000003
 20
-9.999999999999943
 11
-70.80000000000003
 21
-9.999999999999943
  0
ARC
  5
18B
100
AcDbEntity
  8
4_cut
  6
ByLayer
 62
  256
370
   -1
100
AcDbCircle
 10
-70.80000000000003
 20
-10.99999999999994
 40
1
100
AcDbArc
 50
90
 51
180
  0
ARC
  5
18C
100
AcDbEntity
  8
1_cut
  6
ByLayer
 62
  256
370
   -1
100
AcDbCircle
 10
-73.10000000000002
 20
-51.44999999999993
 40
0.5
100
AcDbArc
 50
90
 51
180
  0
LINE
  5
18D
100
AcDbEntity
  8
1_cut
  6
ByLayer
 62
  256
370
   -1
100
AcDbLine
 10
-73.10000000000002
 20
-50.94999999999993
 11
-73.10000000000002
 21
-50.94999999999993
  0
ARC
  5
18E
100
AcDbEntity
  8
1_cut
  6
ByLayer
 62
  256
370
   -1
100
AcDbCircle
 10
-73.10000000000002
 20
-51.44999999999993
 40
0.5
100
AcDbArc
 50
0
 51
90
  0
LINE
  5
18F
100
AcDbEntity
  8
1_cut
  6
ByLayer
 62
  256
370
   -1
100
AcDbLine
 10
-72.60000000000002
 20
-51.74999999999994
 11
-72.60000000000002
 21
-51.44999999999993
  0
ARC
  5
190
100
AcDbEntity
  8
1_cut
  6
ByLayer
 62
  256
370
   -1
100
AcDbCircle
 10
-73.10000000000002
 20
-51.74999999999994
 40
0.5
100
AcDbArc
 50
270
 51
0
  0
LINE
  5
191
100
AcDbEntity
  8
1_cut
  6
ByLayer
 62
  256
370
   -1
100
AcDbLine
 10
-73.10000000000002
 20
-52.24999999999994
 11
-73.10000000000002
 21
-52.24999999999994
  0
LINE
  5
192
100
AcDbEntity
  8
1_cut
  6
ByLayer
 62
  256
370
   -1
100
AcDbLine
 10
-73.60000000000002
 20
-51.74999999999994
 11
-73.60000000000002
 21
-51.44999999999993
  0
ARC
  5
193
100
AcDbEntity
  8
1_cut
  6
ByLayer
 62
  256
370
   -1
100
AcDbCircle
 10
-73.10000000000002
 20
-51.74999999999994
 40
0.5
100
AcDbArc
 50
180
 51
270
  0
ARC
  5
194
100
AcDbEntity
  8
1_cut
  6
ByLayer
 62
  256
370
   -1
100
AcDbCircle
 10
-73.10000000000002
 20
-47.84999999999991
 40
0.5
100
AcDbArc
 50
90
 51
180
  0
LINE
  5
195
100
AcDbEntity
  8
1_cut
  6
ByLayer
 62
  256
370
   -1
100
AcDbLine
 10
-73.10000000000002
 20
-47.34999999999991
 11
-73.10000000000002
 21
-47.34999999999991
  0
ARC
  5
196
100
AcDbEntity
  8
1_cut
  6
ByLayer
 62
  256
370
   -1
100
AcDbCircle
 10
-73.10000000000002
 20
-47.84999999999991
 40
0.5
100
AcDbArc
 50
0
 51
90
  0
LINE
  5
197
100
AcDbEntity
  8
1_cut
  6
ByLayer
 62
  256
370
   -1
100
AcDbLine
 10
-72.60000000000002
 20
-48.15000000000003
 11
-72.60000000000002
 21
-47.84999999999991
  0
ARC
  5
198
100
AcDbEntity
  8
1_cut
  6
ByLayer
 62
  256
370
   -1
100
AcDbCircle
 10
-73.10000000000002
 20
-48.15000000000003
 40
0.5
100
AcDbArc
 50
270
 51
0
  0
LINE
  5
199
100
AcDbEntity
  8
1_cut
  6
ByLayer
 62
  256
370
   -1
100
AcDbLine
 10
-73.10000000000002
 20
-48.65000000000003
 11
-73.10000000000002
 21
-48.65000000000003
  0
LINE
  5
19A
100
AcDbEntity
  8
1_cut
  6
ByLayer
 62
  256
370
   -1
100
AcDbLine
 10
-73.60000000000002
 20
-48.15000000000003
 11
-73.60000000000002
 21
-47.84999999999991
  0
ARC
  5
19B
100
AcDbEntity
  8
1_cut
  6
ByLayer
 62
  256
370
   -1
100
AcDbCircle
 10
-73.10000000000002
 20
-48.15000000000003
 40
0.5
100
AcDbArc
 50
180
 51
270
  0
ARC
  5
19C
100
AcDbEntity
  8
1_cut
  6
ByLayer
 62
  256
370
   -1
100
AcDbCircle
 10
-73.10000000000002
 20
-11.54999999999995
 40
0.5
100
AcDbArc
 50
180
 51
270
  0
LINE
  5
19D
100
AcDbEntity
  8
1_cut
  6
ByLayer
 62
  256
370
   -1
100
AcDbLine
 10
-73.10000000000002
 20
-12.04999999999995
 11
-73.10000000000002
 21
-12.04999999999995
  0
ARC
  5
19E
100
AcDbEntity
  8
1_cut
  6
ByLayer
 62
  256
370
   -1
100
AcDbCircle
 10
-73.10000000000002
 20
-11.54999999999995
 40
0.5
100
AcDbArc
 50
270
 51
0
  0
LINE
  5
19F
100
AcDbEntity
  8
1_cut
  6
ByLayer
 62
  256
370
   -1
100
AcDbLine
 10
-72.60000000000002
 20
-11.24999999999994
 11
-72.60000000000002
 21
-11.54999999999995
  0
ARC
  5
1A0
100
AcDbEntity
  8
1_cut
  6
ByLayer
 62
  256
370
   -1
100
AcDbCircle
 10
-73.10000000000002
 20
-11.24999999999994
 40
0.5
100
AcDbArc
 50
0
 51
90
  0
LINE
  5
1A1
100
AcDbEntity
  8
1_cut
  6
ByLayer
 62
  256
370
   -1
100
AcDbLine
 10
-73.10000000000002
 20
-10.74999999999994
 11
-73.10000000000002
 21
-10.74999999999994
  0
LINE
  5
1A2
100
AcDbEntity
  8
1_cut
  6
ByLayer
 62
  256
370
   -1
100
AcDbLine
 10
-73.60000000000002
 20
-11.24999999999994
 11
-73.60000000000002
 21
-11.54999999999995
  0
ARC
  5
1A3
100
AcDbEntity
  8
1_cut
  6
ByLayer
 62
  256
370
   -1
100
AcDbCircle
 10
-73.10000000000002
 20
-11.24999999999994
 40
0.5
100
AcDbArc
 50
90
 51
180
  0
ARC
  5
1A4
100
AcDbEntity
  8
1_cut
  6
ByLayer
 62
  256
370
   -1
100
AcDbCircle
 10
-73.10000000000002
 20
-15.15000000000003
 40
0.5
100
AcDbArc
 50
180
 51
270
  0
LINE
  5
1A5
100
AcDbEntity
  8
1_cut
  6
ByLayer
 62
  256
370
   -1
100
AcDbLine
 10
-73.10000000000002
 20
-15.65000000000003
 11
-73.10000000000002
 21
-15.65000000000003
  0
ARC
  5
1A6
100
AcDbEntity
  8
1_cut
  6
ByLayer
 62
  256
370
   -1
100
AcDbCircle
 10
-73.10000000000002
 20
-15.15000000000003
 40
0.5
100
AcDbArc
 50
270
 51
0
  0
LINE
  5
1A7
100
AcDbEntity
  8
1_cut
  6
ByLayer
 62
  256
370
   -1
100
AcDbLine
 10
-72.60000000000002
 20
-14.84999999999991
 11
-72.60000000000002
 21
-15.15000000000003
  0
ARC
  5
1A8
100
AcDbEntity
  8
1_cut
  6
ByLayer
 62
  256
370
   -1
100
AcDbCircle
 10
-73.10000000000002
 20
-14.84999999999991
 40
0.5
100
AcDbArc
 50
0
 51
90
  0
LINE
  5
1A9
100
AcDbEntity
  8
1_cut
  6
ByLayer
 62
  256
370
   -1
100
AcDbLine
 10
-73.10000000000002
 20
-14.34999999999991
 11
-73.10000000000002
 21
-14.34999999999991
  0
LINE
  5
1AA
100
AcDbEntity
  8
1_cut
  6
ByLayer
 62
  256
370
   -1
100
AcDbLine
 10
-73.60000000000002
 20
-14.84999999999991
 11
-73.60000000000002
 21
-15.15000000000003
  0
ARC
  5
1AB
100
AcDbEntity
  8
1_cut
  6
ByLayer
 62
  256
370
   -1
100
AcDbCircle
 10
-73.10000000000002
 20
-14.84999999999991
 40
0.5
100
AcDbArc
 50
90
 51
180
  0
LINE
  5
1AC
100
AcDbEntity
  8
4_cut
  6
ByLayer
 62
  256
370
   -1
100
AcDbLine
 10
-71.25000000000003
 20
0
 11
-71.25000000000003
 21
-2.999999999999943
  0
LINE
  5
1AD
100
AcDbEntity
  8
4_cut
  6
ByLayer
 62
  256
370
   -1
100
AcDbLine
 10
-61.25000000000004
 20
-2.999999999999943
 11
-61.25000000000004
 21
0
  0
LINE
  5
1AE
100
AcDbEntity
  8
4_cut
  6
ByLayer
 62
  256
370
   -1
100
AcDbLine
 10
-61.25000000000004
 20
0
 11
-71.25000000000003
 21
0
  0
LINE
  5
1AF
100
AcDbEntity
  8
2_cut
  6
ByLayer
 62
  256
370
   -1
100
AcDbLine
 10
-61.25000000000004
 20
-59.99999999999994
 11
-61.25000000000004
 21
-62.99999999999994
  0
LINE
  5
1B0
100
AcDbEntity
  8
2_cut
  6
ByLayer
 62
  256
370
   -1
100
AcDbLine
 10
-61.25000000000004
 20
-62.99999999999994
 11
-71.25000000000003
 21
-62.99999999999994
  0
LINE
  5
1B1
100
AcDbEntity
  8
4_cut
  6
ByLayer
 62
  256
370
   -1
100
AcDbLine
 10
-71.25000000000003
 20
-62.99999999999994
 11
-71.25000000000003
 21
-59.99999999999994
  0
LINE
  5
1B2
100
AcDbEntity
  8
2_cut
  6
ByLayer
 62
  256
370
   -1
100
AcDbLine
 10
-48.10000000000004
 20
-39.73333333333323
 11
-45.10000000000004
 21
-39.73333333333323
  0
LINE
  5
1B3
100
AcDbEntity
  8
2_cut
  6
ByLayer
 62
  256
370
   -1
100
AcDbLine
 10
-45.10000000000004
 20
-13.26666666666665
 11
-45.10000000000004
 21
-23.26666666666665
  0
LINE
  5
1B4
100
AcDbEntity
  8
4_cut
  6
ByLayer
 62
  256
370
   -1
100
AcDbLine
 10
-48.10000000000004
 20
-2.999999999999943
 11
-48.10000000000004
 21
-13.26666666666665
  0
LINE
  5
1B5
100
AcDbEntity
  8
4_cut
  6
ByLayer
 62
  256
370
   -1
100
AcDbLine
 10
-48.10000000000004
 20
-13.26666666666665
 11
-45.10000000000004
 21
-13.26666666666665
  0
LINE
  5
1B6
100
AcDbEntity
  8
2_cut
  6
ByLayer
 62
  256
370
   -1
100
AcDbLine
 10
-45.10000000000004
 20
-23.26666666666665
 11
-48.10000000000004
 21
-23.26666666666665
  0
LINE
  5
1B7
100
AcDbEntity
  8
2_cut
  6
ByLayer
 62
  256
370
   -1
100
AcDbLine
 10
-48.10000000000004
 20
-23.26666666666665
 11
-48.10000000000004
 21
-39.73333333333323
  0
LINE
  5
1B8
100
AcDbEntity
  8
2_cut
  6
ByLayer
 62
  256
370
   -1
100
AcDbLine
 10
-45.10000000000004
 20
-49.73333333333323
 11
-48.10000000000004
 21
-49.73333333333323
  0
LINE
  5
1B9
100
AcDbEntity
  8
4_cut
  6
ByLayer
 62
  256
370
   -1
100
AcDbLine
 10
-86.70000000000002
 20
-39.73333333333323
 11
-86.70000000000002
 21
-49.73333333333323
  0
LINE
  5
1BA
100
AcDbEntity
  8
4_cut
  6
ByLayer
 62
  256
370
   -1
100
AcDbLine
 10
-86.70000000000002
 20
-13.26666666666665
 11
-86.70000000000002
 21
-23.26666666666665
  0
LINE
  5
1BB
100
AcDbEntity
  8
4_cut
  6
ByLayer
 62
  256
370
   -1
100
AcDbLine
 10
-83.70000000000002
 20
-49.73333333333323
 11
-83.70000000000002
 21
-59.99999999999994
  0
LINE
  5
1BC
100
AcDbEntity
  8
4_cut
  6
ByLayer
 62
  256
370
   -1
100
AcDbLine
 10
-86.70000000000002
 20
-49.73333333333323
 11
-83.70000000000002
 21
-49.73333333333323
  0
LINE
  5
1BD
100
AcDbEntity
  8
4_cut
  6
ByLayer
 62
  256
370
   -1
100
AcDbLine
 10
-83.70000000000002
 20
-13.26666666666665
 11
-86.70000000000002
 21
-13.26666666666665
  0
LINE
  5
1BE
100
AcDbEntity
  8
4_cut
  6
ByLayer
 62
  256
370
   -1
100
AcDbLine
 10
-83.70000000000002
 20
-2.999999999999943
 11
-83.70000000000002
 21
-13.26666666666665
  0
LINE
  5
1BF
100
AcDbEntity
  8
4_cut
  6
ByLayer
 62
  256
370
   -1
100
AcDbLine
 10
-61.25000000000004
 20
-2.999999999999943
 11
-48.10000000000004
 21
-2.999999999999943
  0
LINE
  5
1C0
100
AcDbEntity
  8
2_cut
  6
ByLayer
 62
  256
370
   -1
100
AcDbLine
 10
-61.25000000000004
 20
-59.99999999999994
 11
-48.10000000000004
 21
-59.99999999999994
  0
LINE
  5
1C1
100
AcDbEntity
  8
4_cut
  6
ByLayer
 62
  256
370
   -1
100
AcDbLine
 10
-83.70000000000002
 20
-59.99999999999994
 11
-71.25000000000003
 21
-59.99999999999994
  0
LINE
  5
1C2
100
AcDbEntity
  8
4_cut
  6
ByLayer
 62
  256
370
   -1
100
AcDbLine
 10
-86.70000000000002
 20
-23.26666666666665
 11
-72.80000000000003
 21
-23.26666666666665
  0
LINE
  5
1C3
100
AcDbEntity
  8
4_cut
  6
ByLayer
 62
  256
370
   -1
100
AcDbLine
 10
-71.80000000000003
 20
-10.99999999999994
 11
-71.80000000000003
 21
-22.26666666666665
  0
ARC
  5
1C4
100
AcDbEntity
  8
4_cut
  6
ByLayer
 62
  256
370
   -1
100
AcDbCircle
 10
-72.80000000000003
 20
-22.26666666666665
 40
1
100
AcDbArc
 50
270
 51
0
  0
LINE
  5
1C5
100
AcDbEntity
  8
4_cut
  6
ByLayer
 62
  256
370
   -1
100
AcDbLine
 10
-72.80000000000003
 20
-39.73333333333323
 11
-86.70000000000002
 21
-39.73333333333323
  0
LINE
  5
1C6
100
AcDbEntity
  8
4_cut
  6
ByLayer
 62
  256
370
   -1
100
AcDbLine
 10
-71.80000000000003
 20
-40.73333333333323
 11
-71.80000000000003
 21
-51.99999999999994
  0
ARC
  5
1C7
100
AcDbEntity
  8
4_cut
  6
ByLayer
 62
  256
370
   -1
100
AcDbCircle
 10
-72.80000000000003
 20
-40.73333333333323
 40
1
100
AcDbArc
 50
0
 51
90
  0
LINE
  5
1C8
100
AcDbEntity
  8
2_cut
  6
ByLayer
 62
  256
370
   -1
100
AcDbLine
 10
-45.10000000000004
 20
-23.26666666666665
 11
-45.10000000000004
 21
-26.53333333333325
  0
MTEXT
  5
1C9
100
AcDbEntity
  8
0_engrave
  6
ByLayer
 62
  256
370
   -1
100
AcDbMText
 10
-81.09999999999999
 20
-263.7500073429536
 30
0
 40
6
 41
16.00000000000028
 71
    5
 72
    1
  1
Frog
  7
opengosttypeb-regular
210
0
220
0
230
1
 50
0
 73
    2
 44
1
  0
MTEXT
  5
1CA
100
AcDbEntity
  8
0_engrave
  6
ByLayer
 62
  256
370
   -1
100
AcDbMText
 10
-81.09999999999998
 20
-83.44999999999983
 30
0
 40
6
 41
16.00000000000028
 71
    5
 72
    1
  1
Frog
  7
opengosttypeb-regular
210
0
220
0
230
1
 50
180
 73
    2
 44
1
  0
LINE
  5
1CB
100
AcDbEntity
  8
4_cut
  6
ByLayer
 62
  256
370
   -1
100
AcDbLine
 10
-3.500000000000028
 20
-284.2000073429537
 11
-3.500000000000028
 21
-287.2000073429537
  0
LINE
  5
1CC
100
AcDbEntity
  8
4_cut
  6
ByLayer
 62
  256
370
   -1
100
AcDbLine
 10
-74.5
 20
-284.2000073429537
 11
-74.5
 21
-287.2000073429537
  0
LINE
  5
1CD
100
AcDbEntity
  8
1_cut
  6
ByLayer
 62
  256
370
   -1
100
AcDbLine
 10
-91.99999999999999
 20
-309.8500073429537
 11
-95.39999999999999
 21
-309.8500073429537
  0
LINE
  5
1CE
100
AcDbEntity
  8
1_cut
  6
ByLayer
 62
  256
370
   -1
100
AcDbLine
 10
-95.39999999999999
 20
-309.8500073429537
 11
-95.39999999999999
 21
-299.4500073429537
  0
LINE
  5
1CF
100
AcDbEntity
  8
1_cut
  6
ByLayer
 62
  256
370
   -1
100
AcDbLine
 10
-91.99999999999999
 20
-299.4500073429537
 11
-91.99999999999999
 21
-309.8500073429537
  0
LINE
  5
1D0
100
AcDbEntity
  8
1_cut
  6
ByLayer
 62
  256
370
   -1
100
AcDbLine
 10
-95.39999999999999
 20
-299.4500073429537
 11
-91.99999999999999
 21
-299.4500073429537
  0
LINE
  5
1D1
100
AcDbEntity
  8
1_cut
  6
ByLayer
 62
  256
370
   -1
100
AcDbLine
 10
-2.599999999999993
 20
-309.8500073429537
 11
-5.999999999999998
 21
-309.8500073429537
  0
LINE
  5
1D2
100
AcDbEntity
  8
1_cut
  6
ByLayer
 62
  256
370
   -1
100
AcDbLine
 10
-5.999999999999998
 20
-309.8500073429537
 11
-5.999999999999998
 21
-299.4500073429539
  0
LINE
  5
1D3
100
AcDbEntity
  8
1_cut
  6
ByLayer
 62
  256
370
   -1
100
AcDbLine
 10
-2.599999999999993
 20
-299.4500073429537
 11
-2.599999999999993
 21
-309.8500073429537
  0
LINE
  5
1D4
100
AcDbEntity
  8
1_cut
  6
ByLayer
 62
  256
370
   -1
100
AcDbLine
 10
-5.999999999999998
 20
-299.4500073429539
 11
-2.599999999999993
 21
-299.4500073429537
  0
LINE
  5
1D5
100
AcDbEntity
  8
4_cut
  6
ByLayer
 62
  256
370
   -1
100
AcDbLine
 10
-97.99999999999999
 20
-322.8000073429537
 11
-97.99999999999999
 21
-287.2000073429537
  0
LINE
  5
1D6
100
AcDbEntity
  8
4_cut
  6
ByLayer
 62
  256
370
   -1
100
AcDbLine
 10
-97.99999999999999
 20
-287.2000073429537
 11
-74.5
 21
-287.2000073429537
  0
LINE
  5
1D7
100
AcDbEntity
  8
4_cut
  6
ByLayer
 62
  256
370
   -1
100
AcDbLine
 10
2.97539770599542e-14
 20
-287.2000073429537
 11
2.97539770599542e-14
 21
-322.8000073429537
  0
LINE
  5
1D8
100
AcDbEntity
  8
4_cut
  6
ByLayer
 62
  256
370
   -1
100
AcDbLine
 10
-3.500000000000028
 20
-287.2000073429537
 11
2.97539770599542e-14
 21
-287.2000073429537
  0
LINE
  5
1D9
100
AcDbEntity
  8
4_cut
  6
ByLayer
 62
  256
370
   -1
100
AcDbLine
 10
-62.06666666666663
 20
-322.8000073429537
 11
-62.06666666666663
 21
-325.8000073429537
  0
LINE
  5
1DA
100
AcDbEntity
  8
4_cut
  6
ByLayer
 62
  256
370
   -1
100
AcDbLine
 10
-72.06666666666663
 20
-325.8000073429537
 11
-72.06666666666663
 21
-322.8000073429537
  0
LINE
  5
1DB
100
AcDbEntity
  8
4_cut
  6
ByLayer
 62
  256
370
   -1
100
AcDbLine
 10
-25.93333333333333
 20
-322.8000073429537
 11
-25.93333333333333
 21
-325.8000073429538
  0
LINE
  5
1DC
100
AcDbEntity
  8
4_cut
  6
ByLayer
 62
  256
370
   -1
100
AcDbLine
 10
-35.93333333333334
 20
-325.8000073429538
 11
-35.93333333333334
 21
-322.8000073429537
  0
LINE
  5
1DD
100
AcDbEntity
  8
4_cut
  6
ByLayer
 62
  256
370
   -1
100
AcDbLine
 10
2.97539770599542e-14
 20
-322.8000073429537
 11
-25.93333333333333
 21
-322.8000073429537
  0
LINE
  5
1DE
100
AcDbEntity
  8
4_cut
  6
ByLayer
 62
  256
370
   -1
100
AcDbLine
 10
-35.93333333333334
 20
-322.8000073429537
 11
-62.06666666666663
 21
-322.8000073429537
  0
LINE
  5
1DF
100
AcDbEntity
  8
4_cut
  6
ByLayer
 62
  256
370
   -1
100
AcDbLine
 10
-72.06666666666663
 20
-322.8000073429537
 11
-97.99999999999999
 21
-322.8000073429537
  0
LINE
  5
1E0
100
AcDbEntity
  8
1_cut
  6
ByLayer
 62
  256
370
   -1
100
AcDbLine
 10
-9.500000000000025
 20
-284.2000073429537
 11
-9.500000000000025
 21
-308.3000073429538
  0
LINE
  5
1E1
100
AcDbEntity
  8
1_cut
  6
ByLayer
 62
  256
370
   -1
100
AcDbLine
 10
-13.79999999999999
 20
-309.3000073429538
 11
-10.50000000000003
 21
-309.3000073429538
  0
ARC
  5
1E2
100
AcDbEntity
  8
1_cut
  6
ByLayer
 62
  256
370
   -1
100
AcDbCircle
 10
-10.50000000000003
 20
-308.3000073429538
 40
1
100
AcDbArc
 50
270
 51
0
  0
LINE
  5
1E3
100
AcDbEntity
  8
1_cut
  6
ByLayer
 62
  256
370
   -1
100
AcDbLine
 10
-68.5
 20
-308.3000073429538
 11
-68.5
 21
-284.2000073429537
  0
ARC
  5
1E4
100
AcDbEntity
  8
1_cut
  6
ByLayer
 62
  256
370
   -1
100
AcDbCircle
 10
-67.5
 20
-308.3000073429538
 40
1
100
AcDbArc
 50
180
 51
270
  0
MTEXT
  5
1E5
100
AcDbEntity
  8
0_engrave
  6
ByLayer
 62
  256
370
   -1
100
AcDbMText
 10
-81.09999999999999
 20
-304.6500073429538
 30
0
 40
6
 41
16.00000000000028
 71
    5
 72
    1
  1
Frog
  7

210
0
220
0
230
1
 50
180
 73
    2
 44
1
  0
LINE
  5
1E6
100
AcDbEntity
  8
4_cut
  6
ByLayer
 62
  256
370
   -1
100
AcDbLine
 10
-35.93333333333334
 20
-325.8000073429538
 11
-25.93333333333333
 21
-325.8000073429538
  0
LINE
  5
1E7
100
AcDbEntity
  8
2_cut
  6
ByLayer
 62
  256
370
   -1
100
AcDbLine
 10
-3.500000000000029
 20
-284.2000073429537
 11
-9.500000000000032
 21
-284.2000073429537
  0
LINE
  5
1E8
100
AcDbEntity
  8
4_cut
  6
ByLayer
 62
  256
370
   -1
100
AcDbLine
 10
-3.500000000000028
 20
-325.8000073429537
 11
-3.500000000000028
 21
-328.8000073429537
  0
LINE
  5
1E9
100
AcDbEntity
  8
4_cut
  6
ByLayer
 62
  256
370
   -1
100
AcDbLine
 10
-74.5
 20
-325.8000073429537
 11
-74.5
 21
-328.8000073429537
  0
LINE
  5
1EA
100
AcDbEntity
  8
1_cut
  6
ByLayer
 62
  256
370
   -1
100
AcDbLine
 10
-91.99999999999999
 20
-351.4500073429538
 11
-95.39999999999999
 21
-351.4500073429538
  0
LINE
  5
1EB
100
AcDbEntity
  8
1_cut
  6
ByLayer
 62
  256
370
   -1
100
AcDbLine
 10
-95.39999999999999
 20
-351.4500073429538
 11
-95.39999999999999
 21
-341.0500073429537
  0
LINE
  5
1EC
100
AcDbEntity
  8
1_cut
  6
ByLayer
 62
  256
370
   -1
100
AcDbLine
 10
-91.99999999999999
 20
-341.0500073429537
 11
-91.99999999999999
 21
-351.4500073429538
  0
LINE
  5
1ED
100
AcDbEntity
  8
1_cut
  6
ByLayer
 62
  256
370
   -1
100
AcDbLine
 10
-95.39999999999999
 20
-341.0500073429537
 11
-91.99999999999999
 21
-341.0500073429537
  0
LINE
  5
1EE
100
AcDbEntity
  8
1_cut
  6
ByLayer
 62
  256
370
   -1
100
AcDbLine
 10
-2.599999999999993
 20
-351.4500073429538
 11
-5.999999999999998
 21
-351.4500073429538
  0
LINE
  5
1EF
100
AcDbEntity
  8
1_cut
  6
ByLayer
 62
  256
370
   -1
100
AcDbLine
 10
-5.999999999999998
 20
-351.4500073429538
 11
-5.999999999999998
 21
-341.050007342954
  0
LINE
  5
1F0
100
AcDbEntity
  8
1_cut
  6
ByLayer
 62
  256
370
   -1
100
AcDbLine
 10
-2.599999999999993
 20
-341.0500073429537
 11
-2.599999999999993
 21
-351.4500073429538
  0
LINE
  5
1F1
100
AcDbEntity
  8
1_cut
  6
ByLayer
 62
  256
370
   -1
100
AcDbLine
 10
-5.999999999999998
 20
-341.050007342954
 11
-2.599999999999993
 21
-341.0500073429537
  0
LINE
  5
1F2
100
AcDbEntity
  8
4_cut
  6
ByLayer
 62
  256
370
   -1
100
AcDbLine
 10
-97.99999999999999
 20
-364.4000073429538
 11
-97.99999999999999
 21
-328.8000073429537
  0
LINE
  5
1F3
100
AcDbEntity
  8
4_cut
  6
ByLayer
 62
  256
370
   -1
100
AcDbLine
 10
-97.99999999999999
 20
-328.8000073429537
 11
-74.5
 21
-328.8000073429537
  0
LINE
  5
1F4
100
AcDbEntity
  8
4_cut
  6
ByLayer
 62
  256
370
   -1
100
AcDbLine
 10
2.97539770599542e-14
 20
-328.8000073429537
 11
2.97539770599542e-14
 21
-364.4000073429538
  0
LINE
  5
1F5
100
AcDbEntity
  8
4_cut
  6
ByLayer
 62
  256
370
   -1
100
AcDbLine
 10
-3.500000000000028
 20
-328.8000073429537
 11
2.97539770599542e-14
 21
-328.8000073429537
  0
LINE
  5
1F6
100
AcDbEntity
  8
4_cut
  6
ByLayer
 62
  256
370
   -1
100
AcDbLine
 10
-62.06666666666663
 20
-364.4000073429538
 11
-62.06666666666663
 21
-367.4000073429538
  0
LINE
  5
1F7
100
AcDbEntity
  8
4_cut
  6
ByLayer
 62
  256
370
   -1
100
AcDbLine
 10
-72.06666666666663
 20
-367.4000073429538
 11
-72.06666666666663
 21
-364.4000073429538
  0
LINE
  5
1F8
100
AcDbEntity
  8
4_cut
  6
ByLayer
 62
  256
370
   -1
100
AcDbLine
 10
-25.93333333333333
 20
-364.4000073429538
 11
-25.93333333333333
 21
-367.4000073429538
  0
LINE
  5
1F9
100
AcDbEntity
  8
4_cut
  6
ByLayer
 62
  256
370
   -1
100
AcDbLine
 10
-35.93333333333334
 20
-367.4000073429538
 11
-35.93333333333334
 21
-364.4000073429538
  0
LINE
  5
1FA
100
AcDbEntity
  8
4_cut
  6
ByLayer
 62
  256
370
   -1
100
AcDbLine
 10
2.97539770599542e-14
 20
-364.4000073429538
 11
-25.93333333333333
 21
-364.4000073429538
  0
LINE
  5
1FB
100
AcDbEntity
  8
4_cut
  6
ByLayer
 62
  256
370
   -1
100
AcDbLine
 10
-35.93333333333334
 20
-364.4000073429538
 11
-62.06666666666663
 21
-364.4000073429538
  0
LINE
  5
1FC
100
AcDbEntity
  8
4_cut
  6
ByLayer
 62
  256
370
   -1
100
AcDbLine
 10
-72.06666666666663
 20
-364.4000073429538
 11
-97.99999999999999
 21
-364.4000073429538
  0
LINE
  5
1FD
100
AcDbEntity
  8
4_cut
  6
ByLayer
 62
  256
370
   -1
100
AcDbLine
 10
-9.500000000000025
 20
-325.8000073429537
 11
-9.500000000000025
 21
-349.9000073429539
  0
LINE
  5
1FE
100
AcDbEntity
  8
4_cut
  6
ByLayer
 62
  256
370
   -1
100
AcDbLine
 10
-13.79999999999999
 20
-350.9000073429539
 11
-10.50000000000003
 21
-350.9000073429539
  0
ARC
  5
1FF
100
AcDbEntity
  8
4_cut
  6
ByLayer
 62
  256
370
   -1
100
AcDbCircle
 10
-10.50000000000003
 20
-349.9000073429539
 40
1
100
AcDbArc
 50
270
 51
0
  0
LINE
  5
200
100
AcDbEntity
  8
4_cut
  6
ByLayer
 62
  256
370
   -1
100
AcDbLine
 10
-68.5
 20
-349.9000073429539
 11
-68.5
 21
-325.8000073429537
  0
ARC
  5
201
100
AcDbEntity
  8
4_cut
  6
ByLayer
 62
  256
370
   -1
100
AcDbCircle
 10
-67.5
 20
-349.9000073429539
 40
1
100
AcDbArc
 50
180
 51
270
  0
MTEXT
  5
202
100
AcDbEntity
  8
0_engrave
  6
ByLayer
 62
  256
370
   -1
100
AcDbMText
 10
-81.09999999999999
 20
-346.2500073429538
 30
0
 40
6
 41
16.00000000000028
 71
    5
 72
    1
  1
Frog
  7

210
0
220
0
230
1
 50
180
 73
    2
 44
1
  0
LINE
  5
203
100
AcDbEntity
  8
4_cut
  6
ByLayer
 62
  256
370
   -1
100
AcDbLine
 10
-72.06666666666663
 20
-367.4000073429538
 11
-62.06666666666663
 21
-367.4000073429538
  0
LINE
  5
204
100
AcDbEntity
  8
4_cut
  6
ByLayer
 62
  256
370
   -1
100
AcDbLine
 10
-35.93333333333334
 20
-367.4000073429538
 11
-25.93333333333333
 21
-367.4000073429538
  0
LINE
  5
205
100
AcDbEntity
  8
4_cut
  6
ByLayer
 62
  256
370
   -1
100
AcDbLine
 10
-3.500000000000029
 20
-325.8000073429537
 11
-9.500000000000032
 21
-325.8000073429537
  0
LINE
  5
206
100
AcDbEntity
  8
4_cut
  6
ByLayer
 62
  256
370
   -1
100
AcDbLine
 10
-72.06666666666663
 20
-325.8000073429537
 11
-74.5
 21
-325.8000073429537
  0
LINE
  5
207
100
AcDbEntity
  8
4_cut
  6
ByLayer
 62
  256
370
   -1
100
AcDbLine
 10
-13.79999999999999
 20
-350.9000073429539
 11
-67.5
 21
-350.9000073429539
  0
LINE
  5
208
100
AcDbEntity
  8
2_cut
  6
ByLayer
 62
  256
370
   -1
100
AcDbLine
 10
-72.06666666666663
 20
-325.8000073429537
 11
-68.5
 21
-325.8000073429537
  0
LINE
  5
209
100
AcDbEntity
  8
4_cut
  6
ByLayer
 62
  256
370
   -1
100
AcDbLine
 10
-68.5
 20
-325.8000073429537
 11
-62.06666666666663
 21
-325.8000073429537
  0
LINE
  5
20A
100
AcDbEntity
  8
1_cut
  6
ByLayer
 62
  256
370
   -1
100
AcDbLine
 10
-13.79999999999999
 20
-309.3000073429538
 11
-67.5
 21
-309.3000073429538
  0
LINE
  5
20B
100
AcDbEntity
  8
1_cut
  6
ByLayer
 62
  256
370
   -1
100
AcDbLine
 10
-10.50000000000003
 20
-259.1000073429536
 11
-64.2
 21
-259.1000073429536
  0
LINE
  5
20C
100
AcDbEntity
  8
3_cut
  6
ByLayer
 62
  256
370
   -1
100
AcDbLine
 10
-10.50000000000003
 20
-88.09999999999985
 11
-67.5
 21
-88.09999999999985
  0
LINE
  5
20D
100
AcDbEntity
  8
4_cut
  6
ByLayer
 62
  256
370
   -1
100
AcDbLine
 10
-21.95000000000003
 20
-16.26666666666654
 11
-9.500000000000032
 21
-16.26666666666654
  0
LINE
  5
20E
100
AcDbEntity
  8
2_cut
  6
ByLayer
 62
  256
370
   -1
100
AcDbLine
 10
-48.10000000000004
 20
-49.73333333333323
 11
-48.10000000000004
 21
-62.99999999999983
  0
LINE
  5
20F
100
AcDbEntity
  8
4_cut
  6
ByLayer
 62
  256
370
   -1
100
AcDbLine
 10
-71.25000000000003
 20
-2.999999999999943
 11
-83.70000000000002
 21
-2.999999999999943
  0
LINE
  5
210
100
AcDbEntity
  8
2_cut
  6
ByLayer
 62
  256
370
   -1
100
AcDbLine
 10
-62.06666666666663
 20
-242.6000073429537
 11
-94.99999999999999
 21
-242.6000073429536
  0
LINE
  5
211
100
AcDbEntity
  8
2_cut
  6
ByLayer
 62
  256
370
   -1
100
AcDbLine
 10
-2.999999999999987
 20
-242.6000073429536
 11
-35.93333333333334
 21
-242.6000073429537
  0
LINE
  5
212
100
AcDbEntity
  8
1_cut
  6
ByLayer
 62
  256
370
   -1
100
AcDbLine
 10
-35.93333333333334
 20
-242.6000073429537
 11
-62.06666666666663
 21
-242.6000073429537
  0
LINE
  5
213
100
AcDbEntity
  8
2_cut
  6
ByLayer
 62
  256
370
   -1
100
AcDbLine
 10
-95
 20
-104.5999999999999
 11
-62.06666666666664
 21
-104.5999999999999
  0
LINE
  5
214
100
AcDbEntity
  8
1_cut
  6
ByLayer
 62
  256
370
   -1
100
AcDbLine
 10
-62.06666666666664
 20
-104.5999999999999
 11
-35.93333333333329
 21
-104.5999999999999
  0
LINE
  5
215
100
AcDbEntity
  8
2_cut
  6
ByLayer
 62
  256
370
   -1
100
AcDbLine
 10
-35.93333333333329
 20
-104.5999999999999
 11
-3.000000000000001
 21
-104.5999999999999
  0
ENDSEC
  0
SECTION
  2
OBJECTS
  0
DICTIONARY
  5
C
330
0
100
AcDbDictionary
281
    1
  3
ACAD_GROUP
350
D
  0
DICTIONARY
  5
D
330
C
100
AcDbDictionary
281
    1
  0
ENDSEC
  0
EOF
